


                     eT 1.7 - an electronic structure program

  ------------------------------------------------------------------------
   Author list in alphabetical order:
  ------------------------------------------------------------------------
   J. H. Andersen, A. Balbi, S. Coriani, S. D. Folkestad, T. Giovannini, 
   L. Goletto, T. S. Haugland, A. Hutcheson, I-M. Høyvik, E. F. Kjønstad, 
   H. Koch, R. Matveeva, T. Moitra, R. H. Myhre, A. C. Paul, S. Roet, 
   E. RoncaM. Scavino, A. K. Schnack-Petersen, A. S. Skeidsvoll, Å. 
   H. Tveten
  ------------------------------------------------------------------------
   J. Chem. Phys. 152, 184103 (2020); https://doi.org/10.1063/5.0004713


   This is eT 1.7.0 Hydra
  ------------------------------------------------------------
  Configuration date: 2022-04-07 12:33:31 UTC -07:00
  Git branch:         release-v1.7.0
  Git hash:           c5c382d7d23365463896a87c37298e4a37e4c962
  Fortran compiler:   GNU 11.2.0
  C compiler:         GNU 11.2.0
  C++ compiler:       GNU 11.2.0
  LAPACK type:        SYSTEM_NATIVE
  BLAS type:          SYSTEM_NATIVE
  64-bit integers:    OFF
  OpenMP:             ON
  PCM:                OFF
  Forced batching:    OFF
  Runtime checks:     OFF
  ------------------------------------------------------------

  Calculation started: 2022-04-07 12:34:52 UTC -07:00


  :: Input file
  ================

     Note: geometry section is excluded from this print

     system
       name: H2O
     end system

     do
       excited state
     end do

     method
       hf
       lowmem-cc2
     end method

     solver cholesky
       threshold: 1.0d-11
     end solver cholesky

     solver scf
       energy threshold:   1.0d-11
       gradient threshold: 1.0d-11
     end solver scf

     solver cc gs
       omega threshold:  1.0d-10
       energy threshold: 1.0d-10
     end solver cc gs

     solver cc es
       davidson preconvergence
       preconvergence threshold: 1.0d-4
       algorithm:                diis
       singlet states:           8
       residual threshold:       1.0d-10
       energy threshold:         1.0d-10
     end solver cc es


  Running on 2 OMP threads
  Memory available for calculation: 8.000000 GB


  :: RHF wavefunction
  ======================

     ==============================================================================
                                     Geometry (angstrom)
     ==============================================================================
        Atom           X                  Y                  Z         # in input
     ==============================================================================
        Basis: cc-pvdz
        1  O     1.405913559800     1.572886779400     0.000000000000        1
        2  H     2.375913559800     1.572886779400     0.000000000000        2
        3  H     1.082583748100     2.018536686100    -0.798595012200        3
     ==============================================================================

     ==============================================================================
                                     Geometry (a.u.)
     ==============================================================================
        Atom           X                  Y                  Z         # in input
     ==============================================================================
        Basis: cc-pvdz
        1  O     2.656791582834     2.972325238015     0.000000000000        1
        2  H     4.489825923662     2.972325238015     0.000000000000        2
        3  H     2.045786790814     3.814481509116    -1.509125857502        3
     ==============================================================================

  - Cholesky decomposition of AO overlap to get linearly independent AOs:

     Linear dependence threshold:             0.10E-05
     Number of atomic orbitals:               24
     Number of orthonormal atomic orbitals:   24

  - Molecular orbital details:

     Number of occupied orbitals:         5
     Number of virtual orbitals:         19
     Number of molecular orbitals:       24


  :: Hartree-Fock engine
  =========================

  Drives the calculation of the Hartree-Fock state.

  This is a RHF ground state calculation.
  The following tasks will be performed:

     1) Generate initial SAD density
     2) Calculation of reference state (SCF-DIIS algorithm)


  1) Generate initial SAD density


  2) Calculation of reference state (SCF-DIIS algorithm)

  - Setting initial AO density to sad

     Energy of initial guess:               -75.866198362985
     Number of electrons in guess:           10.000000000000

  - Screening and integral thresholds:

     Coulomb screening threshold:    0.1000E-16
     Exchange screening threshold:   0.1000E-14
     ERI cutoff:                     0.1000E-16
     One-electron integral  cutoff:  0.1000E-21
     Cumulative Fock threshold:      0.1000E+01

  - SCF solver settings:

     Maximum iterations:                   100
     Acceleration type:                   diis

  - Convergence thresholds

     Residual threshold:            0.1000E-10
     Energy threshold:              0.1000E-10

  - DIIS tool settings:

     DIIS dimension:   8

     Storage (solver scf_errors): memory
     Storage (solver scf_parameters): memory

  Iteration       Energy (a.u.)      Max(grad.)    Delta E (a.u.)
  ---------------------------------------------------------------
     1           -75.985777418040     0.8287E-01     0.7599E+02
     2           -76.015347578130     0.6105E-01     0.2957E-01
     3           -76.024828749726     0.3930E-02     0.9481E-02
     4           -76.025021279947     0.1385E-02     0.1925E-03
     5           -76.025035736433     0.2488E-03     0.1446E-04
     6           -76.025036230731     0.3574E-04     0.4943E-06
     7           -76.025036241546     0.2056E-05     0.1082E-07
     8           -76.025036241596     0.2503E-06     0.4954E-10
     9           -76.025036241597     0.4551E-07     0.8527E-12
    10           -76.025036241597     0.1172E-07     0.1279E-12
    11           -76.025036241597     0.1875E-08     0.0000E+00
    12           -76.025036241597     0.7853E-09     0.1421E-13
    13           -76.025036241597     0.8530E-10     0.5684E-13
    14           -76.025036241597     0.6065E-11     0.4263E-13
  ---------------------------------------------------------------
  Convergence criterion met in 14 iterations!

  - Summary of RHF wavefunction energetics (a.u.):

     HOMO-LUMO gap:                  0.674454972616
     Nuclear repulsion energy:       9.062772529384
     Electronic energy:            -85.087808770981
     Total energy:                 -76.025036241597

  - Timings for the RHF ground state calculation

     Total wall time (sec):              0.27500
     Total cpu time (sec):               0.32940


  :: LOW MEMORY CC2 wavefunction
  =================================

     Bath orbital(s):         False

   - Number of orbitals:

     Occupied orbitals:    5
     Virtual orbitals:     19
     Molecular orbitals:   24
     Atomic orbitals:      24

   - Number of ground state amplitudes:

     Single excitation amplitudes:  95


  Cholesky-decomposing electron repulsion integrals
  =================================================

  Cholesky decomposition of electronic repulsion integrals solver
  ---------------------------------------------------------------

  Performs a Cholesky decomposition of the two-electron electronic repulsion 
  integrals in the atomic orbital basis,

  (ab|cd) = sum_J L_ab^J L_cd^J.

  Once the Cholesky basis has been determined, the vectors L^J are constructed 
  and stored to disk. These may either be used directly, or be transformed 
  to the MO basis for use in post-HF calculations. For more information, 
  see S. D. Folkestad, E. F. Kjønstad and H. Koch, JCP, 150(19), (2019)

  - Cholesky decomposition settings:

     Target threshold is:   0.10E-10
     Span factor:           0.10E-01
     Max qual:                  1000

  - Cholesky decomposition ao details:

     Total number of AOs:                    24
     Total number of shell pairs:            78
     Total number of AO pairs:              300

     Significant shell pairs:                78
     Significant AO pairs:                  300

     Construct shell pairs:                  78
     Construct AO pairs:                    300

  Iter.  #Sign. ao pairs / shell pairs   Max diagonal    #Qualified    #Cholesky    Cholesky array size
  -------------------------------------------------------------------------------------------------------
     1               285 /      71       0.47383E+01         151             30              8550
     2               217 /      59       0.47048E-01         236             99             21483
     3               140 /      46       0.43027E-03         164            159             22260
     4                97 /      31       0.36747E-05         120            229             22213
     5                12 /       8       0.35637E-07          53            271              3252
     6                 0 /       0       0.24142E-09           9            279                 0
  -------------------------------------------------------------------------------------------------------

  - Summary of Cholesky decomposition of electronic repulsion integrals:

     Final number of Cholesky vectors: 279

 - Testing the Cholesky decomposition decomposition electronic repulsion integrals:

     Maximal difference between approximate and actual diagonal:              0.2122E-12
     Minimal element of difference between approximate and actual diagonal:  -0.1238E-14

  - Settings for integral handling:

     Cholesky vectors in memory: True
     ERI matrix in memory:       False

  - Finished decomposing the ERIs.

     Total wall time (sec):              0.22400
     Total cpu time (sec):               0.15048


  Determining CC cluster amplitudes
  =================================

   - DIIS coupled cluster ground state solver
  ----------------------------------------------

  A DIIS CC ground state amplitude equations solver. It uses an extrapolation 
  of previous quasi-Newton perturbation theory estimates of the next amplitudes. 
  See Helgaker et al., Molecular Electronic Structure Theory, Chapter 
  13.

  - CC ground state solver settings:

  - Convergence thresholds

     Residual threshold:            0.1000E-09
     Energy threshold:              0.1000E-09
     Max number of iterations:      100

  - DIIS tool settings:

     DIIS dimension:   8

     Storage (cc_gs_diis_errors): file
     Storage (cc_gs_diis_parameters): file

  Iteration    Energy (a.u.)        |omega|       Delta E (a.u.)
  ---------------------------------------------------------------
    1           -76.229433606710     0.3031E-01     0.7623E+02
    2           -76.230121048151     0.5769E-02     0.6874E-03
    3           -76.230295143570     0.5543E-03     0.1741E-03
    4           -76.230296910712     0.9652E-04     0.1767E-05
    5           -76.230297148319     0.1089E-04     0.2376E-06
    6           -76.230297133764     0.1209E-05     0.1455E-07
    7           -76.230297138100     0.9970E-07     0.4336E-08
    8           -76.230297137548     0.1100E-07     0.5524E-09
    9           -76.230297137514     0.1408E-08     0.3388E-10
   10           -76.230297137525     0.1401E-09     0.1059E-10
   11           -76.230297137525     0.2253E-10     0.5826E-12
  ---------------------------------------------------------------
  Convergence criterion met in 11 iterations!

  - Ground state summary:

     Final ground state energy (a.u.):   -76.230297137525

     Correlation energy (a.u.):           -0.205260895928

     Largest single amplitudes:
     -----------------------------------
        a       i         t(a,i)
     -----------------------------------
        1      4       -0.008717979728
       13      3        0.007398311092
        2      3       -0.006036512005
       14      4       -0.005035157297
        7      3        0.004665111821
        5      2       -0.004082727102
        6      5       -0.003544674849
       10      5       -0.003292616648
        1      2        0.003193347567
        9      4        0.002808643044
     ------------------------------------

  - Finished solving the LOW MEMORY CC2 ground state equations

     Total wall time (sec):              0.19300
     Total cpu time (sec):               0.06286


  Determining CC excited state amplitudes
  =======================================

   - DIIS coupled cluster excited state solver
  -----------------------------------------------

  A DIIS solver that solves for the lowest eigenvalues and  the right 
  eigenvectors of the Jacobian matrix, A. The eigenvalue  problem is solved 
  by DIIS extrapolation of residuals for each  eigenvector until the convergence 
  criteria are met.

  More on the DIIS algorithm can be found in P. Pulay, Chemical Physics 
  Letters, 73(2), 393-398 (1980).

  - Settings for coupled cluster excited state solver (DIIS):

     Calculation type:    valence
     Excitation vectors:  right

  - Convergence thresholds

     Residual threshold:            0.1000E-09
     Energy threshold:              0.1000E-09

     Number of singlet states:               8
     Max number of iterations:             100
     Enabled preconvergence using the non-linear Davidson solver.

     Preconvergence threshold:      0.10E-03


  - DIIS tool settings:

     DIIS dimension:  20

     Storage (diis_cc_es_001_errors): file
     Storage (diis_cc_es_001_parameters): file

  - DIIS tool settings:

     DIIS dimension:  20

     Storage (diis_cc_es_002_errors): file
     Storage (diis_cc_es_002_parameters): file

  - DIIS tool settings:

     DIIS dimension:  20

     Storage (diis_cc_es_003_errors): file
     Storage (diis_cc_es_003_parameters): file

  - DIIS tool settings:

     DIIS dimension:  20

     Storage (diis_cc_es_004_errors): file
     Storage (diis_cc_es_004_parameters): file

  - DIIS tool settings:

     DIIS dimension:  20

     Storage (diis_cc_es_005_errors): file
     Storage (diis_cc_es_005_parameters): file

  - DIIS tool settings:

     DIIS dimension:  20

     Storage (diis_cc_es_006_errors): file
     Storage (diis_cc_es_006_parameters): file

  - DIIS tool settings:

     DIIS dimension:  20

     Storage (diis_cc_es_007_errors): file
     Storage (diis_cc_es_007_parameters): file

  - DIIS tool settings:

     DIIS dimension:  20

     Storage (diis_cc_es_008_errors): file
     Storage (diis_cc_es_008_parameters): file

  Running the non-linear Davidson solver to produce first guesses for 
  the DIIS solver. When finished, the DIIS solver will restart from the 
  preconverged solutions.

   - Non-linear Davidson coupled cluster excited state solver
  --------------------------------------------------------------

  A Davidson solver that calculates the lowest eigenvalues and  the right 
  or left eigenvectors of the Jacobian matrix, A. The eigenvalue  problem 
  is solved in a reduced space, the dimension of which is  expanded until 
  the convergence criteria are met.

  A complete description of the algorithm can be found in  E. R. Davidson, 
  J. Comput. Phys. 17, 87 (1975).

  - Settings for coupled cluster excited state solver (Davidson):

     Calculation type:    valence
     Excitation vectors:  right

  - Convergence thresholds

     Residual threshold:            0.1000E-03
     Energy threshold:              0.1000E-03

     Number of singlet states:               8
     Max number of iterations:             100
     Max micro iterations:                 100
     Relative micro threshold:        0.10E+00


   - Davidson tool settings:

     Number of parameters:                   95
     Number of requested solutions:           8
     Max reduced space dimension:            95

     Storage (nonlin_cc_es_davidson_trials): file
     Storage (nonlin_cc_es_davidson_transforms): file

  Macro iteration: 1

  Root     Eigenvalue (Re)     Residual norm     Delta E
  ------------------------------------------------------------
   1       0.314424926556      0.9078E-01        0.3144E+00
   2       0.408687598547      0.1144E+00        0.4087E+00
   3       0.397359274713      0.9814E-01        0.3974E+00
   4       0.486090449030      0.9851E-01        0.4861E+00
   5       0.571185737094      0.8108E-01        0.5712E+00
   6       0.697936424026      0.1501E+00        0.6979E+00
   7       0.830678258408      0.1054E+00        0.8307E+00
   8       0.872243522525      0.1305E+00        0.8722E+00
  ------------------------------------------------------------

     Starting on microiterations

     Number of micro iterations: 3
     Number of transformations:  12


  Macro iteration: 2

  Root     Eigenvalue (Re)     Residual norm     Delta E
  ------------------------------------------------------------
   1       0.292215857101      0.6225E-02        0.2221E-01
   2       0.365605658513      0.9110E-02        0.4308E-01
   3       0.380511528329      0.7379E-02        0.1685E-01
   4       0.455570973168      0.1021E-01        0.3052E-01
   5       0.548029891441      0.1461E-01        0.2316E-01
   6       0.655965690888      0.1089E-01        0.4197E-01
   7       0.804281312413      0.1506E-01        0.2640E-01
   8       0.834451666886      0.2096E-01        0.3779E-01
  ------------------------------------------------------------

     Starting on microiterations

     Number of micro iterations: 3
     Number of transformations:  11


  Macro iteration: 3

  Root     Eigenvalue (Re)     Residual norm     Delta E
  ------------------------------------------------------------
   1       0.293268666993      0.5244E-03        0.1053E-02
   2       0.367560437545      0.1321E-02        0.1955E-02
   3       0.381281310722      0.1592E-02        0.7698E-03
   4       0.456855408283      0.7397E-03        0.1284E-02
   5       0.548706874710      0.1748E-02        0.6770E-03
   6       0.657616072092      0.1134E-02        0.1650E-02
   7       0.805846965625      0.1855E-02        0.1566E-02
   8       0.836598995075      0.2274E-02        0.2147E-02
  ------------------------------------------------------------

     Starting on microiterations

     Number of micro iterations: 3
     Number of transformations:  12


  Macro iteration: 4

  Root     Eigenvalue (Re)     Residual norm     Delta E
  ------------------------------------------------------------
   1       0.293218767403      0.5115E-04        0.4990E-04
   2       0.367470664562      0.1264E-03        0.8977E-04
   3       0.381242134410      0.4881E-04        0.3918E-04
   4       0.456798564696      0.1576E-03        0.5684E-04
   5       0.548683696893      0.7805E-04        0.2318E-04
   6       0.657550054911      0.7676E-04        0.6602E-04
   7       0.805776148646      0.2608E-03        0.7082E-04
   8       0.836493357993      0.2123E-03        0.1056E-03
  ------------------------------------------------------------

     Starting on microiterations

     Number of micro iterations: 3
     Number of transformations:  8


  Macro iteration: 5

  Root     Eigenvalue (Re)     Residual norm     Delta E
  ------------------------------------------------------------
   1       0.293221100656      0.4465E-04        0.2333E-05
   2       0.367474675899      0.5968E-05        0.4011E-05
   3       0.381243993180      0.4096E-04        0.1859E-05
   4       0.456801173849      0.2536E-04        0.2609E-05
   5       0.548684490129      0.2923E-04        0.7932E-06
   6       0.657552908857      0.2424E-04        0.2854E-05
   7       0.805779343539      0.1448E-04        0.3195E-05
   8       0.836498477736      0.2230E-04        0.5120E-05
  ------------------------------------------------------------
  Convergence criterion met in 5 iterations!

  - Excitation vector amplitudes:

     Electronic state nr. 1

     Energy (Hartree):                  0.293221100656
     Fraction singles (|R1|/|R|):       1.000000000000

     Largest single amplitudes:
     -----------------------------------
        a       i         R(a,i)
     -----------------------------------
        1      5       -0.994016967075
        4      5        0.096371628941
        5      5       -0.036359866065
       11      5        0.028687583072
        9      5        0.014241863505
       15      4       -0.007393395050
       14      5        0.007378654469
       18      5       -0.007307787818
        8      3       -0.006339858674
       16      3       -0.006260458168
     ------------------------------------

     Electronic state nr. 2

     Energy (Hartree):                  0.367474675899
     Fraction singles (|R1|/|R|):       1.000000000000

     Largest single amplitudes:
     -----------------------------------
        a       i         R(a,i)
     -----------------------------------
        2      5       -0.986967529383
        3      5       -0.138960872883
        7      5       -0.078832974818
       13      5       -0.017299360652
        8      2        0.005087048108
        6      3        0.004456137688
       12      5       -0.003374948177
       10      3       -0.002517777204
       19      5       -0.002004074447
       16      2       -0.001633240514
     ------------------------------------

     Electronic state nr. 3

     Energy (Hartree):                  0.381243993180
     Fraction singles (|R1|/|R|):       1.000000000000

     Largest single amplitudes:
     -----------------------------------
        a       i         R(a,i)
     -----------------------------------
        1      4        0.991894151921
        4      4       -0.079132631714
        2      3       -0.058699901641
        1      2        0.047273147803
        6      5       -0.034547242776
        3      3       -0.029297325297
       11      4       -0.028720858529
        7      3       -0.019785207319
        9      4       -0.019186766528
        4      2       -0.015062508366
     ------------------------------------

     Electronic state nr. 4

     Energy (Hartree):                  0.456801173849
     Fraction singles (|R1|/|R|):       1.000000000000

     Largest single amplitudes:
     -----------------------------------
        a       i         R(a,i)
     -----------------------------------
        2      4        0.990264327454
        3      4        0.095330166019
        7      4        0.080238579385
        1      3       -0.040934872472
        4      3        0.035538297550
        8      5       -0.016277638683
        2      2        0.014817478527
        9      3       -0.009124887956
       13      4        0.009072013925
       14      3        0.008437389000
     ------------------------------------

     Electronic state nr. 5

     Energy (Hartree):                  0.548684490129
     Fraction singles (|R1|/|R|):       1.000000000000

     Largest single amplitudes:
     -----------------------------------
        a       i         R(a,i)
     -----------------------------------
        1      3        0.993932957814
        4      3       -0.070771784162
        2      4        0.049667356253
        5      3        0.039995511351
        3      4       -0.035567229767
        2      2       -0.024492314076
       11      3       -0.021940020607
        9      3       -0.017063518095
       14      3       -0.010649014197
        8      5       -0.010035466014
     ------------------------------------

     Electronic state nr. 6

     Energy (Hartree):                  0.657552908857
     Fraction singles (|R1|/|R|):       1.000000000000

     Largest single amplitudes:
     -----------------------------------
        a       i         R(a,i)
     -----------------------------------
        2      3       -0.983995508444
        6      5        0.105735116100
        5      4        0.086624857379
        4      4       -0.067134376336
        1      4       -0.056013207090
        3      3       -0.054109246502
        7      3       -0.027948609364
       11      2        0.018682461428
        1      2       -0.018536282206
        9      2        0.016583756979
     ------------------------------------

     Electronic state nr. 7

     Energy (Hartree):                  0.805779343539
     Fraction singles (|R1|/|R|):       1.000000000000

     Largest single amplitudes:
     -----------------------------------
        a       i         R(a,i)
     -----------------------------------
        3      5        0.990904570617
        2      5       -0.121730794698
       13      5        0.046824213944
        7      5        0.030127636980
        8      2       -0.008467267778
        6      3       -0.008398104507
       12      5        0.004644043921
       10      3        0.004613314298
        8      4        0.001407082740
       16      2        0.001039902106
     ------------------------------------

     Electronic state nr. 8

     Energy (Hartree):                  0.836498477736
     Fraction singles (|R1|/|R|):       1.000000000000

     Largest single amplitudes:
     -----------------------------------
        a       i         R(a,i)
     -----------------------------------
        4      5        0.992744638686
        1      5        0.080509791818
        5      5       -0.063590439584
       14      5        0.029981722922
        8      3       -0.029940087003
        9      5       -0.023112869312
       10      4       -0.018230776509
       18      5       -0.017731378897
       17      5       -0.015939290802
       15      4       -0.014991643198
     ------------------------------------

     - Electronic excitation energies:

                                      Excitation energy
                          ------------------------------------------
      State                (Hartree)             (eV)
     ---------------------------------------------------------------
        1                  0.293221100656        7.978952559169
        2                  0.367474675899        9.999495258457
        3                  0.381243993180       10.374177466228
        4                  0.456801173849       12.430193075987
        5                  0.548684490129       14.930465464097
        6                  0.657552908857       17.892926031474
        7                  0.805779343539       21.926372763992
        8                  0.836498477736       22.762282982807
     ---------------------------------------------------------------
     eV/Hartree (CODATA 2014): 27.21138602

  - Finished solving the LOW MEMORY CC2 excited state equations (right)

     Total wall time (sec):              1.06600
     Total cpu time (sec):               0.46918

  Finished preconvergence! The DIIS solver will now restart from the preconverged 
  solutions.
     Restarting right vector 1 from file r_001.
     Restarting right vector 2 from file r_002.
     Restarting right vector 3 from file r_003.
     Restarting right vector 4 from file r_004.
     Restarting right vector 5 from file r_005.
     Restarting right vector 6 from file r_006.
     Restarting right vector 7 from file r_007.
     Restarting right vector 8 from file r_008.

  Iteration:                  1

   Root     Eigenvalue (Re)     Residual norm
  -----------------------------------------------
     1      0.293220986553       0.4466E-04
     2      0.367474487701       0.5936E-05
     3      0.381243901401       0.4098E-04
     4      0.456801052457       0.2536E-04
     5      0.548684461803       0.2923E-04
     6      0.657552789148       0.2424E-04
     7      0.805779178158       0.1442E-04
     8      0.836498191895       0.2221E-04
  -----------------------------------------------

  Iteration:                  2

   Root     Eigenvalue (Re)     Residual norm
  -----------------------------------------------
     1      0.293220972329       0.8182E-05
     2      0.367474505259       0.1771E-05
     3      0.381243803999       0.1082E-04
     4      0.456801077537       0.2879E-05
     5      0.548684462819       0.3497E-05
     6      0.657552691199       0.8790E-05
     7      0.805779480636       0.5750E-04
     8      0.836498421621       0.4044E-04
  -----------------------------------------------

  Iteration:                  3

   Root     Eigenvalue (Re)     Residual norm
  -----------------------------------------------
     1      0.293220968266       0.9822E-06
     2      0.367474512280       0.3346E-06
     3      0.381243770805       0.1478E-05
     4      0.456801085523       0.5838E-06
     5      0.548684463969       0.9602E-06
     6      0.657552693578       0.4926E-05
     7      0.805779215072       0.1608E-05
     8      0.836498255228       0.3250E-05
  -----------------------------------------------

  Iteration:                  4

   Root     Eigenvalue (Re)     Residual norm
  -----------------------------------------------
     1      0.293220969133       0.9472E-07
     2      0.367474512607       0.3952E-07
     3      0.381243768935       0.2556E-06
     4      0.456801086947       0.1047E-06
     5      0.548684463742       0.7404E-06
     6      0.657552701748       0.2674E-05
     7      0.805779229507       0.2967E-06
     8      0.836498259760       0.7758E-06
  -----------------------------------------------

  Iteration:                  5

   Root     Eigenvalue (Re)     Residual norm
  -----------------------------------------------
     1      0.293220969330       0.1742E-07
     2      0.367474512533       0.6400E-08
     3      0.381243768996       0.5253E-07
     4      0.456801087079       0.2151E-07
     5      0.548684465373       0.3453E-06
     6      0.657552696968       0.3901E-06
     7      0.805779228697       0.2391E-06
     8      0.836498258011       0.2504E-06
  -----------------------------------------------

  Iteration:                  6

   Root     Eigenvalue (Re)     Residual norm
  -----------------------------------------------
     1      0.293220969372       0.2846E-08
     2      0.367474512524       0.5202E-09
     3      0.381243768926       0.7851E-08
     4      0.456801087031       0.9974E-08
     5      0.548684465733       0.6032E-07
     6      0.657552697703       0.9563E-07
     7      0.805779228545       0.4549E-07
     8      0.836498257893       0.3384E-07
  -----------------------------------------------

  Iteration:                  7

   Root     Eigenvalue (Re)     Residual norm
  -----------------------------------------------
     1      0.293220969371       0.2572E-09
     2      0.367474512524       0.2799E-10
     3      0.381243768929       0.1512E-08
     4      0.456801087007       0.3729E-08
     5      0.548684465835       0.9102E-08
     6      0.657552697803       0.1755E-07
     7      0.805779228467       0.9598E-08
     8      0.836498257867       0.2313E-08
  -----------------------------------------------

  Iteration:                  8

   Root     Eigenvalue (Re)     Residual norm
  -----------------------------------------------
     1      0.293220969371       0.3000E-10
     2      0.367474512524       0.2799E-10
     3      0.381243768931       0.4178E-09
     4      0.456801087010       0.3307E-09
     5      0.548684465852       0.7601E-09
     6      0.657552697799       0.1745E-07
     7      0.805779228461       0.1989E-08
     8      0.836498257868       0.1631E-08
  -----------------------------------------------

  Iteration:                  9

   Root     Eigenvalue (Re)     Residual norm
  -----------------------------------------------
     1      0.293220969371       0.3000E-10
     2      0.367474512524       0.2799E-10
     3      0.381243768931       0.5127E-10
     4      0.456801087010       0.3848E-10
     5      0.548684465852       0.8259E-10
     6      0.657552697770       0.2892E-08
     7      0.805779228458       0.1686E-09
     8      0.836498257867       0.2505E-09
  -----------------------------------------------

  Iteration:                 10

   Root     Eigenvalue (Re)     Residual norm
  -----------------------------------------------
     1      0.293220969371       0.3000E-10
     2      0.367474512524       0.2799E-10
     3      0.381243768931       0.5127E-10
     4      0.456801087010       0.3848E-10
     5      0.548684465852       0.8259E-10
     6      0.657552697766       0.2770E-09
     7      0.805779228458       0.1132E-09
     8      0.836498257867       0.2305E-09
  -----------------------------------------------

  Iteration:                 11

   Root     Eigenvalue (Re)     Residual norm
  -----------------------------------------------
     1      0.293220969371       0.3000E-10
     2      0.367474512524       0.2799E-10
     3      0.381243768931       0.5127E-10
     4      0.456801087010       0.3848E-10
     5      0.548684465852       0.8259E-10
     6      0.657552697766       0.4984E-10
     7      0.805779228458       0.1027E-09
     8      0.836498257868       0.1539E-09
  -----------------------------------------------

  Iteration:                 12

   Root     Eigenvalue (Re)     Residual norm
  -----------------------------------------------
     1      0.293220969371       0.3000E-10
     2      0.367474512524       0.2799E-10
     3      0.381243768931       0.5127E-10
     4      0.456801087010       0.3848E-10
     5      0.548684465852       0.8259E-10
     6      0.657552697766       0.4984E-10
     7      0.805779228458       0.4228E-10
     8      0.836498257868       0.3581E-10
  -----------------------------------------------
  Convergence criterion met in 12 iterations!

  - Resorting roots according to excitation energy.

  - Stored converged states to file.

  - Excitation vector amplitudes:

     Electronic state nr. 1

     Energy (Hartree):                  0.293220969371
     Fraction singles (|R1|/|R|):       1.000000000000

     Largest single amplitudes:
     -----------------------------------
        a       i         R(a,i)
     -----------------------------------
        1      5       -0.994016987609
        4      5        0.096374767011
        5      5       -0.036359242982
       11      5        0.028679142453
        9      5        0.014236017139
       15      4       -0.007389583977
       14      5        0.007376774755
       18      5       -0.007313247172
        8      3       -0.006338812512
       16      3       -0.006257918124
     ------------------------------------

     Electronic state nr. 2

     Energy (Hartree):                  0.367474512524
     Fraction singles (|R1|/|R|):       1.000000000000

     Largest single amplitudes:
     -----------------------------------
        a       i         R(a,i)
     -----------------------------------
        2      5       -0.986966342357
        3      5       -0.138968335870
        7      5       -0.078834691730
       13      5       -0.017299182743
        8      2        0.005087289819
        6      3        0.004455971483
       12      5       -0.003375580152
       10      3       -0.002517879649
       19      5       -0.002003967574
       16      2       -0.001632882575
     ------------------------------------

     Electronic state nr. 3

     Energy (Hartree):                  0.381243768931
     Fraction singles (|R1|/|R|):       1.000000000000

     Largest single amplitudes:
     -----------------------------------
        a       i         R(a,i)
     -----------------------------------
        1      4        0.991896061068
        4      4       -0.079110826943
        2      3       -0.058701125574
        1      2        0.047291566518
        6      5       -0.034531692742
        3      3       -0.029292274575
       11      4       -0.028714351229
        7      3       -0.019787949877
        9      4       -0.019183459004
        4      2       -0.015059230593
     ------------------------------------

     Electronic state nr. 4

     Energy (Hartree):                  0.456801087010
     Fraction singles (|R1|/|R|):       1.000000000000

     Largest single amplitudes:
     -----------------------------------
        a       i         R(a,i)
     -----------------------------------
        2      4        0.990263296479
        3      4        0.095338970352
        7      4        0.080240284516
        1      3       -0.040934780066
        4      3        0.035537146373
        8      5       -0.016279669457
        2      2        0.014817889757
        9      3       -0.009125916192
       13      4        0.009071766082
       14      3        0.008438425788
     ------------------------------------

     Electronic state nr. 5

     Energy (Hartree):                  0.548684465852
     Fraction singles (|R1|/|R|):       1.000000000000

     Largest single amplitudes:
     -----------------------------------
        a       i         R(a,i)
     -----------------------------------
        1      3        0.993932269052
        4      3       -0.070773365649
        2      4        0.049668991415
        5      3        0.039994510448
        3      4       -0.035581319553
        2      2       -0.024493487213
       11      3       -0.021940977120
        9      3       -0.017062459956
       14      3       -0.010650498607
        8      5       -0.010032841047
     ------------------------------------

     Electronic state nr. 6

     Energy (Hartree):                  0.657552697766
     Fraction singles (|R1|/|R|):       1.000000000000

     Largest single amplitudes:
     -----------------------------------
        a       i         R(a,i)
     -----------------------------------
        2      3       -0.983997885363
        6      5        0.105728556564
        5      4        0.086620296402
        4      4       -0.067111983407
        1      4       -0.056017669346
        3      3       -0.054108835540
        7      3       -0.027948302870
       11      2        0.018681955767
        1      2       -0.018540992341
        9      2        0.016582719602
     ------------------------------------

     Electronic state nr. 7

     Energy (Hartree):                  0.805779228458
     Fraction singles (|R1|/|R|):       1.000000000000

     Largest single amplitudes:
     -----------------------------------
        a       i         R(a,i)
     -----------------------------------
        3      5        0.990902208570
        2      5       -0.121749945498
       13      5        0.046825499117
        7      5        0.030126942599
        8      2       -0.008467297025
        6      3       -0.008393425195
       12      5        0.004644963945
       10      3        0.004613958694
        8      4        0.001408331796
       16      2        0.001040317002
     ------------------------------------

     Electronic state nr. 8

     Energy (Hartree):                  0.836498257868
     Fraction singles (|R1|/|R|):       1.000000000000

     Largest single amplitudes:
     -----------------------------------
        a       i         R(a,i)
     -----------------------------------
        4      5        0.992743049173
        1      5        0.080535631565
        5      5       -0.063578870268
       14      5        0.029980213065
        8      3       -0.029942108121
        9      5       -0.023120855646
       10      4       -0.018232146170
       18      5       -0.017730877005
       17      5       -0.015939720867
       15      4       -0.014992140082
     ------------------------------------

     - Electronic excitation energies:

                                      Excitation energy
                          ------------------------------------------
      State                (Hartree)             (eV)
     ---------------------------------------------------------------
        1                  0.293220969371        7.978948986716
        2                  0.367474512524        9.999490812802
        3                  0.381243768931       10.374171364098
        4                  0.456801087010       12.430190712974
        5                  0.548684465852       14.930464803468
        6                  0.657552697766       17.892920287407
        7                  0.805779228458       21.926369632472
        8                  0.836498257868       22.762276999901
     ---------------------------------------------------------------
     eV/Hartree (CODATA 2014): 27.21138602

  - Finished solving the LOW MEMORY CC2 excited state equations (right)

     Total wall time (sec):              1.97500
     Total cpu time (sec):               0.85318

  ------------------------------------------------------------

  Peak memory usage during the execution of eT: 5.860024 MB

  Total wall time in eT (sec):              2.69000
  Total cpu time in eT (sec):               1.41709

  Calculation ended: 2022-04-07 12:34:55 UTC -07:00

  - Implementation references:

     eT: https://doi.org/10.1063/5.0004713
     Cholesky decomposition of ERIs: https://doi.org/10.1063/1.5083802

  eT terminated successfully!
