   0.0000000000000000        0.0000000000000000        0.0000000000000000        0.0000000000000000        0.0000000000000000       0.19127332460960558        0.0000000000000000     
   12.083048667653051        0.0000000000000000        0.0000000000000000        0.0000000000000000        0.0000000000000000        6.1648815321226916E-002 -0.16255456643141594     
   24.166097335306102        0.0000000000000000        0.0000000000000000        0.0000000000000000        0.0000000000000000       -9.6557081962469829E-002  -8.5542110142539984E-002
   36.249146002959151        0.0000000000000000        0.0000000000000000        0.0000000000000000        0.0000000000000000       -6.6113528122127160E-002   3.4699056321011557E-002
   48.332194670612203        0.0000000000000000        0.0000000000000000        0.0000000000000000        0.0000000000000000        3.5450395296007780E-003   2.9196027239249585E-002
   60.415243338265256        0.0000000000000000        0.0000000000000000        0.0000000000000000        0.0000000000000000        3.2388542830890997E-003   7.9830588236781685E-004
   72.498292005918302        0.0000000000000000        0.0000000000000000        0.0000000000000000        0.0000000000000000       -2.6575493791200534E-003   3.8501249627211878E-003
   84.581340673571361        0.0000000000000000        0.0000000000000000        0.0000000000000000        0.0000000000000000        1.6219156335612345E-003   2.3497504570430552E-003
   96.664389341224407        0.0000000000000000        0.0000000000000000        0.0000000000000000        0.0000000000000000       -4.2585220983674314E-004   1.0496314264801262E-004
   108.74743800887745        0.0000000000000000        0.0000000000000000        0.0000000000000000        0.0000000000000000       -1.6087963408049791E-004   1.3249629911415318E-003
   120.83048667653051        0.0000000000000000        0.0000000000000000        0.0000000000000000        0.0000000000000000        3.7661061203305514E-004   1.9766049716612663E-004
   132.91353534418357        0.0000000000000000        0.0000000000000000        0.0000000000000000        0.0000000000000000       -2.4345467805478427E-004   2.1568202416239008E-004
   144.99658401183660        0.0000000000000000        0.0000000000000000        0.0000000000000000        0.0000000000000000        8.2171104989899746E-005   2.1666739701697380E-004
