   0.0000000000000000       -1.6004050079933808E-004  -1.6131974254605978E-007  0.77019421979728564        1.2162843575186269E-005  0.16670714148469193       -1.6920051532037859E-004
   12.083048667653051        1.9783481038697884E-006   5.0992942671910098E-005   8.1779315274437220E-004  -1.0006838189980146E-003   3.6801875570930244E-004   8.1915790975604433E-002
   24.166097335306102       -1.4153776182082733E-006   2.2616300907724124E-005   9.2663992391398418E-005  -8.5080273808386595E-004  -2.2529937734641617E-003   3.3793399998489689E-002
   36.249146002959151       -3.8080332461992813E-006   1.3403756438431177E-005  -4.9787967924198314E-005  -3.2875703710499355E-004  -6.6190167836797783E-003   2.0589317209859272E-002
   48.332194670612203       -4.9080161669974506E-006   9.8160259472509012E-006   1.2600977497533388E-004  -1.7138723833322894E-004  -7.5101882055222851E-003   1.5230498942409985E-002
   60.415243338265256       -4.9708016153463767E-006   7.6906865320272225E-006   1.4961212639826594E-004  -1.9435467308345531E-004  -7.5756878247671992E-003   1.1629186442308646E-002
   72.498292005918302       -4.9537660129765687E-006   5.9442109406359804E-006   1.1873728469732196E-004  -1.5387659131008507E-004  -7.6880931105643277E-003   9.0332642514080134E-003
   84.581340673571361       -5.0381983858197982E-006   4.6370050651277138E-006   1.2498795978949223E-004  -1.1321338472227757E-004  -7.7498390820788738E-003   7.0960069697017540E-003
   96.664389341224407       -5.0714442607805725E-006   3.6228305248117511E-006   1.2603596123250837E-004  -9.1488715460801432E-005  -7.7876416070429963E-003   5.5236580166426463E-003
   108.74743800887745       -5.0899321003168650E-006   2.7497392768122608E-006   1.2583360733702822E-004  -6.8149455250318808E-005  -7.8160051597381090E-003   4.2012842205402792E-003
   120.83048667653051       -5.1068468927653004E-006   1.9886493398820466E-006   1.2742411330085761E-004  -4.9916279535373935E-005  -7.8318138275919654E-003   3.0360602998161473E-003
   132.91353534418357       -5.1135583135707981E-006   1.2935110607324814E-006   1.2700028047331937E-004  -3.2714877072342182E-005  -7.8438640574558880E-003   1.9738748010036601E-003
   144.99658401183660       -5.1193410409466441E-006   6.3832023819448642E-007   1.2753814774865203E-004  -1.6215716832291201E-005  -7.8498900739366190E-003   9.7426171317169577E-004
