


                     eT 1.7 - an electronic structure program

  ------------------------------------------------------------------------
   Author list in alphabetical order:
  ------------------------------------------------------------------------
   J. H. Andersen, A. Balbi, S. Coriani, S. D. Folkestad, T. Giovannini, 
   L. Goletto, T. S. Haugland, A. Hutcheson, I-M. Høyvik, E. F. Kjønstad, 
   H. Koch, R. Matveeva, T. Moitra, R. H. Myhre, A. C. Paul, S. Roet, 
   E. RoncaM. Scavino, A. K. Schnack-Petersen, A. S. Skeidsvoll, Å. 
   H. Tveten
  ------------------------------------------------------------------------
   J. Chem. Phys. 152, 184103 (2020); https://doi.org/10.1063/5.0004713


   This is eT 1.7.0 Hydra
  ------------------------------------------------------------
  Configuration date: 2022-04-07 12:33:31 UTC -07:00
  Git branch:         release-v1.7.0
  Git hash:           c5c382d7d23365463896a87c37298e4a37e4c962
  Fortran compiler:   GNU 11.2.0
  C compiler:         GNU 11.2.0
  C++ compiler:       GNU 11.2.0
  LAPACK type:        SYSTEM_NATIVE
  BLAS type:          SYSTEM_NATIVE
  64-bit integers:    OFF
  OpenMP:             ON
  PCM:                OFF
  Forced batching:    OFF
  Runtime checks:     OFF
  ------------------------------------------------------------

  Calculation started: 2022-04-07 12:35:35 UTC -07:00


  :: Input file
  ================

     Note: geometry section is excluded from this print

     system
        name: H2O He
        charge: 0
     end system

     do
        response
     end do

     memory
        available: 8
     end memory

     method
        hf
        cc3
     end method

     cc response
        eom
        dipole length
        transition moments
     end cc response

     solver cholesky
        threshold: 1.0d-12
     end solver cholesky

     solver scf
        algorithm:          scf-diis
        energy threshold:   1.0d-11
        gradient threshold: 1.0d-11
     end solver scf

     solver cc gs
        omega threshold:  1.0d-11
        energy threshold: 1.0d-11
     end solver cc gs

     solver cc multipliers
        threshold: 1.0d-11
        algorithm: diis
     end solver cc multipliers

     solver cc es
        core excitation:    {1}
        algorithm:          diis
        singlet states:     1
        residual threshold: 1.0d-11
        energy threshold:   1.0d-11
     end solver cc es


  Running on 2 OMP threads
  Memory available for calculation: 8.000000 GB


  :: RHF wavefunction
  ======================

     ==============================================================================
                                     Geometry (angstrom)
     ==============================================================================
        Atom           X                  Y                  Z         # in input
     ==============================================================================
        Basis: cc-pvdz
        1  H     0.866810000000     0.601440000000     5.000000000000        1
        2  H    -0.866810000000     0.601440000000     5.000000000000        2
        3  O     0.000000000000    -0.075790000000     5.000000000000        3
        4 He     0.100000000000    -0.020000000000     7.530000000000        4
     ==============================================================================

     ==============================================================================
                                     Geometry (a.u.)
     ==============================================================================
        Atom           X                  Y                  Z         # in input
     ==============================================================================
        Basis: cc-pvdz
        1  H     1.638033502034     1.136556880358     9.448630622825        1
        2  H    -1.638033502034     1.136556880358     9.448630622825        2
        3  O     0.000000000000    -0.143222342981     9.448630622825        3
        4 He     0.188972612457    -0.037794522491    14.229637717975        4
     ==============================================================================

  - Cholesky decomposition of AO overlap to get linearly independent AOs:

     Linear dependence threshold:             0.10E-05
     Number of atomic orbitals:               29
     Number of orthonormal atomic orbitals:   29

  - Molecular orbital details:

     Number of occupied orbitals:         6
     Number of virtual orbitals:         23
     Number of molecular orbitals:       29


  :: Hartree-Fock engine
  =========================

  Drives the calculation of the Hartree-Fock state.

  This is a RHF ground state calculation.
  The following tasks will be performed:

     1) Generate initial SAD density
     2) Calculation of reference state (SCF-DIIS algorithm)


  1) Generate initial SAD density


  2) Calculation of reference state (SCF-DIIS algorithm)

  - Setting initial AO density to sad

     Energy of initial guess:               -78.492022836321
     Number of electrons in guess:           12.000000000000

  - Screening and integral thresholds:

     Coulomb screening threshold:    0.1000E-16
     Exchange screening threshold:   0.1000E-14
     ERI cutoff:                     0.1000E-16
     One-electron integral  cutoff:  0.1000E-21
     Cumulative Fock threshold:      0.1000E+01

  - SCF solver settings:

     Maximum iterations:                   100
     Acceleration type:                   diis

  - Convergence thresholds

     Residual threshold:            0.1000E-10
     Energy threshold:              0.1000E-10

  - DIIS tool settings:

     DIIS dimension:   8

     Storage (solver scf_errors): memory
     Storage (solver scf_parameters): memory

  Iteration       Energy (a.u.)      Max(grad.)    Delta E (a.u.)
  ---------------------------------------------------------------
     1           -78.796606592585     0.9786E-01     0.7880E+02
     2           -78.828675852654     0.7077E-01     0.3207E-01
     3           -78.843487343819     0.6747E-02     0.1481E-01
     4           -78.843814479549     0.2753E-02     0.3271E-03
     5           -78.843850612079     0.3973E-03     0.3613E-04
     6           -78.843851670925     0.5220E-04     0.1059E-05
     7           -78.843851692779     0.6096E-05     0.2185E-07
     8           -78.843851693528     0.2137E-05     0.7488E-09
     9           -78.843851693630     0.3151E-06     0.1027E-09
    10           -78.843851693631     0.2637E-07     0.4690E-12
    11           -78.843851693631     0.5634E-08     0.2842E-13
    12           -78.843851693631     0.1415E-08     0.7105E-13
    13           -78.843851693631     0.6806E-09     0.4263E-13
    14           -78.843851693631     0.1491E-09     0.1421E-13
    15           -78.843851693631     0.2501E-10     0.1421E-13
    16           -78.843851693631     0.5167E-11     0.5684E-13
  ---------------------------------------------------------------
  Convergence criterion met in 16 iterations!

  - Summary of RHF wavefunction energetics (a.u.):

     HOMO-LUMO gap:                  0.645629080245
     Nuclear repulsion energy:      12.116100574587
     Electronic energy:            -90.959952268218
     Total energy:                 -78.843851693631

  - Timings for the RHF ground state calculation

     Total wall time (sec):              0.32500
     Total cpu time (sec):               0.44134


  :: CC3 wavefunction
  ======================

     Bath orbital(s):         False

   - Number of orbitals:

     Occupied orbitals:    6
     Virtual orbitals:     23
     Molecular orbitals:   29
     Atomic orbitals:      29

   - Number of ground state amplitudes:

     Single excitation amplitudes:  138
     Double excitation amplitudes:  9591


  Cholesky-decomposing electron repulsion integrals
  =================================================

  Cholesky decomposition of electronic repulsion integrals solver
  ---------------------------------------------------------------

  Performs a Cholesky decomposition of the two-electron electronic repulsion 
  integrals in the atomic orbital basis,

  (ab|cd) = sum_J L_ab^J L_cd^J.

  Once the Cholesky basis has been determined, the vectors L^J are constructed 
  and stored to disk. These may either be used directly, or be transformed 
  to the MO basis for use in post-HF calculations. For more information, 
  see S. D. Folkestad, E. F. Kjønstad and H. Koch, JCP, 150(19), (2019)

  - Cholesky decomposition settings:

     Target threshold is:   0.10E-11
     Span factor:           0.10E-01
     Max qual:                  1000

  - Cholesky decomposition ao details:

     Total number of AOs:                    29
     Total number of shell pairs:           120
     Total number of AO pairs:              435

     Significant shell pairs:               118
     Significant AO pairs:                  431

     Construct shell pairs:                 120
     Construct AO pairs:                    435

  Iter.  #Sign. ao pairs / shell pairs   Max diagonal    #Qualified    #Cholesky    Cholesky array size
  -------------------------------------------------------------------------------------------------------
     1               406 /     108       0.47383E+01         147             42             17052
     2               319 /      93       0.47165E-01         234            111             35409
     3               250 /      76       0.46944E-03         178            183             45750
     4               187 /      55       0.38270E-05         145            265             49555
     5                87 /      25       0.38106E-07          78            324             28188
     6                21 /       3       0.37202E-09          43            349              7329
     7                 0 /       0       0.36652E-11           7            354                 0
  -------------------------------------------------------------------------------------------------------

  - Summary of Cholesky decomposition of electronic repulsion integrals:

     Final number of Cholesky vectors: 354

 - Testing the Cholesky decomposition decomposition electronic repulsion integrals:

     Maximal difference between approximate and actual diagonal:              0.7161E-12
     Minimal element of difference between approximate and actual diagonal:  -0.1238E-14

  - Settings for integral handling:

     Cholesky vectors in memory: True
     ERI matrix in memory:       True

  - Finished decomposing the ERIs.

     Total wall time (sec):              0.23300
     Total cpu time (sec):               0.21307


  Determining CC cluster amplitudes
  =================================

   - Davidson tool settings:

     Number of parameters:                 9729
     Number of requested solutions:           1
     Max reduced space dimension:            50

     Storage (newton_raphson_amplitude_updator_trials): file
     Storage (newton_raphson_amplitude_updator_transforms): file

   - DIIS coupled cluster ground state solver
  ----------------------------------------------

  A DIIS CC ground state amplitude equations solver. It uses an extrapolation 
  of previous quasi-Newton perturbation theory estimates of the next amplitudes. 
  See Helgaker et al., Molecular Electronic Structure Theory, Chapter 
  13.

  - CC ground state solver settings:

  - Convergence thresholds

     Residual threshold:            0.1000E-10
     Energy threshold:              0.1000E-10
     Max number of iterations:      100

  - DIIS tool settings:

     DIIS dimension:   8

     Storage (cc_gs_diis_errors): file
     Storage (cc_gs_diis_parameters): file

  Iteration    Energy (a.u.)        |omega|       Delta E (a.u.)
  ---------------------------------------------------------------
    1           -79.084241931608     0.9358E-01     0.7908E+02
    2           -79.103956188886     0.1780E-02     0.1971E-01
    3           -79.104372326749     0.1172E-03     0.4161E-03
    4           -79.104388195848     0.9192E-05     0.1587E-04
    5           -79.104388536633     0.8539E-06     0.3408E-06
    6           -79.104388533341     0.4169E-07     0.3292E-08
    7           -79.104388533080     0.2159E-08     0.2611E-09
    8           -79.104388533034     0.9443E-10     0.4638E-10
    9           -79.104388533033     0.3531E-11     0.9379E-12
  ---------------------------------------------------------------
  Convergence criterion met in 9 iterations!

  - Ground state summary:

     Final ground state energy (a.u.):   -79.104388533033

     Correlation energy (a.u.):           -0.260536839402

     Largest single amplitudes:
     -----------------------------------
        a       i         t(a,i)
     -----------------------------------
        1      5        0.015274304435
       14      4       -0.008970023658
        7      4        0.007312583244
        4      5        0.006872684673
        2      4        0.006012921703
       15      5       -0.005704150040
        6      2        0.005025576014
       13      5        0.004933889031
        5      6        0.004366074635
        3      4        0.004126391914
     ------------------------------------

     Largest double amplitudes:
     --------------------------------------------------
        a      i       b      j         t(ai,bj)
     --------------------------------------------------
        2      4       2      4       -0.049931914505
        5      6       5      6       -0.046567925291
        9      3       9      3       -0.041349512985
        3      4       3      4       -0.037778342513
        1      5       1      5       -0.037299297231
        6      5       6      5       -0.034903296771
       16      3      16      3       -0.032107572471
       17      3      17      3       -0.032051843284
        2      4       1      5       -0.031565942819
       18      3      18      3       -0.031349888894
     --------------------------------------------------

  - Finished solving the CC3 ground state equations

     Total wall time (sec):              2.02600
     Total cpu time (sec):               1.27672


  Determining CC multipliers
  ==========================

   - DIIS coupled cluster multipliers solver
  ---------------------------------------------

  A DIIS CC multiplier equations solver. It combines a quasi-Newton perturbation 
  theory estimate of the next multipliers, using least square fitting 
  to find an an optimal combination of previous estimates such that the 
  update is minimized.

  See Helgaker et al., Molecular Electronic Structure Theory, Chapter 
  13, for the more details on this algorithm.

  - DIIS CC multipliers solver settings:

     Residual threshold:        0.10E-10
     Max number of iterations:       100

  - DIIS tool settings:

     DIIS dimension:   8

     Storage (cc_multipliers_diis_errors): file
     Storage (cc_multipliers_diis_parameters): file

  Iteration    Norm residual
  ----------------------------
    1          0.1019E+01
    2          0.1293E+00
    3          0.3595E-01
    4          0.8673E-02
    5          0.2246E-02
    6          0.6018E-03
    7          0.2366E-03
    8          0.5671E-04
    9          0.1570E-04
   10          0.5877E-05
   11          0.2035E-05
   12          0.6964E-06
   13          0.3218E-06
   14          0.1228E-06
   15          0.3660E-07
   16          0.1054E-07
   17          0.3012E-08
   18          0.8636E-09
   19          0.2392E-09
   20          0.1006E-09
   21          0.3203E-10
   22          0.9796E-11
  ----------------------------
  Convergence criterion met in 22 iterations!

  - Finished solving the cc3 multipliers equations

     Total wall time (sec):              3.80200
     Total cpu time (sec):               2.80897

  - CC multipliers solver summary:

     Largest single amplitudes:
     -----------------------------------
        a       i         tbar(a,i)
     -----------------------------------
        1      5        0.026185123739
       14      4       -0.016432585609
        7      4        0.014152221527
        4      5        0.012510205871
       15      5       -0.010407401353
        6      2        0.008994661704
       13      5        0.008871947995
        2      4        0.008662299012
        3      4        0.006899274654
       13      2        0.006582317995
     ------------------------------------

     Largest double amplitudes:
     --------------------------------------------------
        a      i       b      j         tbar(ai,bj)
     --------------------------------------------------
        2      4       2      4       -0.097030433486
        5      6       5      6       -0.093198593188
        6      5       5      6        0.090737482994
        2      4       5      6       -0.086644768244
        2      4       1      5       -0.083270501294
        9      3       9      3       -0.082133061368
        2      4       6      5        0.080047684863
        3      4       3      4       -0.073177834460
        7      4       5      6        0.072219485925
        1      5       1      5       -0.071730388538
     --------------------------------------------------


  Determining CC excited state amplitudes
  =======================================

   - DIIS coupled cluster excited state solver
  -----------------------------------------------

  A DIIS solver that solves for the lowest eigenvalues and  the right 
  eigenvectors of the Jacobian matrix, A. The eigenvalue  problem is solved 
  by DIIS extrapolation of residuals for each  eigenvector until the convergence 
  criteria are met.

  More on the DIIS algorithm can be found in P. Pulay, Chemical Physics 
  Letters, 73(2), 393-398 (1980).

  - Settings for coupled cluster excited state solver (DIIS):

     Calculation type:    core
     Excitation vectors:  right

  - Convergence thresholds

     Residual threshold:            0.1000E-10
     Energy threshold:              0.1000E-10

     Number of singlet states:               1
     Max number of iterations:             100

  - DIIS tool settings:

     DIIS dimension:  20

     Storage (diis_cc_es_001_errors): file
     Storage (diis_cc_es_001_parameters): file

  Iteration:                  1

   Root     Eigenvalue (Re)     Residual norm
  -----------------------------------------------
     1     20.324668869395       0.9339E+00
  -----------------------------------------------

  Iteration:                  2

   Root     Eigenvalue (Re)     Residual norm
  -----------------------------------------------
     1     19.750399110733       0.2808E+00
  -----------------------------------------------

  Iteration:                  3

   Root     Eigenvalue (Re)     Residual norm
  -----------------------------------------------
     1     19.686816413838       0.9693E-01
  -----------------------------------------------

  Iteration:                  4

   Root     Eigenvalue (Re)     Residual norm
  -----------------------------------------------
     1     19.694851551007       0.4302E-01
  -----------------------------------------------

  Iteration:                  5

   Root     Eigenvalue (Re)     Residual norm
  -----------------------------------------------
     1     19.694087462899       0.2270E-01
  -----------------------------------------------

  Iteration:                  6

   Root     Eigenvalue (Re)     Residual norm
  -----------------------------------------------
     1     19.694752437185       0.8956E-02
  -----------------------------------------------

  Iteration:                  7

   Root     Eigenvalue (Re)     Residual norm
  -----------------------------------------------
     1     19.695851649149       0.3980E-02
  -----------------------------------------------

  Iteration:                  8

   Root     Eigenvalue (Re)     Residual norm
  -----------------------------------------------
     1     19.695897485791       0.1949E-02
  -----------------------------------------------

  Iteration:                  9

   Root     Eigenvalue (Re)     Residual norm
  -----------------------------------------------
     1     19.695812025559       0.4716E-03
  -----------------------------------------------

  Iteration:                 10

   Root     Eigenvalue (Re)     Residual norm
  -----------------------------------------------
     1     19.695818024340       0.1512E-03
  -----------------------------------------------

  Iteration:                 11

   Root     Eigenvalue (Re)     Residual norm
  -----------------------------------------------
     1     19.695820657186       0.6181E-04
  -----------------------------------------------

  Iteration:                 12

   Root     Eigenvalue (Re)     Residual norm
  -----------------------------------------------
     1     19.695814814465       0.3160E-04
  -----------------------------------------------

  Iteration:                 13

   Root     Eigenvalue (Re)     Residual norm
  -----------------------------------------------
     1     19.695814368743       0.2442E-04
  -----------------------------------------------

  Iteration:                 14

   Root     Eigenvalue (Re)     Residual norm
  -----------------------------------------------
     1     19.695814524259       0.2218E-04
  -----------------------------------------------

  Iteration:                 15

   Root     Eigenvalue (Re)     Residual norm
  -----------------------------------------------
     1     19.695813798861       0.1758E-04
  -----------------------------------------------

  Iteration:                 16

   Root     Eigenvalue (Re)     Residual norm
  -----------------------------------------------
     1     19.695814440591       0.9292E-05
  -----------------------------------------------

  Iteration:                 17

   Root     Eigenvalue (Re)     Residual norm
  -----------------------------------------------
     1     19.695814675622       0.3335E-05
  -----------------------------------------------

  Iteration:                 18

   Root     Eigenvalue (Re)     Residual norm
  -----------------------------------------------
     1     19.695814585993       0.1124E-05
  -----------------------------------------------

  Iteration:                 19

   Root     Eigenvalue (Re)     Residual norm
  -----------------------------------------------
     1     19.695814494346       0.3855E-06
  -----------------------------------------------

  Iteration:                 20

   Root     Eigenvalue (Re)     Residual norm
  -----------------------------------------------
     1     19.695814452783       0.1193E-06
  -----------------------------------------------

  Iteration:                 21

   Root     Eigenvalue (Re)     Residual norm
  -----------------------------------------------
     1     19.695814452644       0.5556E-07
  -----------------------------------------------

  Iteration:                 22

   Root     Eigenvalue (Re)     Residual norm
  -----------------------------------------------
     1     19.695814453796       0.2882E-07
  -----------------------------------------------

  Iteration:                 23

   Root     Eigenvalue (Re)     Residual norm
  -----------------------------------------------
     1     19.695814452987       0.7501E-08
  -----------------------------------------------

  Iteration:                 24

   Root     Eigenvalue (Re)     Residual norm
  -----------------------------------------------
     1     19.695814453353       0.2015E-08
  -----------------------------------------------

  Iteration:                 25

   Root     Eigenvalue (Re)     Residual norm
  -----------------------------------------------
     1     19.695814453437       0.4616E-09
  -----------------------------------------------

  Iteration:                 26

   Root     Eigenvalue (Re)     Residual norm
  -----------------------------------------------
     1     19.695814453428       0.1814E-09
  -----------------------------------------------

  Iteration:                 27

   Root     Eigenvalue (Re)     Residual norm
  -----------------------------------------------
     1     19.695814453424       0.6420E-10
  -----------------------------------------------

  Iteration:                 28

   Root     Eigenvalue (Re)     Residual norm
  -----------------------------------------------
     1     19.695814453424       0.2216E-10
  -----------------------------------------------

  Iteration:                 29

   Root     Eigenvalue (Re)     Residual norm
  -----------------------------------------------
     1     19.695814453423       0.5265E-11
  -----------------------------------------------
  Convergence criterion met in 29 iterations!

  - Resorting roots according to excitation energy.

  - Stored converged states to file.

  - Excitation vector amplitudes:

     Electronic state nr. 1

     Energy (Hartree):                 19.695814453423
     Fraction singles (|R1|/|R|):       0.897028894971

     Largest single amplitudes:
     -----------------------------------
        a       i         R(a,i)
     -----------------------------------
        1      1        0.877524880945
        4      1        0.163615316625
        6      1       -0.070294513140
       13      1       -0.042616691327
       15      1        0.028545597874
        9      1       -0.010920119620
       10      1        0.008789970919
       11      1       -0.006652431709
       22      1        0.003588047853
        8      1       -0.003418115403
     ------------------------------------

     Largest double amplitudes:
     --------------------------------------------------
        a      i       b      j         R(ai,bj)
     --------------------------------------------------
        1      1       2      4       -0.188307761002
        1      1       5      6       -0.171833630914
        1      1       1      5       -0.151788153381
        1      1       6      5        0.149167394368
        1      1       7      4        0.122673692613
        1      1       1      2       -0.107258664656
        1      1       3      4       -0.102703044118
        1      1       4      5       -0.091578681420
        1      1      13      2        0.069695813098
        2      1       1      4       -0.063050428503
     --------------------------------------------------

     - Electronic excitation energies:

                                      Excitation energy
                          ------------------------------------------
      State                (Hartree)             (eV)
     ---------------------------------------------------------------
        1                 19.695814453423      535.950410070389
     ---------------------------------------------------------------
     eV/Hartree (CODATA 2014): 27.21138602

  - Finished solving the CC3 excited state equations (right)

     Total wall time (sec):              2.29600
     Total cpu time (sec):               1.90275


  Determining CC excited state amplitudes
  =======================================

   - DIIS coupled cluster excited state solver
  -----------------------------------------------

  A DIIS solver that solves for the lowest eigenvalues and  the right 
  eigenvectors of the Jacobian matrix, A. The eigenvalue  problem is solved 
  by DIIS extrapolation of residuals for each  eigenvector until the convergence 
  criteria are met.

  More on the DIIS algorithm can be found in P. Pulay, Chemical Physics 
  Letters, 73(2), 393-398 (1980).

  - Settings for coupled cluster excited state solver (DIIS):

     Calculation type:    core
     Excitation vectors:  left

  - Convergence thresholds

     Residual threshold:            0.1000E-10
     Energy threshold:              0.1000E-10

     Number of singlet states:               1
     Max number of iterations:             100

  - DIIS tool settings:

     DIIS dimension:  20

     Storage (diis_cc_es_001_errors): file
     Storage (diis_cc_es_001_parameters): file
     Restarting left vector 1 from file r_001.

  Iteration:                  1

   Root     Eigenvalue (Re)     Residual norm
  -----------------------------------------------
     1     19.665824613247       0.1459E+00
  -----------------------------------------------

  Iteration:                  2

   Root     Eigenvalue (Re)     Residual norm
  -----------------------------------------------
     1     19.707651869765       0.5941E-01
  -----------------------------------------------

  Iteration:                  3

   Root     Eigenvalue (Re)     Residual norm
  -----------------------------------------------
     1     19.692352360943       0.1461E-01
  -----------------------------------------------

  Iteration:                  4

   Root     Eigenvalue (Re)     Residual norm
  -----------------------------------------------
     1     19.695546293802       0.5019E-02
  -----------------------------------------------

  Iteration:                  5

   Root     Eigenvalue (Re)     Residual norm
  -----------------------------------------------
     1     19.695523189683       0.2357E-02
  -----------------------------------------------

  Iteration:                  6

   Root     Eigenvalue (Re)     Residual norm
  -----------------------------------------------
     1     19.695689411181       0.8258E-03
  -----------------------------------------------

  Iteration:                  7

   Root     Eigenvalue (Re)     Residual norm
  -----------------------------------------------
     1     19.695813209811       0.3873E-03
  -----------------------------------------------

  Iteration:                  8

   Root     Eigenvalue (Re)     Residual norm
  -----------------------------------------------
     1     19.695803502435       0.1593E-03
  -----------------------------------------------

  Iteration:                  9

   Root     Eigenvalue (Re)     Residual norm
  -----------------------------------------------
     1     19.695815054044       0.6686E-04
  -----------------------------------------------

  Iteration:                 10

   Root     Eigenvalue (Re)     Residual norm
  -----------------------------------------------
     1     19.695816009198       0.2537E-04
  -----------------------------------------------

  Iteration:                 11

   Root     Eigenvalue (Re)     Residual norm
  -----------------------------------------------
     1     19.695814826018       0.7120E-05
  -----------------------------------------------

  Iteration:                 12

   Root     Eigenvalue (Re)     Residual norm
  -----------------------------------------------
     1     19.695814515573       0.2156E-05
  -----------------------------------------------

  Iteration:                 13

   Root     Eigenvalue (Re)     Residual norm
  -----------------------------------------------
     1     19.695814453955       0.7212E-06
  -----------------------------------------------

  Iteration:                 14

   Root     Eigenvalue (Re)     Residual norm
  -----------------------------------------------
     1     19.695814441144       0.2536E-06
  -----------------------------------------------

  Iteration:                 15

   Root     Eigenvalue (Re)     Residual norm
  -----------------------------------------------
     1     19.695814448411       0.1315E-06
  -----------------------------------------------

  Iteration:                 16

   Root     Eigenvalue (Re)     Residual norm
  -----------------------------------------------
     1     19.695814453307       0.9688E-07
  -----------------------------------------------

  Iteration:                 17

   Root     Eigenvalue (Re)     Residual norm
  -----------------------------------------------
     1     19.695814453505       0.8554E-07
  -----------------------------------------------

  Iteration:                 18

   Root     Eigenvalue (Re)     Residual norm
  -----------------------------------------------
     1     19.695814454594       0.6576E-07
  -----------------------------------------------

  Iteration:                 19

   Root     Eigenvalue (Re)     Residual norm
  -----------------------------------------------
     1     19.695814454883       0.3293E-07
  -----------------------------------------------

  Iteration:                 20

   Root     Eigenvalue (Re)     Residual norm
  -----------------------------------------------
     1     19.695814453666       0.1067E-07
  -----------------------------------------------

  Iteration:                 21

   Root     Eigenvalue (Re)     Residual norm
  -----------------------------------------------
     1     19.695814453395       0.4242E-08
  -----------------------------------------------

  Iteration:                 22

   Root     Eigenvalue (Re)     Residual norm
  -----------------------------------------------
     1     19.695814453356       0.2468E-08
  -----------------------------------------------

  Iteration:                 23

   Root     Eigenvalue (Re)     Residual norm
  -----------------------------------------------
     1     19.695814453406       0.1202E-08
  -----------------------------------------------

  Iteration:                 24

   Root     Eigenvalue (Re)     Residual norm
  -----------------------------------------------
     1     19.695814453424       0.3802E-09
  -----------------------------------------------

  Iteration:                 25

   Root     Eigenvalue (Re)     Residual norm
  -----------------------------------------------
     1     19.695814453422       0.1327E-09
  -----------------------------------------------

  Iteration:                 26

   Root     Eigenvalue (Re)     Residual norm
  -----------------------------------------------
     1     19.695814453424       0.4883E-10
  -----------------------------------------------

  Iteration:                 27

   Root     Eigenvalue (Re)     Residual norm
  -----------------------------------------------
     1     19.695814453423       0.1634E-10
  -----------------------------------------------

  Iteration:                 28

   Root     Eigenvalue (Re)     Residual norm
  -----------------------------------------------
     1     19.695814453423       0.4367E-11
  -----------------------------------------------
  Convergence criterion met in 28 iterations!

  - Resorting roots according to excitation energy.

  - Stored converged states to file.

  - Excitation vector amplitudes:

     Electronic state nr. 1

     Energy (Hartree):                 19.695814453423
     Fraction singles (|L1|/|L|):       0.756337451735

     Largest single amplitudes:
     -----------------------------------
        a       i         L(a,i)
     -----------------------------------
        1      1        0.739825028916
        4      1        0.137081241340
        6      1       -0.060846305613
       13      1       -0.037059239104
       15      1        0.025522302607
        9      1       -0.009351942861
       10      1        0.006761553116
       11      1       -0.005686046197
       22      1        0.003216358981
        8      1       -0.002897706548
     ------------------------------------

     Largest double amplitudes:
     --------------------------------------------------
        a      i       b      j         L(ai,bj)
     --------------------------------------------------
        1      1       2      4       -0.286845280959
        1      1       5      6       -0.277311541163
        1      1       6      5        0.240512922067
        1      1       7      4        0.202624663062
        1      1       3      4       -0.159183268105
        1      1       4      5       -0.135090588863
        1      1       1      5       -0.128800346329
        1      1      13      2        0.112544501895
        1      1      14      4       -0.106644758799
        5      1       1      6        0.104463580444
     --------------------------------------------------

     - Electronic excitation energies:

                                      Excitation energy
                          ------------------------------------------
      State                (Hartree)             (eV)
     ---------------------------------------------------------------
        1                 19.695814453423      535.950410070394
     ---------------------------------------------------------------
     eV/Hartree (CODATA 2014): 27.21138602

  - Finished solving the CC3 excited state equations (left)

     Total wall time (sec):              2.36400
     Total cpu time (sec):               2.07847


  Biorthonormalization of excited CC states
  =========================================


  Determining CC EOM transition moments
  =====================================

  :: EOM properties calculation

  - Summary of EOM transition properties calculation:

     States m = 0 and n = 1:
     -------------------------
     Calculation type:                             EOM
     Excitation energy [E_h]:          19.695814453423
     Excitation energy [eV]:          535.950410070389
     Hartree-to-eV (CODATA 2014):          27.21138602

                   Transition moments [a.u.]         Transition strength [a.u.]
     --------------------------------------------------------------------------
     Comp. q     < n |q| m >       < m |q| n >        < n |q| m > < m |q| n >
     --------------------------------------------------------------------------
     X          -0.0000508934     -0.0001092484            0.0000000056
     Y           0.0272231727      0.0580857060            0.0015812772
     Z          -0.0004504773     -0.0009627021            0.0000004337
     --------------------------------------------------------------------------
     Oscillator strength:      0.020768795667

  ------------------------------------------------------------

  Peak memory usage during the execution of eT: 16.450624 MB

  Total wall time in eT (sec):             11.56800
  Total cpu time in eT (sec):               9.20602

  Calculation ended: 2022-04-07 12:35:47 UTC -07:00

  - Implementation references:

     eT: https://doi.org/10.1063/5.0004713
     CC3: https://doi.org/10.1021/acs.jctc.0c00686
     Cholesky decomposition of ERIs: https://doi.org/10.1063/1.5083802
     Multimodel Newton algorithm: https://doi.org/10.1063/5.0010989

  eT terminated successfully!
