


                     eT 1.7 - an electronic structure program

  ------------------------------------------------------------------------
   Author list in alphabetical order:
  ------------------------------------------------------------------------
   J. H. Andersen, A. Balbi, S. Coriani, S. D. Folkestad, T. Giovannini, 
   L. Goletto, T. S. Haugland, A. Hutcheson, I-M. Høyvik, E. F. Kjønstad, 
   H. Koch, R. Matveeva, T. Moitra, R. H. Myhre, A. C. Paul, S. Roet, 
   E. RoncaM. Scavino, A. K. Schnack-Petersen, A. S. Skeidsvoll, Å. 
   H. Tveten
  ------------------------------------------------------------------------
   J. Chem. Phys. 152, 184103 (2020); https://doi.org/10.1063/5.0004713


   This is eT 1.7.0 Hydra
  ------------------------------------------------------------
  Configuration date: 2022-04-07 12:33:31 UTC -07:00
  Git branch:         release-v1.7.0
  Git hash:           c5c382d7d23365463896a87c37298e4a37e4c962
  Fortran compiler:   GNU 11.2.0
  C compiler:         GNU 11.2.0
  C++ compiler:       GNU 11.2.0
  LAPACK type:        SYSTEM_NATIVE
  BLAS type:          SYSTEM_NATIVE
  64-bit integers:    OFF
  OpenMP:             ON
  PCM:                OFF
  Forced batching:    OFF
  Runtime checks:     OFF
  ------------------------------------------------------------

  Calculation started: 2022-04-07 12:35:48 UTC -07:00


  :: Input file
  ================

     Note: geometry section is excluded from this print

     system
        name: H2O He
        charge: 0
     end system

     do
        ground state
        excited state
     end do

     memory
        available: 8
     end memory

     solver cholesky
        threshold: 1.0d-12
     end solver cholesky

     solver scf
        algorithm:          scf-diis
        energy threshold:   1.0d-11
        gradient threshold: 1.0d-11
     end solver scf

     method
        hf
        mlcc2
     end method

     solver cc gs
        omega threshold:  1.0d-11
        energy threshold: 1.0d-11
     end solver cc gs

     solver cc es
        algorithm:          davidson
        singlet states:     4
        residual threshold: 1.0d-11
        energy threshold:   1.0d-11
        left eigenvectors
     end solver cc es

     active atoms
        selection type: list
        cc2: {3}
     end active atoms

     mlcc
        cc2 orbitals: cholesky-pao
        cholesky threshold: 1.0d-1
     end mlcc


  Running on 2 OMP threads
  Memory available for calculation: 8.000000 GB


  :: RHF wavefunction
  ======================

     ==============================================================================
                                     Geometry (angstrom)
     ==============================================================================
        Atom           X                  Y                  Z         # in input
     ==============================================================================
        Basis: cc-pvdz
        1  O     0.000000000000    -0.075790000000     5.000000000000        3
        2  H     0.866810000000     0.601440000000     5.000000000000        1
        3  H    -0.866810000000     0.601440000000     5.000000000000        2
        4 He     0.100000000000    -0.020000000000     7.530000000000        4
     ==============================================================================

     ==============================================================================
                                     Geometry (a.u.)
     ==============================================================================
        Atom           X                  Y                  Z         # in input
     ==============================================================================
        Basis: cc-pvdz
        1  O     0.000000000000    -0.143222342981     9.448630622825        3
        2  H     1.638033502034     1.136556880358     9.448630622825        1
        3  H    -1.638033502034     1.136556880358     9.448630622825        2
        4 He     0.188972612457    -0.037794522491    14.229637717975        4
     ==============================================================================

  - Cholesky decomposition of AO overlap to get linearly independent AOs:

     Linear dependence threshold:             0.10E-05
     Number of atomic orbitals:               29
     Number of orthonormal atomic orbitals:   29

  - Molecular orbital details:

     Number of occupied orbitals:         6
     Number of virtual orbitals:         23
     Number of molecular orbitals:       29


  :: Hartree-Fock engine
  =========================

  Drives the calculation of the Hartree-Fock state.

  This is a RHF ground state calculation.
  The following tasks will be performed:

     1) Generate initial SAD density
     2) Calculation of reference state (SCF-DIIS algorithm)


  1) Generate initial SAD density


  2) Calculation of reference state (SCF-DIIS algorithm)

  - Setting initial AO density to sad

     Energy of initial guess:               -78.492022836321
     Number of electrons in guess:           12.000000000000

  - Screening and integral thresholds:

     Coulomb screening threshold:    0.1000E-16
     Exchange screening threshold:   0.1000E-14
     ERI cutoff:                     0.1000E-16
     One-electron integral  cutoff:  0.1000E-21
     Cumulative Fock threshold:      0.1000E+01

  - SCF solver settings:

     Maximum iterations:                   100
     Acceleration type:                   diis

  - Convergence thresholds

     Residual threshold:            0.1000E-10
     Energy threshold:              0.1000E-10

  - DIIS tool settings:

     DIIS dimension:   8

     Storage (solver scf_errors): memory
     Storage (solver scf_parameters): memory

  Iteration       Energy (a.u.)      Max(grad.)    Delta E (a.u.)
  ---------------------------------------------------------------
     1           -78.796606592585     0.9711E-01     0.7880E+02
     2           -78.828675852654     0.7077E-01     0.3207E-01
     3           -78.843487343819     0.6125E-02     0.1481E-01
     4           -78.843814479549     0.2753E-02     0.3271E-03
     5           -78.843850612079     0.3973E-03     0.3613E-04
     6           -78.843851670925     0.5220E-04     0.1059E-05
     7           -78.843851692779     0.6749E-05     0.2185E-07
     8           -78.843851693528     0.2204E-05     0.7487E-09
     9           -78.843851693630     0.3162E-06     0.1027E-09
    10           -78.843851693631     0.2573E-07     0.3553E-12
    11           -78.843851693631     0.5507E-08     0.4263E-13
    12           -78.843851693631     0.1348E-08     0.1137E-12
    13           -78.843851693631     0.6167E-09     0.2842E-13
    14           -78.843851693631     0.1382E-09     0.1421E-13
    15           -78.843851693631     0.2501E-10     0.4263E-13
    16           -78.843851693631     0.5165E-11     0.5684E-13
  ---------------------------------------------------------------
  Convergence criterion met in 16 iterations!

  - Summary of RHF wavefunction energetics (a.u.):

     HOMO-LUMO gap:                  0.645629080245
     Nuclear repulsion energy:      12.116100574587
     Electronic energy:            -90.959952268218
     Total energy:                 -78.843851693631

  - Timings for the RHF ground state calculation

     Total wall time (sec):              0.36100
     Total cpu time (sec):               0.45172


  :: MLCC2 wavefunction
  ========================

     Bath orbital(s):         False

   - Number of orbitals:

     Occupied orbitals:    6
     Virtual orbitals:     23
     Molecular orbitals:   29
     Atomic orbitals:      29


  Cholesky-decomposing electron repulsion integrals
  =================================================

  Cholesky decomposition of electronic repulsion integrals solver
  ---------------------------------------------------------------

  Performs a Cholesky decomposition of the two-electron electronic repulsion 
  integrals in the atomic orbital basis,

  (ab|cd) = sum_J L_ab^J L_cd^J.

  Once the Cholesky basis has been determined, the vectors L^J are constructed 
  and stored to disk. These may either be used directly, or be transformed 
  to the MO basis for use in post-HF calculations. For more information, 
  see S. D. Folkestad, E. F. Kjønstad and H. Koch, JCP, 150(19), (2019)

  - Cholesky decomposition settings:

     Target threshold is:   0.10E-11
     Span factor:           0.10E-01
     Max qual:                  1000

  - Cholesky decomposition ao details:

     Total number of AOs:                    29
     Total number of shell pairs:           120
     Total number of AO pairs:              435

     Significant shell pairs:               118
     Significant AO pairs:                  431

     Construct shell pairs:                 120
     Construct AO pairs:                    435

  Iter.  #Sign. ao pairs / shell pairs   Max diagonal    #Qualified    #Cholesky    Cholesky array size
  -------------------------------------------------------------------------------------------------------
     1               406 /     108       0.47383E+01         147             42             17052
     2               319 /      93       0.47165E-01         234            111             35409
     3               250 /      76       0.46944E-03         178            183             45750
     4               187 /      55       0.38270E-05         145            265             49555
     5                87 /      25       0.38106E-07          78            324             28188
     6                21 /       3       0.37202E-09          43            349              7329
     7                 0 /       0       0.36652E-11           7            354                 0
  -------------------------------------------------------------------------------------------------------

  - Summary of Cholesky decomposition of electronic repulsion integrals:

     Final number of Cholesky vectors: 354

 - Testing the Cholesky decomposition decomposition electronic repulsion integrals:

     Maximal difference between approximate and actual diagonal:              0.7161E-12
     Minimal element of difference between approximate and actual diagonal:  -0.1241E-14

  - Settings for integral handling:

     Cholesky vectors in memory: True
     ERI matrix in memory:       False

  - Finished decomposing the ERIs.

     Total wall time (sec):              0.25800
     Total cpu time (sec):               0.22561

     The smallest diagonal after decomposition is:  -0.8451E-16

  - MLCC2 orbital partitioning:

     Orbital type: cholesky-pao

     Number occupied cc2 orbitals:    5
     Number virtual cc2 orbitals:    13

     Number occupied ccs orbitals:    1
     Number virtual ccs orbitals:    10


  Determining CC cluster amplitudes
  =================================

   - DIIS coupled cluster ground state solver
  ----------------------------------------------

  A DIIS CC ground state amplitude equations solver. It uses an extrapolation 
  of previous quasi-Newton perturbation theory estimates of the next amplitudes. 
  See Helgaker et al., Molecular Electronic Structure Theory, Chapter 
  13.

  - CC ground state solver settings:

  - Convergence thresholds

     Residual threshold:            0.1000E-10
     Energy threshold:              0.1000E-10
     Max number of iterations:      100

  - DIIS tool settings:

     DIIS dimension:   8

     Storage (cc_gs_diis_errors): file
     Storage (cc_gs_diis_parameters): file

  Iteration    Energy (a.u.)        |omega|       Delta E (a.u.)
  ---------------------------------------------------------------
    1           -79.044160688177     0.3657E-01     0.7904E+02
    2           -79.045305454073     0.9064E-02     0.1145E-02
    3           -79.045492384052     0.2665E-02     0.1869E-03
    4           -79.045571807812     0.1135E-02     0.7942E-04
    5           -79.045579775786     0.3744E-03     0.7968E-05
    6           -79.045582170050     0.9856E-04     0.2394E-05
    7           -79.045582045317     0.3590E-04     0.1247E-06
    8           -79.045582083703     0.9826E-05     0.3839E-07
    9           -79.045582118491     0.3151E-05     0.3479E-07
   10           -79.045582123523     0.1515E-05     0.5033E-08
   11           -79.045582122561     0.5659E-06     0.9621E-09
   12           -79.045582124104     0.2337E-06     0.1543E-08
   13           -79.045582123441     0.6956E-07     0.6628E-09
   14           -79.045582123617     0.2039E-07     0.1760E-09
   15           -79.045582123477     0.6022E-08     0.1396E-09
   16           -79.045582123484     0.2285E-08     0.6580E-11
   17           -79.045582123500     0.6848E-09     0.1627E-10
   18           -79.045582123509     0.2617E-09     0.8555E-11
   19           -79.045582123512     0.8126E-10     0.3070E-11
   20           -79.045582123512     0.3028E-10     0.4547E-12
   21           -79.045582123512     0.1479E-10     0.1705E-12
   22           -79.045582123512     0.5018E-11     0.4263E-13
  ---------------------------------------------------------------
  Convergence criterion met in 22 iterations!

  - Ground state summary:

     Final ground state energy (a.u.):   -79.045582123512

     Correlation energy (a.u.):           -0.201730429881

     Largest single amplitudes:
     -----------------------------------
        a       i         t(a,i)
     -----------------------------------
        5      3        0.012293837308
        1      4       -0.012108647666
        8      4       -0.006278792798
        2      3        0.006237282752
        6      4        0.005856750921
        4      5        0.005710978447
        6      2        0.005318471803
       12      3       -0.004036543512
        8      2       -0.003089764537
       23      3       -0.002958539743
     ------------------------------------

  - Finished solving the MLCC2 ground state equations

     Total wall time (sec):              0.22900
     Total cpu time (sec):               0.16740


  Determining CC excited state amplitudes
  =======================================

  Davidson eigenvalue equation solver
  -----------------------------------

  A Davidson solver that solves an eigenvalue equation: M x = omega x. 
  This equation is solved in a reduced space. A description of the algorithm 
  can be found in E. R. Davidson, J. Comput. Phys. 17, 87 (1975).

   - Davidson tool settings:

     Number of parameters:                 2283
     Number of requested solutions:           4
     Max reduced space dimension:           100

     Storage (cc_es_davidson_trials): memory
     Storage (cc_es_davidson_transforms): memory

  - Davidson solver settings

     Number of singlet states:               4
     Max number of iterations:             100

  Iteration:                  1
  Reduced space dimension:    4

  Root  Eigenvalue (Re)   Eigenvalue (Im)    |residual|   Delta E (Re)
  -------------------------------------------------------------------------
     1   0.448022669128    0.000000000000     0.8043E+00   0.4480E+00
     2   0.580591190772    0.000000000000     0.8138E+00   0.5806E+00
     3   0.582257862299    0.000000000000     0.7426E+00   0.5823E+00
     4   0.633142397967    0.000000000000     0.6923E+00   0.6331E+00
  -------------------------------------------------------------------------

  Iteration:                  2
  Reduced space dimension:    8

  Root  Eigenvalue (Re)   Eigenvalue (Im)    |residual|   Delta E (Re)
  -------------------------------------------------------------------------
     1   0.279739416404    0.000000000000     0.1573E+00   0.1683E+00
     2   0.393889401694    0.000000000000     0.1897E+00   0.1867E+00
     3   0.396021420484    0.000000000000     0.2248E+00   0.1862E+00
     4   0.497466020066    0.000000000000     0.1690E+00   0.1357E+00
  -------------------------------------------------------------------------

  Iteration:                  3
  Reduced space dimension:   12

  Root  Eigenvalue (Re)   Eigenvalue (Im)    |residual|   Delta E (Re)
  -------------------------------------------------------------------------
     1   0.270439888580    0.000000000000     0.8730E-01   0.9300E-02
     2   0.369932805930    0.000000000000     0.1058E+00   0.2396E-01
     3   0.378712039535    0.000000000000     0.1019E+00   0.1731E-01
     4   0.483569695216    0.000000000000     0.1028E+00   0.1390E-01
  -------------------------------------------------------------------------

  Iteration:                  4
  Reduced space dimension:   16

  Root  Eigenvalue (Re)   Eigenvalue (Im)    |residual|   Delta E (Re)
  -------------------------------------------------------------------------
     1   0.264529817678    0.000000000000     0.2384E-01   0.5910E-02
     2   0.362664440614    0.000000000000     0.1092E-01   0.7268E-02
     3   0.370097985606    0.000000000000     0.2848E-01   0.8614E-02
     4   0.474815626634    0.000000000000     0.3476E-01   0.8754E-02
  -------------------------------------------------------------------------

  Iteration:                  5
  Reduced space dimension:   20

  Root  Eigenvalue (Re)   Eigenvalue (Im)    |residual|   Delta E (Re)
  -------------------------------------------------------------------------
     1   0.263912729001    0.000000000000     0.1407E-01   0.6171E-03
     2   0.362539678514    0.000000000000     0.3686E-02   0.1248E-03
     3   0.369913235750    0.000000000000     0.1487E-01   0.1847E-03
     4   0.473095343892    0.000000000000     0.4130E-01   0.1720E-02
  -------------------------------------------------------------------------

  Iteration:                  6
  Reduced space dimension:   24

  Root  Eigenvalue (Re)   Eigenvalue (Im)    |residual|   Delta E (Re)
  -------------------------------------------------------------------------
     1   0.264256578180    0.000000000000     0.1957E-02   0.3438E-03
     2   0.362564342260    0.000000000000     0.6926E-03   0.2466E-04
     3   0.370169807430    0.000000000000     0.3337E-02   0.2566E-03
     4   0.472397468033    0.000000000000     0.6643E-01   0.6979E-03
  -------------------------------------------------------------------------

  Iteration:                  7
  Reduced space dimension:   28

  Root  Eigenvalue (Re)   Eigenvalue (Im)    |residual|   Delta E (Re)
  -------------------------------------------------------------------------
     1   0.264233402326    0.000000000000     0.5056E-03   0.2318E-04
     2   0.362558353382    0.000000000000     0.2190E-03   0.5989E-05
     3   0.370083461569    0.000000000000     0.1010E-02   0.8635E-04
     4   0.459303622760    0.000000000000     0.6616E-01   0.1309E-01
  -------------------------------------------------------------------------

  Iteration:                  8
  Reduced space dimension:   32

  Root  Eigenvalue (Re)   Eigenvalue (Im)    |residual|   Delta E (Re)
  -------------------------------------------------------------------------
     1   0.264228927770    0.000000000000     0.1078E-03   0.4475E-05
     2   0.362556292004    0.000000000000     0.5209E-04   0.2061E-05
     3   0.370068172180    0.000000000000     0.2314E-03   0.1529E-04
     4   0.458767026585    0.000000000000     0.1860E-01   0.5366E-03
  -------------------------------------------------------------------------

  Iteration:                  9
  Reduced space dimension:   36

  Root  Eigenvalue (Re)   Eigenvalue (Im)    |residual|   Delta E (Re)
  -------------------------------------------------------------------------
     1   0.264228979637    0.000000000000     0.2515E-04   0.5187E-07
     2   0.362556247141    0.000000000000     0.1234E-04   0.4486E-07
     3   0.370075778232    0.000000000000     0.1004E-03   0.7606E-05
     4   0.458379551569    0.000000000000     0.3957E-02   0.3875E-03
  -------------------------------------------------------------------------

  Iteration:                 10
  Reduced space dimension:   40

  Root  Eigenvalue (Re)   Eigenvalue (Im)    |residual|   Delta E (Re)
  -------------------------------------------------------------------------
     1   0.264229052697    0.000000000000     0.4534E-05   0.7306E-07
     2   0.362556386914    0.000000000000     0.5170E-05   0.1398E-06
     3   0.370074393890    0.000000000000     0.3349E-04   0.1384E-05
     4   0.458395961760    0.000000000000     0.1156E-02   0.1641E-04
  -------------------------------------------------------------------------

  Iteration:                 11
  Reduced space dimension:   44

  Root  Eigenvalue (Re)   Eigenvalue (Im)    |residual|   Delta E (Re)
  -------------------------------------------------------------------------
     1   0.264229072814    0.000000000000     0.1368E-05   0.2012E-07
     2   0.362556338094    0.000000000000     0.2188E-05   0.4882E-07
     3   0.370073847672    0.000000000000     0.1109E-04   0.5462E-06
     4   0.458389891513    0.000000000000     0.3990E-03   0.6070E-05
  -------------------------------------------------------------------------

  Iteration:                 12
  Reduced space dimension:   48

  Root  Eigenvalue (Re)   Eigenvalue (Im)    |residual|   Delta E (Re)
  -------------------------------------------------------------------------
     1   0.264229074371    0.000000000000     0.4462E-06   0.1557E-08
     2   0.362556334559    0.000000000000     0.7471E-06   0.3536E-08
     3   0.370073917470    0.000000000000     0.3265E-05   0.6980E-07
     4   0.458391350190    0.000000000000     0.1317E-03   0.1459E-05
  -------------------------------------------------------------------------

  Iteration:                 13
  Reduced space dimension:   52

  Root  Eigenvalue (Re)   Eigenvalue (Im)    |residual|   Delta E (Re)
  -------------------------------------------------------------------------
     1   0.264229072224    0.000000000000     0.8175E-07   0.2147E-08
     2   0.362556340021    0.000000000000     0.1599E-06   0.5463E-08
     3   0.370073923626    0.000000000000     0.7712E-06   0.6156E-08
     4   0.458391703930    0.000000000000     0.2707E-04   0.3537E-06
  -------------------------------------------------------------------------

  Iteration:                 14
  Reduced space dimension:   56

  Root  Eigenvalue (Re)   Eigenvalue (Im)    |residual|   Delta E (Re)
  -------------------------------------------------------------------------
     1   0.264229072064    0.000000000000     0.1150E-07   0.1599E-09
     2   0.362556339090    0.000000000000     0.4114E-07   0.9313E-09
     3   0.370073922998    0.000000000000     0.1933E-06   0.6279E-09
     4   0.458391794377    0.000000000000     0.5507E-05   0.9045E-07
  -------------------------------------------------------------------------

  Iteration:                 15
  Reduced space dimension:   60

  Root  Eigenvalue (Re)   Eigenvalue (Im)    |residual|   Delta E (Re)
  -------------------------------------------------------------------------
     1   0.264229072040    0.000000000000     0.2619E-08   0.2393E-10
     2   0.362556339035    0.000000000000     0.1081E-07   0.5542E-10
     3   0.370073923269    0.000000000000     0.4614E-07   0.2709E-09
     4   0.458391731832    0.000000000000     0.1054E-05   0.6255E-07
  -------------------------------------------------------------------------

  Iteration:                 16
  Reduced space dimension:   64

  Root  Eigenvalue (Re)   Eigenvalue (Im)    |residual|   Delta E (Re)
  -------------------------------------------------------------------------
     1   0.264229072035    0.000000000000     0.3812E-09   0.4852E-11
     2   0.362556339082    0.000000000000     0.2262E-08   0.4721E-10
     3   0.370073923301    0.000000000000     0.9507E-08   0.3247E-10
     4   0.458391732410    0.000000000000     0.1978E-06   0.5784E-09
  -------------------------------------------------------------------------

  Iteration:                 17
  Reduced space dimension:   68

  Root  Eigenvalue (Re)   Eigenvalue (Im)    |residual|   Delta E (Re)
  -------------------------------------------------------------------------
     1   0.264229072039    0.000000000000     0.6329E-10   0.3990E-11
     2   0.362556339072    0.000000000000     0.2832E-09   0.9532E-11
     3   0.370073923294    0.000000000000     0.1229E-08   0.6853E-11
     4   0.458391732882    0.000000000000     0.3246E-07   0.4718E-09
  -------------------------------------------------------------------------

  Iteration:                 18
  Reduced space dimension:   72

  Root  Eigenvalue (Re)   Eigenvalue (Im)    |residual|   Delta E (Re)
  -------------------------------------------------------------------------
     1   0.264229072039    0.000000000000     0.7096E-11   0.1495E-12
     2   0.362556339072    0.000000000000     0.6397E-10   0.5129E-12
     3   0.370073923291    0.000000000000     0.2584E-09   0.3624E-11
     4   0.458391732780    0.000000000000     0.6070E-08   0.1017E-09
  -------------------------------------------------------------------------

  Iteration:                 19
  Reduced space dimension:   75

  Root  Eigenvalue (Re)   Eigenvalue (Im)    |residual|   Delta E (Re)
  -------------------------------------------------------------------------
     1   0.264229072039    0.000000000000     0.6817E-11   0.8660E-14
     2   0.362556339072    0.000000000000     0.6639E-11   0.2627E-12
     3   0.370073923291    0.000000000000     0.2639E-10   0.1410E-12
     4   0.458391732792    0.000000000000     0.1213E-08   0.1206E-10
  -------------------------------------------------------------------------

  Iteration:                 20
  Reduced space dimension:   77

  Root  Eigenvalue (Re)   Eigenvalue (Im)    |residual|   Delta E (Re)
  -------------------------------------------------------------------------
     1   0.264229072039    0.000000000000     0.6809E-11   0.4718E-14
     2   0.362556339072    0.000000000000     0.1870E-11   0.3775E-14
     3   0.370073923291    0.000000000000     0.4534E-11   0.5723E-13
     4   0.458391732787    0.000000000000     0.1875E-09   0.5639E-11
  -------------------------------------------------------------------------

  Iteration:                 21
  Reduced space dimension:   78

  Root  Eigenvalue (Re)   Eigenvalue (Im)    |residual|   Delta E (Re)
  -------------------------------------------------------------------------
     1   0.264229072039    0.000000000000     0.6799E-11   0.7994E-14
     2   0.362556339072    0.000000000000     0.1828E-11   0.1110E-14
     3   0.370073923291    0.000000000000     0.4409E-11   0.1249E-13
     4   0.458391732786    0.000000000000     0.2536E-10   0.3462E-12
  -------------------------------------------------------------------------

  Iteration:                 22
  Reduced space dimension:   79

  Root  Eigenvalue (Re)   Eigenvalue (Im)    |residual|   Delta E (Re)
  -------------------------------------------------------------------------
     1   0.264229072039    0.000000000000     0.6789E-11   0.1943E-14
     2   0.362556339072    0.000000000000     0.1831E-11   0.8882E-15
     3   0.370073923291    0.000000000000     0.4374E-11   0.1210E-13
     4   0.458391732787    0.000000000000     0.3869E-11   0.1014E-12
  -------------------------------------------------------------------------
  Convergence criterion met in 22 iterations!

  - Excitation vector amplitudes:

     Electronic state nr. 1

     Energy (Hartree):                  0.264229072039
     Fraction singles (|L1|/|L|):       0.969223834384

     MLCC diagnostics:

     |L1^internal|/|L| =       0.937772034095
     |L1^internal|/|L1| =      0.967549497677

     Largest single amplitudes:
     -----------------------------------
        a       i         L(a,i)
     -----------------------------------
        1      5        0.934221235412
       16      5       -0.218875252130
       15      5       -0.107640493574
       10      5       -0.049754842253
        6      5       -0.040398551754
        3      5       -0.035312305114
       13      5        0.026539305105
        8      5       -0.016098006530
       19      5        0.016087860041
        1      6       -0.011236720954
     ------------------------------------

     Electronic state nr. 2

     Energy (Hartree):                  0.362556339072
     Fraction singles (|L1|/|L|):       0.985710163885

     MLCC diagnostics:

     |L1^internal|/|L| =       0.874406822935
     |L1^internal|/|L1| =      0.887083094982

     Largest single amplitudes:
     -----------------------------------
        a       i         L(a,i)
     -----------------------------------
        2      5        0.856072379442
       14      5        0.429332447519
        5      5        0.159444206386
       23      5        0.143027160058
       12      5        0.078691144172
       18      5       -0.043525069274
       22      5        0.012017784241
        2      6       -0.009557573871
       14      6       -0.007711482762
       17      2        0.006483206494
     ------------------------------------

     Electronic state nr. 3

     Energy (Hartree):                  0.370073923291
     Fraction singles (|L1|/|L|):       0.965785921785

     MLCC diagnostics:

     |L1^internal|/|L| =       0.928659325298
     |L1^internal|/|L1| =      0.961558151088

     Largest single amplitudes:
     -----------------------------------
        a       i         L(a,i)
     -----------------------------------
        1      4        0.909356693205
       16      4       -0.232685284691
        2      3       -0.131545360700
       15      4       -0.114469503840
        6      4       -0.079508642210
        1      2       -0.067145698027
       10      4       -0.048034293901
       14      3       -0.043314789800
       13      4        0.040671867545
        4      5        0.036061051014
     ------------------------------------

     Electronic state nr. 4

     Energy (Hartree):                  0.458391732787
     Fraction singles (|L1|/|L|):       0.984408370815

     MLCC diagnostics:

     |L1^internal|/|L| =       0.884525482599
     |L1^internal|/|L1| =      0.898535108826

     Largest single amplitudes:
     -----------------------------------
        a       i         L(a,i)
     -----------------------------------
        2      4        0.683496086338
        1      3       -0.536048067476
       14      4        0.386714255137
        5      4        0.137146689865
       16      3        0.129555674190
       23      4        0.122470084887
       12      4        0.079876929868
       15      3        0.062147140923
       10      3        0.036730522570
       18      4       -0.035285406477
     ------------------------------------

  - MLCC2 excitation energies:

                                      Excitation energy
                          ------------------------------------------
      State                (Hartree)             (eV)
     ---------------------------------------------------------------
        1                  0.264229072039        7.190039276964
        2                  0.362556339072        9.865660496488
        3                  0.370073923291       10.070224382608
        4                  0.458391732787       12.473474389232
     ---------------------------------------------------------------
     eV/Hartree (CODATA 2014): 27.21138602

  ------------------------------------------------------------

  Peak memory usage during the execution of eT: 11.273688 MB

  Total wall time in eT (sec):              1.48400
  Total cpu time in eT (sec):               1.31143

  Calculation ended: 2022-04-07 12:35:50 UTC -07:00

  - Implementation references:

     eT: https://doi.org/10.1063/5.0004713
     MLCC2 and MLCCSD: https://doi.org/10.1021/acs.jctc.9b00701
     Cholesky decomposition of ERIs: https://doi.org/10.1063/1.5083802

  eT terminated successfully!
