


                     eT 1.7 - an electronic structure program

  ------------------------------------------------------------------------
   Author list in alphabetical order:
  ------------------------------------------------------------------------
   J. H. Andersen, A. Balbi, S. Coriani, S. D. Folkestad, T. Giovannini, 
   L. Goletto, T. S. Haugland, A. Hutcheson, I-M. Høyvik, E. F. Kjønstad, 
   H. Koch, R. Matveeva, T. Moitra, R. H. Myhre, A. C. Paul, S. Roet, 
   E. RoncaM. Scavino, A. K. Schnack-Petersen, A. S. Skeidsvoll, Å. 
   H. Tveten
  ------------------------------------------------------------------------
   J. Chem. Phys. 152, 184103 (2020); https://doi.org/10.1063/5.0004713


   This is eT 1.7.0 Hydra
  ------------------------------------------------------------
  Configuration date: 2022-04-07 12:33:31 UTC -07:00
  Git branch:         release-v1.7.0
  Git hash:           c5c382d7d23365463896a87c37298e4a37e4c962
  Fortran compiler:   GNU 11.2.0
  C compiler:         GNU 11.2.0
  C++ compiler:       GNU 11.2.0
  LAPACK type:        SYSTEM_NATIVE
  BLAS type:          SYSTEM_NATIVE
  64-bit integers:    OFF
  OpenMP:             ON
  PCM:                OFF
  Forced batching:    OFF
  Runtime checks:     OFF
  ------------------------------------------------------------

  Calculation started: 2022-04-07 12:35:47 UTC -07:00


  :: Input file
  ================

     Note: geometry section is excluded from this print

     system
        name: H2O He
        charge: 0
     end system

     do
        ground state
        excited state
     end do

     memory
        available: 8
     end memory

     solver cholesky
        threshold: 1.0d-12
     end solver cholesky

     solver scf
        algorithm:          scf-diis
        energy threshold:   1.0d-11
        gradient threshold: 1.0d-11
     end solver scf

     method
        hf
        mlcc2
     end method

     solver cc gs
        omega threshold:  1.0d-11
        energy threshold: 1.0d-11
     end solver cc gs

     solver cc es
        algorithm:          davidson
        singlet states:     4
        residual threshold: 1.0d-11
        energy threshold:   1.0d-11
        right eigenvectors
     end solver cc es

     active atoms
        selection type: list
        cc2: {3}
     end active atoms

     frozen orbitals
        core
     end frozen orbitals

     mlcc
        cc2 orbitals: cholesky-pao
        cholesky threshold: 1.0d-1
     end mlcc


  Running on 2 OMP threads
  Memory available for calculation: 8.000000 GB


  :: RHF wavefunction
  ======================

     ==============================================================================
                                     Geometry (angstrom)
     ==============================================================================
        Atom           X                  Y                  Z         # in input
     ==============================================================================
        Basis: cc-pvdz
        1  O     0.000000000000    -0.075790000000     5.000000000000        3
        2  H     0.866810000000     0.601440000000     5.000000000000        1
        3  H    -0.866810000000     0.601440000000     5.000000000000        2
        4 He     0.100000000000    -0.020000000000     7.530000000000        4
     ==============================================================================

     ==============================================================================
                                     Geometry (a.u.)
     ==============================================================================
        Atom           X                  Y                  Z         # in input
     ==============================================================================
        Basis: cc-pvdz
        1  O     0.000000000000    -0.143222342981     9.448630622825        3
        2  H     1.638033502034     1.136556880358     9.448630622825        1
        3  H    -1.638033502034     1.136556880358     9.448630622825        2
        4 He     0.188972612457    -0.037794522491    14.229637717975        4
     ==============================================================================

  - Cholesky decomposition of AO overlap to get linearly independent AOs:

     Linear dependence threshold:             0.10E-05
     Number of atomic orbitals:               29
     Number of orthonormal atomic orbitals:   29

  - Molecular orbital details:

     Number of occupied orbitals:         6
     Number of virtual orbitals:         23
     Number of molecular orbitals:       29


  :: Hartree-Fock engine
  =========================

  Drives the calculation of the Hartree-Fock state.

  This is a RHF ground state calculation.
  The following tasks will be performed:

     1) Generate initial SAD density
     2) Calculation of reference state (SCF-DIIS algorithm)


  1) Generate initial SAD density


  2) Calculation of reference state (SCF-DIIS algorithm)

  - Setting initial AO density to sad

     Energy of initial guess:               -78.492022836322
     Number of electrons in guess:           12.000000000000

  - Screening and integral thresholds:

     Coulomb screening threshold:    0.1000E-16
     Exchange screening threshold:   0.1000E-14
     ERI cutoff:                     0.1000E-16
     One-electron integral  cutoff:  0.1000E-21
     Cumulative Fock threshold:      0.1000E+01

  - SCF solver settings:

     Maximum iterations:                   100
     Acceleration type:                   diis

  - Convergence thresholds

     Residual threshold:            0.1000E-10
     Energy threshold:              0.1000E-10

  - DIIS tool settings:

     DIIS dimension:   8

     Storage (solver scf_errors): memory
     Storage (solver scf_parameters): memory

  Iteration       Energy (a.u.)      Max(grad.)    Delta E (a.u.)
  ---------------------------------------------------------------
     1           -78.796606592585     0.9711E-01     0.7880E+02
     2           -78.828675852654     0.7077E-01     0.3207E-01
     3           -78.843487343819     0.6125E-02     0.1481E-01
     4           -78.843814479549     0.2753E-02     0.3271E-03
     5           -78.843850612079     0.3973E-03     0.3613E-04
     6           -78.843851670925     0.5220E-04     0.1059E-05
     7           -78.843851692779     0.6749E-05     0.2185E-07
     8           -78.843851693528     0.2204E-05     0.7488E-09
     9           -78.843851693630     0.3162E-06     0.1027E-09
    10           -78.843851693631     0.2573E-07     0.3411E-12
    11           -78.843851693631     0.5507E-08     0.4263E-13
    12           -78.843851693631     0.1348E-08     0.8527E-13
    13           -78.843851693631     0.6167E-09     0.1421E-13
    14           -78.843851693631     0.1382E-09     0.2842E-13
    15           -78.843851693631     0.2501E-10     0.8527E-13
    16           -78.843851693631     0.5169E-11     0.2842E-13
  ---------------------------------------------------------------
  Convergence criterion met in 16 iterations!

  - Summary of RHF wavefunction energetics (a.u.):

     HOMO-LUMO gap:                  0.645629080245
     Nuclear repulsion energy:      12.116100574587
     Electronic energy:            -90.959952268218
     Total energy:                 -78.843851693631

  - Timings for the RHF ground state calculation

     Total wall time (sec):              0.32700
     Total cpu time (sec):               0.46166

  - Preparation for frozen core approximation

     There are 1 frozen core orbitals.


  :: MLCC2 wavefunction
  ========================

     Bath orbital(s):         False

   - Number of orbitals:

     Occupied orbitals:    5
     Virtual orbitals:     23
     Molecular orbitals:   28
     Atomic orbitals:      29


  Cholesky-decomposing electron repulsion integrals
  =================================================

  Cholesky decomposition of electronic repulsion integrals solver
  ---------------------------------------------------------------

  Performs a Cholesky decomposition of the two-electron electronic repulsion 
  integrals in the atomic orbital basis,

  (ab|cd) = sum_J L_ab^J L_cd^J.

  Once the Cholesky basis has been determined, the vectors L^J are constructed 
  and stored to disk. These may either be used directly, or be transformed 
  to the MO basis for use in post-HF calculations. For more information, 
  see S. D. Folkestad, E. F. Kjønstad and H. Koch, JCP, 150(19), (2019)

  - Cholesky decomposition settings:

     Target threshold is:   0.10E-11
     Span factor:           0.10E-01
     Max qual:                  1000

  - Cholesky decomposition ao details:

     Total number of AOs:                    29
     Total number of shell pairs:           120
     Total number of AO pairs:              435

     Significant shell pairs:               118
     Significant AO pairs:                  431

     Construct shell pairs:                 120
     Construct AO pairs:                    435

  Iter.  #Sign. ao pairs / shell pairs   Max diagonal    #Qualified    #Cholesky    Cholesky array size
  -------------------------------------------------------------------------------------------------------
     1               406 /     108       0.47383E+01         147             42             17052
     2               319 /      93       0.47165E-01         234            111             35409
     3               250 /      76       0.46944E-03         178            183             45750
     4               187 /      55       0.38270E-05         145            265             49555
     5                87 /      25       0.38106E-07          78            324             28188
     6                21 /       3       0.37202E-09          43            349              7329
     7                 0 /       0       0.36652E-11           7            354                 0
  -------------------------------------------------------------------------------------------------------

  - Summary of Cholesky decomposition of electronic repulsion integrals:

     Final number of Cholesky vectors: 354

 - Testing the Cholesky decomposition decomposition electronic repulsion integrals:

     Maximal difference between approximate and actual diagonal:              0.7161E-12
     Minimal element of difference between approximate and actual diagonal:  -0.1241E-14

  - Settings for integral handling:

     Cholesky vectors in memory: True
     ERI matrix in memory:       False

  - Finished decomposing the ERIs.

     Total wall time (sec):              0.36200
     Total cpu time (sec):               0.26654

     The smallest diagonal after decomposition is:  -0.4081E-16

  - MLCC2 orbital partitioning:

     Orbital type: cholesky-pao

     Number occupied cc2 orbitals:    4
     Number virtual cc2 orbitals:    13

     Number occupied ccs orbitals:    1
     Number virtual ccs orbitals:    10


  Determining CC cluster amplitudes
  =================================

   - DIIS coupled cluster ground state solver
  ----------------------------------------------

  A DIIS CC ground state amplitude equations solver. It uses an extrapolation 
  of previous quasi-Newton perturbation theory estimates of the next amplitudes. 
  See Helgaker et al., Molecular Electronic Structure Theory, Chapter 
  13.

  - CC ground state solver settings:

  - Convergence thresholds

     Residual threshold:            0.1000E-10
     Energy threshold:              0.1000E-10
     Max number of iterations:      100

  - DIIS tool settings:

     DIIS dimension:   8

     Storage (cc_gs_diis_errors): file
     Storage (cc_gs_diis_parameters): file

  Iteration    Energy (a.u.)        |omega|       Delta E (a.u.)
  ---------------------------------------------------------------
    1           -79.042140486981     0.3603E-01     0.7904E+02
    2           -79.043282160991     0.9020E-02     0.1142E-02
    3           -79.043467966055     0.2674E-02     0.1858E-03
    4           -79.043548105096     0.1145E-02     0.8014E-04
    5           -79.043556303647     0.3779E-03     0.8199E-05
    6           -79.043558777032     0.9920E-04     0.2473E-05
    7           -79.043558641560     0.3610E-04     0.1355E-06
    8           -79.043558683388     0.9932E-05     0.4183E-07
    9           -79.043558719384     0.3160E-05     0.3600E-07
   10           -79.043558724258     0.1521E-05     0.4874E-08
   11           -79.043558723318     0.5674E-06     0.9402E-09
   12           -79.043558724844     0.2351E-06     0.1526E-08
   13           -79.043558724178     0.7012E-07     0.6658E-09
   14           -79.043558724356     0.2059E-07     0.1779E-09
   15           -79.043558724215     0.6134E-08     0.1407E-09
   16           -79.043558724223     0.2325E-08     0.7276E-11
   17           -79.043558724239     0.6933E-09     0.1675E-10
   18           -79.043558724248     0.2691E-09     0.8711E-11
   19           -79.043558724251     0.8352E-10     0.3155E-11
   20           -79.043558724252     0.3095E-10     0.4832E-12
   21           -79.043558724251     0.1522E-10     0.1847E-12
   22           -79.043558724251     0.5158E-11     0.2842E-13
  ---------------------------------------------------------------
  Convergence criterion met in 22 iterations!

  - Ground state summary:

     Final ground state energy (a.u.):   -79.043558724251

     Correlation energy (a.u.):           -0.199707030621

     Largest single amplitudes:
     -----------------------------------
        a       i         t(a,i)
     -----------------------------------
        5      2        0.012302580508
        1      3       -0.012226274299
        8      3       -0.006255363219
        2      2        0.006225954321
        6      3        0.005874578574
        4      4        0.005684874899
        6      1        0.005299141525
       12      2       -0.004028229395
        8      1       -0.003186530499
       23      2       -0.002942665213
     ------------------------------------

  - Finished solving the MLCC2 ground state equations

     Total wall time (sec):              0.23400
     Total cpu time (sec):               0.16658


  Determining CC excited state amplitudes
  =======================================

  Davidson eigenvalue equation solver
  -----------------------------------

  A Davidson solver that solves an eigenvalue equation: M x = omega x. 
  This equation is solved in a reduced space. A description of the algorithm 
  can be found in E. R. Davidson, J. Comput. Phys. 17, 87 (1975).

   - Davidson tool settings:

     Number of parameters:                 1493
     Number of requested solutions:           4
     Max reduced space dimension:           100

     Storage (cc_es_davidson_trials): memory
     Storage (cc_es_davidson_transforms): memory

  - Davidson solver settings

     Number of singlet states:               4
     Max number of iterations:             100

  Iteration:                  1
  Reduced space dimension:    4

  Root  Eigenvalue (Re)   Eigenvalue (Im)    |residual|   Delta E (Re)
  -------------------------------------------------------------------------
     1   0.447621728789    0.000000000000     0.5820E+00   0.4476E+00
     2   0.580234682858    0.000000000000     0.5707E+00   0.5802E+00
     3   0.581798451173    0.000000000000     0.5702E+00   0.5818E+00
     4   0.632822273897    0.000000000000     0.5141E+00   0.6328E+00
  -------------------------------------------------------------------------

  Iteration:                  2
  Reduced space dimension:    8

  Root  Eigenvalue (Re)   Eigenvalue (Im)    |residual|   Delta E (Re)
  -------------------------------------------------------------------------
     1   0.281131737424    0.000000000000     0.1527E+00   0.1665E+00
     2   0.392149617365    0.000000000000     0.1795E+00   0.1881E+00
     3   0.392915401295    0.000000000000     0.2200E+00   0.1889E+00
     4   0.497140551470    0.000000000000     0.1661E+00   0.1357E+00
  -------------------------------------------------------------------------

  Iteration:                  3
  Reduced space dimension:   12

  Root  Eigenvalue (Re)   Eigenvalue (Im)    |residual|   Delta E (Re)
  -------------------------------------------------------------------------
     1   0.266197778822    0.000000000000     0.7734E-01   0.1493E-01
     2   0.363704868957    0.000000000000     0.9005E-01   0.2844E-01
     3   0.372269333445    0.000000000000     0.8932E-01   0.2065E-01
     4   0.477964771652    0.000000000000     0.9001E-01   0.1918E-01
  -------------------------------------------------------------------------

  Iteration:                  4
  Reduced space dimension:   16

  Root  Eigenvalue (Re)   Eigenvalue (Im)    |residual|   Delta E (Re)
  -------------------------------------------------------------------------
     1   0.264710273053    0.000000000000     0.2258E-01   0.1488E-02
     2   0.362479781073    0.000000000000     0.1059E-01   0.1225E-02
     3   0.371212432725    0.000000000000     0.2723E-01   0.1057E-02
     4   0.475593760367    0.000000000000     0.3537E-01   0.2371E-02
  -------------------------------------------------------------------------

  Iteration:                  5
  Reduced space dimension:   20

  Root  Eigenvalue (Re)   Eigenvalue (Im)    |residual|   Delta E (Re)
  -------------------------------------------------------------------------
     1   0.264486061762    0.000000000000     0.1228E-01   0.2242E-03
     2   0.362435616195    0.000000000000     0.2944E-02   0.4416E-04
     3   0.370339519363    0.000000000000     0.1302E-01   0.8729E-03
     4   0.473600545408    0.000000000000     0.4149E-01   0.1993E-02
  -------------------------------------------------------------------------

  Iteration:                  6
  Reduced space dimension:   24

  Root  Eigenvalue (Re)   Eigenvalue (Im)    |residual|   Delta E (Re)
  -------------------------------------------------------------------------
     1   0.264175591355    0.000000000000     0.1796E-02   0.3105E-03
     2   0.362423319953    0.000000000000     0.6600E-03   0.1230E-04
     3   0.370034712719    0.000000000000     0.2796E-02   0.3048E-03
     4   0.468906372338    0.000000000000     0.7133E-01   0.4694E-02
  -------------------------------------------------------------------------

  Iteration:                  7
  Reduced space dimension:   28

  Root  Eigenvalue (Re)   Eigenvalue (Im)    |residual|   Delta E (Re)
  -------------------------------------------------------------------------
     1   0.264187220101    0.000000000000     0.4806E-03   0.1163E-04
     2   0.362426428418    0.000000000000     0.1812E-03   0.3108E-05
     3   0.370112637095    0.000000000000     0.8718E-03   0.7792E-04
     4   0.460621804218    0.000000000000     0.5552E-01   0.8285E-02
  -------------------------------------------------------------------------

  Iteration:                  8
  Reduced space dimension:   32

  Root  Eigenvalue (Re)   Eigenvalue (Im)    |residual|   Delta E (Re)
  -------------------------------------------------------------------------
     1   0.264191485154    0.000000000000     0.1049E-03   0.4265E-05
     2   0.362427652553    0.000000000000     0.4357E-04   0.1224E-05
     3   0.370117001707    0.000000000000     0.2819E-03   0.4365E-05
     4   0.458439216841    0.000000000000     0.1673E-01   0.2183E-02
  -------------------------------------------------------------------------

  Iteration:                  9
  Reduced space dimension:   36

  Root  Eigenvalue (Re)   Eigenvalue (Im)    |residual|   Delta E (Re)
  -------------------------------------------------------------------------
     1   0.264191405439    0.000000000000     0.2252E-04   0.7971E-07
     2   0.362427639234    0.000000000000     0.1038E-04   0.1332E-07
     3   0.370108638225    0.000000000000     0.1320E-03   0.8363E-05
     4   0.458348989624    0.000000000000     0.3380E-02   0.9023E-04
  -------------------------------------------------------------------------

  Iteration:                 10
  Reduced space dimension:   40

  Root  Eigenvalue (Re)   Eigenvalue (Im)    |residual|   Delta E (Re)
  -------------------------------------------------------------------------
     1   0.264191256320    0.000000000000     0.4267E-05   0.1491E-06
     2   0.362427563313    0.000000000000     0.4171E-05   0.7592E-07
     3   0.370109930080    0.000000000000     0.5418E-04   0.1292E-05
     4   0.458335939286    0.000000000000     0.1008E-02   0.1305E-04
  -------------------------------------------------------------------------

  Iteration:                 11
  Reduced space dimension:   44

  Root  Eigenvalue (Re)   Eigenvalue (Im)    |residual|   Delta E (Re)
  -------------------------------------------------------------------------
     1   0.264191253924    0.000000000000     0.1258E-05   0.2396E-08
     2   0.362427592448    0.000000000000     0.1564E-05   0.2914E-07
     3   0.370110874051    0.000000000000     0.2065E-04   0.9440E-06
     4   0.458340457651    0.000000000000     0.3506E-03   0.4518E-05
  -------------------------------------------------------------------------

  Iteration:                 12
  Reduced space dimension:   48

  Root  Eigenvalue (Re)   Eigenvalue (Im)    |residual|   Delta E (Re)
  -------------------------------------------------------------------------
     1   0.264191255358    0.000000000000     0.4220E-06   0.1434E-08
     2   0.362427590520    0.000000000000     0.5537E-06   0.1928E-08
     3   0.370110610806    0.000000000000     0.7021E-05   0.2632E-06
     4   0.458338875894    0.000000000000     0.1023E-03   0.1582E-05
  -------------------------------------------------------------------------

  Iteration:                 13
  Reduced space dimension:   52

  Root  Eigenvalue (Re)   Eigenvalue (Im)    |residual|   Delta E (Re)
  -------------------------------------------------------------------------
     1   0.264191255610    0.000000000000     0.6930E-07   0.2516E-09
     2   0.362427588793    0.000000000000     0.1205E-06   0.1727E-08
     3   0.370110610143    0.000000000000     0.1737E-05   0.6637E-09
     4   0.458338655121    0.000000000000     0.1941E-04   0.2208E-06
  -------------------------------------------------------------------------

  Iteration:                 14
  Reduced space dimension:   56

  Root  Eigenvalue (Re)   Eigenvalue (Im)    |residual|   Delta E (Re)
  -------------------------------------------------------------------------
     1   0.264191255616    0.000000000000     0.1022E-07   0.6300E-11
     2   0.362427589362    0.000000000000     0.2565E-07   0.5687E-09
     3   0.370110616431    0.000000000000     0.3634E-06   0.6289E-08
     4   0.458338675566    0.000000000000     0.4108E-05   0.2044E-07
  -------------------------------------------------------------------------

  Iteration:                 15
  Reduced space dimension:   60

  Root  Eigenvalue (Re)   Eigenvalue (Im)    |residual|   Delta E (Re)
  -------------------------------------------------------------------------
     1   0.264191255638    0.000000000000     0.2255E-08   0.2155E-10
     2   0.362427589352    0.000000000000     0.6251E-08   0.9703E-11
     3   0.370110614680    0.000000000000     0.8567E-07   0.1752E-08
     4   0.458338705578    0.000000000000     0.7157E-06   0.3001E-07
  -------------------------------------------------------------------------

  Iteration:                 16
  Reduced space dimension:   64

  Root  Eigenvalue (Re)   Eigenvalue (Im)    |residual|   Delta E (Re)
  -------------------------------------------------------------------------
     1   0.264191255640    0.000000000000     0.3402E-09   0.2771E-11
     2   0.362427589336    0.000000000000     0.1353E-08   0.1586E-10
     3   0.370110614728    0.000000000000     0.1889E-07   0.4882E-10
     4   0.458338702711    0.000000000000     0.1690E-06   0.2867E-08
  -------------------------------------------------------------------------

  Iteration:                 17
  Reduced space dimension:   68

  Root  Eigenvalue (Re)   Eigenvalue (Im)    |residual|   Delta E (Re)
  -------------------------------------------------------------------------
     1   0.264191255638    0.000000000000     0.5195E-10   0.2521E-11
     2   0.362427589341    0.000000000000     0.2203E-09   0.4738E-11
     3   0.370110614825    0.000000000000     0.3030E-08   0.9676E-10
     4   0.458338702954    0.000000000000     0.2532E-07   0.2428E-09
  -------------------------------------------------------------------------

  Iteration:                 18
  Reduced space dimension:   72

  Root  Eigenvalue (Re)   Eigenvalue (Im)    |residual|   Delta E (Re)
  -------------------------------------------------------------------------
     1   0.264191255638    0.000000000000     0.5931E-11   0.3225E-13
     2   0.362427589341    0.000000000000     0.4234E-10   0.1578E-12
     3   0.370110614818    0.000000000000     0.5580E-09   0.7531E-11
     4   0.458338703031    0.000000000000     0.4337E-08   0.7700E-10
  -------------------------------------------------------------------------

  Iteration:                 19
  Reduced space dimension:   75

  Root  Eigenvalue (Re)   Eigenvalue (Im)    |residual|   Delta E (Re)
  -------------------------------------------------------------------------
     1   0.264191255638    0.000000000000     0.5298E-11   0.5829E-14
     2   0.362427589341    0.000000000000     0.4581E-11   0.1215E-12
     3   0.370110614816    0.000000000000     0.6028E-10   0.1299E-11
     4   0.458338703014    0.000000000000     0.8622E-09   0.1724E-10
  -------------------------------------------------------------------------

  Iteration:                 20
  Reduced space dimension:   77

  Root  Eigenvalue (Re)   Eigenvalue (Im)    |residual|   Delta E (Re)
  -------------------------------------------------------------------------
     1   0.264191255638    0.000000000000     0.5259E-11   0.1721E-14
     2   0.362427589341    0.000000000000     0.9312E-12   0.3053E-14
     3   0.370110614816    0.000000000000     0.1020E-10   0.4691E-13
     4   0.458338703016    0.000000000000     0.1167E-09   0.2349E-11
  -------------------------------------------------------------------------

  Iteration:                 21
  Reduced space dimension:   79

  Root  Eigenvalue (Re)   Eigenvalue (Im)    |residual|   Delta E (Re)
  -------------------------------------------------------------------------
     1   0.264191255638    0.000000000000     0.5230E-11   0.1610E-14
     2   0.362427589341    0.000000000000     0.5597E-12   0.1721E-14
     3   0.370110614816    0.000000000000     0.1783E-11   0.2465E-13
     4   0.458338703017    0.000000000000     0.1793E-10   0.3916E-12
  -------------------------------------------------------------------------

  Iteration:                 22
  Reduced space dimension:   80

  Root  Eigenvalue (Re)   Eigenvalue (Im)    |residual|   Delta E (Re)
  -------------------------------------------------------------------------
     1   0.264191255638    0.000000000000     0.5203E-11   0.5163E-14
     2   0.362427589341    0.000000000000     0.5597E-12   0.1665E-14
     3   0.370110614816    0.000000000000     0.1537E-11   0.9215E-14
     4   0.458338703017    0.000000000000     0.2517E-11   0.5346E-13
  -------------------------------------------------------------------------
  Convergence criterion met in 22 iterations!

  - Excitation vector amplitudes:

     Electronic state nr. 1

     Energy (Hartree):                  0.264191255638
     Fraction singles (|R1|/|R|):       0.985800123335

     MLCC diagnostics:

     |R1^internal|/|R| =       0.954492558164
     |R1^internal|/|R1| =      0.968241467586

     Largest single amplitudes:
     -----------------------------------
        a       i         R(a,i)
     -----------------------------------
        1      4       -0.951112080299
       16      4        0.220275972500
       15      4        0.108412535352
       10      4        0.050048855550
        3      4        0.036096806427
        6      4        0.035179091448
       13      4       -0.025754675169
        8      4        0.018762020641
       19      4       -0.015298076156
        1      5        0.011341591655
     ------------------------------------

     Electronic state nr. 2

     Energy (Hartree):                  0.362427589341
     Fraction singles (|R1|/|R|):       0.991555228619

     MLCC diagnostics:

     |R1^internal|/|R| =       0.882200184789
     |R1^internal|/|R1| =      0.889713612844

     Largest single amplitudes:
     -----------------------------------
        a       i         R(a,i)
     -----------------------------------
        2      4       -0.863233070616
       14      4       -0.426738221157
        5      4       -0.164204332356
       23      4       -0.143197860428
       12      4       -0.077644758325
       18      4        0.043950314297
       22      4       -0.012027968972
        2      5        0.009572205707
       14      5        0.007607123759
       17      1       -0.006682849340
     ------------------------------------

     Electronic state nr. 3

     Energy (Hartree):                  0.370110614816
     Fraction singles (|R1|/|R|):       0.988599106522

     MLCC diagnostics:

     |R1^internal|/|R| =       0.951121812108
     |R1^internal|/|R1| =      0.962090503454

     Largest single amplitudes:
     -----------------------------------
        a       i         R(a,i)
     -----------------------------------
        1      3       -0.930792445472
       16      3        0.236843965571
        2      2        0.138524159973
       15      3        0.116434343271
        6      3        0.078084950032
        1      1        0.068267620806
       10      3        0.048829976264
       14      2        0.043038813819
       13      3       -0.041531918306
        4      4       -0.041504342044
     ------------------------------------

     Electronic state nr. 4

     Energy (Hartree):                  0.458338703017
     Fraction singles (|R1|/|R|):       0.991669178086

     MLCC diagnostics:

     |R1^internal|/|R| =       0.890414383931
     |R1^internal|/|R1| =      0.897894583806

     Largest single amplitudes:
     -----------------------------------
        a       i         R(a,i)
     -----------------------------------
        2      3       -0.701280058320
        1      2        0.520814464991
       14      3       -0.392662328277
        5      3       -0.143560597241
       23      3       -0.125128328970
       16      2       -0.124919653362
       12      3       -0.081384116897
       15      2       -0.059706730701
       18      3        0.036416397803
       10      2       -0.036278675139
     ------------------------------------

  - MLCC2 excitation energies:

                                      Excitation energy
                          ------------------------------------------
      State                (Hartree)             (eV)
     ---------------------------------------------------------------
        1                  0.264191255638        7.189010240269
        2                  0.362427589341        9.862157037863
        3                  0.370110614816       10.071222809870
        4                  0.458338703017       12.472031375688
     ---------------------------------------------------------------
     eV/Hartree (CODATA 2014): 27.21138602

  ------------------------------------------------------------

  Peak memory usage during the execution of eT: 10.045096 MB

  Total wall time in eT (sec):              1.38000
  Total cpu time in eT (sec):               1.31296

  Calculation ended: 2022-04-07 12:35:48 UTC -07:00

  - Implementation references:

     eT: https://doi.org/10.1063/5.0004713
     MLCC2 and MLCCSD: https://doi.org/10.1021/acs.jctc.9b00701
     Cholesky decomposition of ERIs: https://doi.org/10.1063/1.5083802

  eT terminated successfully!
