


                     eT 1.7 - an electronic structure program

  ------------------------------------------------------------------------
   Author list in alphabetical order:
  ------------------------------------------------------------------------
   J. H. Andersen, A. Balbi, S. Coriani, S. D. Folkestad, T. Giovannini, 
   L. Goletto, T. S. Haugland, A. Hutcheson, I-M. Høyvik, E. F. Kjønstad, 
   H. Koch, R. Matveeva, T. Moitra, R. H. Myhre, A. C. Paul, S. Roet, 
   E. RoncaM. Scavino, A. K. Schnack-Petersen, A. S. Skeidsvoll, Å. 
   H. Tveten
  ------------------------------------------------------------------------
   J. Chem. Phys. 152, 184103 (2020); https://doi.org/10.1063/5.0004713


   This is eT 1.7.0 Hydra
  ------------------------------------------------------------
  Configuration date: 2022-04-07 12:33:31 UTC -07:00
  Git branch:         release-v1.7.0
  Git hash:           c5c382d7d23365463896a87c37298e4a37e4c962
  Fortran compiler:   GNU 11.2.0
  C compiler:         GNU 11.2.0
  C++ compiler:       GNU 11.2.0
  LAPACK type:        SYSTEM_NATIVE
  BLAS type:          SYSTEM_NATIVE
  64-bit integers:    OFF
  OpenMP:             ON
  PCM:                OFF
  Forced batching:    OFF
  Runtime checks:     OFF
  ------------------------------------------------------------

  Calculation started: 2022-04-07 12:35:53 UTC -07:00


  :: Input file
  ================

     Note: geometry section is excluded from this print

     system
        name: HOF He
        charge: 0
     end system

     do
        excited state
     end do

     memory
        available: 8
     end memory

     method
        hf
        mlcc2
     end method

     frozen orbitals
        core
     end frozen orbitals

     solver scf
        energy threshold:   1.0d-11
        gradient threshold: 1.0d-11
     end solver scf

     solver cholesky
        threshold: 1.0d-11
     end solver cholesky

     solver cc gs
        energy threshold: 1.0d-11
        omega threshold:  1.0d-11
     end solver cc gs

     solver cc es
        singlet states:     2
        residual threshold: 1.0d-11
        right eigenvectors
     end solver cc es

     active atoms
        selection type: range
        cc2: [1,4]
     end active atoms

     mlcc
        cc2 orbitals: cholesky
     end mlcc


  Running on 2 OMP threads
  Memory available for calculation: 8.000000 GB


  :: RHF wavefunction
  ======================

     ==============================================================================
                                     Geometry (angstrom)
     ==============================================================================
        Atom           X                  Y                  Z         # in input
     ==============================================================================
        Basis: cc-pvdz
        1  H     0.866810000000     0.601440000000     5.000000000000        1
        2  F    -0.866810000000     0.601440000000     5.000000000000        2
        3  O     0.000000000000    -0.075790000000     5.000000000000        3
        4 He     0.000000000000     0.000000000000     7.500000000000        4
     ==============================================================================

     ==============================================================================
                                     Geometry (a.u.)
     ==============================================================================
        Atom           X                  Y                  Z         # in input
     ==============================================================================
        Basis: cc-pvdz
        1  H     1.638033502034     1.136556880358     9.448630622825        1
        2  F    -1.638033502034     1.136556880358     9.448630622825        2
        3  O     0.000000000000    -0.143222342981     9.448630622825        3
        4 He     0.000000000000     0.000000000000    14.172945934238        4
     ==============================================================================

  - Cholesky decomposition of AO overlap to get linearly independent AOs:

     Linear dependence threshold:             0.10E-05
     Number of atomic orbitals:               38
     Number of orthonormal atomic orbitals:   38

  - Molecular orbital details:

     Number of occupied orbitals:        10
     Number of virtual orbitals:         28
     Number of molecular orbitals:       38


  :: Hartree-Fock engine
  =========================

  Drives the calculation of the Hartree-Fock state.

  This is a RHF ground state calculation.
  The following tasks will be performed:

     1) Generate initial SAD density
     2) Calculation of reference state (SCF-DIIS algorithm)


  1) Generate initial SAD density


  2) Calculation of reference state (SCF-DIIS algorithm)

  - Setting initial AO density to sad

     Energy of initial guess:              -178.316362504257
     Number of electrons in guess:           20.000000000000

  - Screening and integral thresholds:

     Coulomb screening threshold:    0.1000E-16
     Exchange screening threshold:   0.1000E-14
     ERI cutoff:                     0.1000E-16
     One-electron integral  cutoff:  0.1000E-21
     Cumulative Fock threshold:      0.1000E+01

  - SCF solver settings:

     Maximum iterations:                   100
     Acceleration type:                   diis

  - Convergence thresholds

     Residual threshold:            0.1000E-10
     Energy threshold:              0.1000E-10

  - DIIS tool settings:

     DIIS dimension:   8

     Storage (solver scf_errors): memory
     Storage (solver scf_parameters): memory

  Iteration       Energy (a.u.)      Max(grad.)    Delta E (a.u.)
  ---------------------------------------------------------------
     1          -177.452442672057     0.7565E-01     0.1775E+03
     2          -177.479038695767     0.1129E-01     0.2660E-01
     3          -177.480033265333     0.4145E-02     0.9946E-03
     4          -177.480160935731     0.1388E-02     0.1277E-03
     5          -177.480174929178     0.4311E-03     0.1399E-04
     6          -177.480176282849     0.8270E-04     0.1354E-05
     7          -177.480176366015     0.2291E-04     0.8317E-07
     8          -177.480176376347     0.4810E-05     0.1033E-07
     9          -177.480176377178     0.1046E-05     0.8309E-09
    10          -177.480176377209     0.2394E-06     0.3115E-10
    11          -177.480176377210     0.5253E-07     0.7390E-12
    12          -177.480176377210     0.9777E-08     0.1705E-12
    13          -177.480176377210     0.2792E-08     0.0000E+00
    14          -177.480176377210     0.1441E-08     0.3126E-12
    15          -177.480176377210     0.6293E-09     0.3126E-12
    16          -177.480176377210     0.1436E-09     0.2558E-12
    17          -177.480176377210     0.4658E-10     0.1990E-12
    18          -177.480176377210     0.7427E-11     0.5684E-13
  ---------------------------------------------------------------
  Convergence criterion met in 18 iterations!

  - Summary of RHF wavefunction energetics (a.u.):

     HOMO-LUMO gap:                  0.600136348385
     Nuclear repulsion energy:      48.518317619727
     Electronic energy:           -225.998493996938
     Total energy:                -177.480176377210

  - Timings for the RHF ground state calculation

     Total wall time (sec):              1.47200
     Total cpu time (sec):               1.24151

  - Preparation for frozen core approximation

     There are 2 frozen core orbitals.


  :: MLCC2 wavefunction
  ========================

     Bath orbital(s):         False

   - Number of orbitals:

     Occupied orbitals:    8
     Virtual orbitals:     28
     Molecular orbitals:   36
     Atomic orbitals:      38


  Cholesky-decomposing electron repulsion integrals
  =================================================

  Cholesky decomposition of electronic repulsion integrals solver
  ---------------------------------------------------------------

  Performs a Cholesky decomposition of the two-electron electronic repulsion 
  integrals in the atomic orbital basis,

  (ab|cd) = sum_J L_ab^J L_cd^J.

  Once the Cholesky basis has been determined, the vectors L^J are constructed 
  and stored to disk. These may either be used directly, or be transformed 
  to the MO basis for use in post-HF calculations. For more information, 
  see S. D. Folkestad, E. F. Kjønstad and H. Koch, JCP, 150(19), (2019)

  - Cholesky decomposition settings:

     Target threshold is:   0.10E-10
     Span factor:           0.10E-01
     Max qual:                  1000

  - Cholesky decomposition ao details:

     Total number of AOs:                    38
     Total number of shell pairs:           171
     Total number of AO pairs:              741

     Significant shell pairs:               161
     Significant AO pairs:                  697

     Construct shell pairs:                 171
     Construct AO pairs:                    741

  Iter.  #Sign. ao pairs / shell pairs   Max diagonal    #Qualified    #Cholesky    Cholesky array size
  -------------------------------------------------------------------------------------------------------
     1               671 /     150       0.53537E+01         194             49             32879
     2               524 /     128       0.52717E-01         398            155             81220
     3               484 /     114       0.52418E-03         303            243            117612
     4               362 /      92       0.51440E-05         311            363            131406
     5               218 /      52       0.49587E-07         221            476            103768
     6                 0 /       0       0.48539E-09         121            550                 0
  -------------------------------------------------------------------------------------------------------

  - Summary of Cholesky decomposition of electronic repulsion integrals:

     Final number of Cholesky vectors: 550

 - Testing the Cholesky decomposition decomposition electronic repulsion integrals:

     Maximal difference between approximate and actual diagonal:              0.9691E-11
     Minimal element of difference between approximate and actual diagonal:  -0.1084E-14

  - Settings for integral handling:

     Cholesky vectors in memory: True
     ERI matrix in memory:       False

  - Finished decomposing the ERIs.

     Total wall time (sec):              0.87400
     Total cpu time (sec):               0.60648

     The smallest diagonal after decomposition is:  -0.7970E-16

     The smallest diagonal after decomposition is:  -0.6070E-14

  - MLCC2 orbital partitioning:

     Orbital type: cholesky

     Number occupied cc2 orbitals:    8
     Number virtual cc2 orbitals:    28

     Number occupied ccs orbitals:    0
     Number virtual ccs orbitals:     0

  Warning: no ccs orbitals in mlcc2 calculation, recomended to run standard 
           cc2 code.


  Determining CC cluster amplitudes
  =================================

   - DIIS coupled cluster ground state solver
  ----------------------------------------------

  A DIIS CC ground state amplitude equations solver. It uses an extrapolation 
  of previous quasi-Newton perturbation theory estimates of the next amplitudes. 
  See Helgaker et al., Molecular Electronic Structure Theory, Chapter 
  13.

  - CC ground state solver settings:

  - Convergence thresholds

     Residual threshold:            0.1000E-10
     Energy threshold:              0.1000E-10
     Max number of iterations:      100

  - DIIS tool settings:

     DIIS dimension:   8

     Storage (cc_gs_diis_errors): file
     Storage (cc_gs_diis_parameters): file

  Iteration    Energy (a.u.)        |omega|       Delta E (a.u.)
  ---------------------------------------------------------------
    1          -177.872596608751     0.4576E-01     0.1779E+03
    2          -177.874258138480     0.9200E-02     0.1662E-02
    3          -177.874680603187     0.1662E-02     0.4225E-03
    4          -177.874735607237     0.5182E-03     0.5500E-04
    5          -177.874731846965     0.9100E-04     0.3760E-05
    6          -177.874731646440     0.1120E-04     0.2005E-06
    7          -177.874731622625     0.3641E-05     0.2381E-07
    8          -177.874731607509     0.1541E-05     0.1512E-07
    9          -177.874731618479     0.3015E-06     0.1097E-07
   10          -177.874731617191     0.6419E-07     0.1288E-08
   11          -177.874731617160     0.1201E-07     0.3172E-10
   12          -177.874731617129     0.2276E-08     0.3055E-10
   13          -177.874731617106     0.5137E-09     0.2294E-10
   14          -177.874731617105     0.6177E-10     0.8242E-12
   15          -177.874731617106     0.9769E-11     0.9948E-12
  ---------------------------------------------------------------
  Convergence criterion met in 15 iterations!

  - Ground state summary:

     Final ground state energy (a.u.):  -177.874731617106

     Correlation energy (a.u.):           -0.394555239896

     Largest single amplitudes:
     -----------------------------------
        a       i         t(a,i)
     -----------------------------------
        1      7        0.022113416952
        3      7        0.008477926021
        4      5        0.006478916278
       14      7        0.005579437758
        4      8        0.005220847376
        5      4        0.005071721238
       14      4        0.004917206830
       10      5        0.004448899635
        5      2       -0.004355950066
        3      4       -0.004303395547
     ------------------------------------

  - Finished solving the MLCC2 ground state equations

     Total wall time (sec):              0.23500
     Total cpu time (sec):               0.16737


  Determining CC excited state amplitudes
  =======================================

  Davidson eigenvalue equation solver
  -----------------------------------

  A Davidson solver that solves an eigenvalue equation: M x = omega x. 
  This equation is solved in a reduced space. A description of the algorithm 
  can be found in E. R. Davidson, J. Comput. Phys. 17, 87 (1975).

   - Davidson tool settings:

     Number of parameters:                25424
     Number of requested solutions:           2
     Max reduced space dimension:           100

     Storage (cc_es_davidson_trials): memory
     Storage (cc_es_davidson_transforms): memory

  - Davidson solver settings

     Number of singlet states:               2
     Max number of iterations:             100

  Iteration:                  1
  Reduced space dimension:    2

  Root  Eigenvalue (Re)   Eigenvalue (Im)    |residual|   Delta E (Re)
  -------------------------------------------------------------------------
     1   0.357336332406    0.000000000000     0.5499E+00   0.3573E+00
     2   0.459974233658    0.000000000000     0.5271E+00   0.4600E+00
  -------------------------------------------------------------------------

  Iteration:                  2
  Reduced space dimension:    4

  Root  Eigenvalue (Re)   Eigenvalue (Im)    |residual|   Delta E (Re)
  -------------------------------------------------------------------------
     1   0.203427820005    0.000000000000     0.6866E-01   0.1539E+00
     2   0.320245527002    0.000000000000     0.6913E-01   0.1397E+00
  -------------------------------------------------------------------------

  Iteration:                  3
  Reduced space dimension:    6

  Root  Eigenvalue (Re)   Eigenvalue (Im)    |residual|   Delta E (Re)
  -------------------------------------------------------------------------
     1   0.201155888074    0.000000000000     0.2964E-01   0.2272E-02
     2   0.315646305570    0.000000000000     0.5012E-01   0.4599E-02
  -------------------------------------------------------------------------

  Iteration:                  4
  Reduced space dimension:    8

  Root  Eigenvalue (Re)   Eigenvalue (Im)    |residual|   Delta E (Re)
  -------------------------------------------------------------------------
     1   0.200859761788    0.000000000000     0.9208E-02   0.2961E-03
     2   0.314036806405    0.000000000000     0.1310E-01   0.1609E-02
  -------------------------------------------------------------------------

  Iteration:                  5
  Reduced space dimension:   10

  Root  Eigenvalue (Re)   Eigenvalue (Im)    |residual|   Delta E (Re)
  -------------------------------------------------------------------------
     1   0.200983700574    0.000000000000     0.2720E-02   0.1239E-03
     2   0.313833133723    0.000000000000     0.5192E-02   0.2037E-03
  -------------------------------------------------------------------------

  Iteration:                  6
  Reduced space dimension:   12

  Root  Eigenvalue (Re)   Eigenvalue (Im)    |residual|   Delta E (Re)
  -------------------------------------------------------------------------
     1   0.200941443826    0.000000000000     0.1320E-02   0.4226E-04
     2   0.313756446150    0.000000000000     0.1632E-02   0.7669E-04
  -------------------------------------------------------------------------

  Iteration:                  7
  Reduced space dimension:   14

  Root  Eigenvalue (Re)   Eigenvalue (Im)    |residual|   Delta E (Re)
  -------------------------------------------------------------------------
     1   0.200920976869    0.000000000000     0.5884E-03   0.2047E-04
     2   0.313755881177    0.000000000000     0.8033E-03   0.5650E-06
  -------------------------------------------------------------------------

  Iteration:                  8
  Reduced space dimension:   16

  Root  Eigenvalue (Re)   Eigenvalue (Im)    |residual|   Delta E (Re)
  -------------------------------------------------------------------------
     1   0.200924117655    0.000000000000     0.1640E-03   0.3141E-05
     2   0.313761278226    0.000000000000     0.2744E-03   0.5397E-05
  -------------------------------------------------------------------------

  Iteration:                  9
  Reduced space dimension:   18

  Root  Eigenvalue (Re)   Eigenvalue (Im)    |residual|   Delta E (Re)
  -------------------------------------------------------------------------
     1   0.200926346302    0.000000000000     0.5880E-04   0.2229E-05
     2   0.313753756730    0.000000000000     0.1134E-03   0.7521E-05
  -------------------------------------------------------------------------

  Iteration:                 10
  Reduced space dimension:   20

  Root  Eigenvalue (Re)   Eigenvalue (Im)    |residual|   Delta E (Re)
  -------------------------------------------------------------------------
     1   0.200926448218    0.000000000000     0.2847E-04   0.1019E-06
     2   0.313754869063    0.000000000000     0.3311E-04   0.1112E-05
  -------------------------------------------------------------------------

  Iteration:                 11
  Reduced space dimension:   22

  Root  Eigenvalue (Re)   Eigenvalue (Im)    |residual|   Delta E (Re)
  -------------------------------------------------------------------------
     1   0.200926802085    0.000000000000     0.6430E-05   0.3539E-06
     2   0.313754889506    0.000000000000     0.8525E-05   0.2044E-07
  -------------------------------------------------------------------------

  Iteration:                 12
  Reduced space dimension:   24

  Root  Eigenvalue (Re)   Eigenvalue (Im)    |residual|   Delta E (Re)
  -------------------------------------------------------------------------
     1   0.200926847242    0.000000000000     0.1483E-05   0.4516E-07
     2   0.313754888398    0.000000000000     0.2577E-05   0.1108E-08
  -------------------------------------------------------------------------

  Iteration:                 13
  Reduced space dimension:   26

  Root  Eigenvalue (Re)   Eigenvalue (Im)    |residual|   Delta E (Re)
  -------------------------------------------------------------------------
     1   0.200926846045    0.000000000000     0.3605E-06   0.1198E-08
     2   0.313754899618    0.000000000000     0.7437E-06   0.1122E-07
  -------------------------------------------------------------------------

  Iteration:                 14
  Reduced space dimension:   28

  Root  Eigenvalue (Re)   Eigenvalue (Im)    |residual|   Delta E (Re)
  -------------------------------------------------------------------------
     1   0.200926844940    0.000000000000     0.9391E-07   0.1105E-08
     2   0.313754910363    0.000000000000     0.3059E-06   0.1074E-07
  -------------------------------------------------------------------------

  Iteration:                 15
  Reduced space dimension:   30

  Root  Eigenvalue (Re)   Eigenvalue (Im)    |residual|   Delta E (Re)
  -------------------------------------------------------------------------
     1   0.200926846336    0.000000000000     0.2766E-07   0.1397E-08
     2   0.313754909433    0.000000000000     0.1429E-06   0.9295E-09
  -------------------------------------------------------------------------

  Iteration:                 16
  Reduced space dimension:   32

  Root  Eigenvalue (Re)   Eigenvalue (Im)    |residual|   Delta E (Re)
  -------------------------------------------------------------------------
     1   0.200926846261    0.000000000000     0.7754E-08   0.7503E-10
     2   0.313754908806    0.000000000000     0.6377E-07   0.6278E-09
  -------------------------------------------------------------------------

  Iteration:                 17
  Reduced space dimension:   34

  Root  Eigenvalue (Re)   Eigenvalue (Im)    |residual|   Delta E (Re)
  -------------------------------------------------------------------------
     1   0.200926846217    0.000000000000     0.1623E-08   0.4477E-10
     2   0.313754908427    0.000000000000     0.2089E-07   0.3790E-09
  -------------------------------------------------------------------------

  Iteration:                 18
  Reduced space dimension:   36

  Root  Eigenvalue (Re)   Eigenvalue (Im)    |residual|   Delta E (Re)
  -------------------------------------------------------------------------
     1   0.200926846220    0.000000000000     0.3196E-09   0.3222E-11
     2   0.313754908474    0.000000000000     0.6379E-08   0.4735E-10
  -------------------------------------------------------------------------

  Iteration:                 19
  Reduced space dimension:   38

  Root  Eigenvalue (Re)   Eigenvalue (Im)    |residual|   Delta E (Re)
  -------------------------------------------------------------------------
     1   0.200926846220    0.000000000000     0.6995E-10   0.4405E-12
     2   0.313754908456    0.000000000000     0.1874E-08   0.1844E-10
  -------------------------------------------------------------------------

  Iteration:                 20
  Reduced space dimension:   40

  Root  Eigenvalue (Re)   Eigenvalue (Im)    |residual|   Delta E (Re)
  -------------------------------------------------------------------------
     1   0.200926846220    0.000000000000     0.1338E-10   0.2544E-12
     2   0.313754908466    0.000000000000     0.5383E-09   0.1049E-10
  -------------------------------------------------------------------------

  Iteration:                 21
  Reduced space dimension:   42

  Root  Eigenvalue (Re)   Eigenvalue (Im)    |residual|   Delta E (Re)
  -------------------------------------------------------------------------
     1   0.200926846220    0.000000000000     0.3060E-11   0.3042E-13
     2   0.313754908468    0.000000000000     0.1668E-09   0.1701E-11
  -------------------------------------------------------------------------

  Iteration:                 22
  Reduced space dimension:   43

  Root  Eigenvalue (Re)   Eigenvalue (Im)    |residual|   Delta E (Re)
  -------------------------------------------------------------------------
     1   0.200926846220    0.000000000000     0.3052E-11   0.3886E-15
     2   0.313754908469    0.000000000000     0.3913E-10   0.1022E-11
  -------------------------------------------------------------------------

  Iteration:                 23
  Reduced space dimension:   44

  Root  Eigenvalue (Re)   Eigenvalue (Im)    |residual|   Delta E (Re)
  -------------------------------------------------------------------------
     1   0.200926846220    0.000000000000     0.3049E-11   0.7216E-15
     2   0.313754908469    0.000000000000     0.9445E-11   0.1982E-13
  -------------------------------------------------------------------------
  Convergence criterion met in 23 iterations!

  - Excitation vector amplitudes:

     Electronic state nr. 1

     Energy (Hartree):                  0.200926846220
     Fraction singles (|R1|/|R|):       0.980635145728

     MLCC diagnostics:

     |R1^internal|/|R| =       0.980635145728
     |R1^internal|/|R1| =      1.000000000000

     Largest single amplitudes:
     -----------------------------------
        a       i         R(a,i)
     -----------------------------------
        1      8       -0.969479009522
        3      8       -0.125458946923
        2      8        0.044640796852
        1      5       -0.029695790343
        6      8       -0.025107696519
       13      8        0.025001698822
       12      8       -0.022540930956
       14      8        0.012079245571
        3      5       -0.011882425066
        2      5        0.011580787264
     ------------------------------------

     Electronic state nr. 2

     Energy (Hartree):                  0.313754908469
     Fraction singles (|R1|/|R|):       0.982273568701

     MLCC diagnostics:

     |R1^internal|/|R| =       0.982273568701
     |R1^internal|/|R1| =      1.000000000000

     Largest single amplitudes:
     -----------------------------------
        a       i         R(a,i)
     -----------------------------------
        1      7        0.970945559759
        1      4       -0.100819985125
        3      7        0.056864690908
        4      8       -0.034974432541
        1      6        0.034446187886
        3      4       -0.029806694987
        1      2       -0.025905963196
       13      7       -0.025268959101
        5      6       -0.022000530042
        9      7        0.020658119172
     ------------------------------------

  - MLCC2 excitation energies:

                                      Excitation energy
                          ------------------------------------------
      State                (Hartree)             (eV)
     ---------------------------------------------------------------
        1                  0.200926846220        5.467497974276
        2                  0.313754908469        8.537705930014
     ---------------------------------------------------------------
     eV/Hartree (CODATA 2014): 27.21138602

  ------------------------------------------------------------

  Peak memory usage during the execution of eT: 58.825216 MB

  :: There was 1 warning during the execution of eT. ::

  Total wall time in eT (sec):              3.28600
  Total cpu time in eT (sec):               2.62049

  Calculation ended: 2022-04-07 12:35:56 UTC -07:00

  - Implementation references:

     eT: https://doi.org/10.1063/5.0004713
     MLCC2 and MLCCSD: https://doi.org/10.1021/acs.jctc.9b00701
     Cholesky decomposition of ERIs: https://doi.org/10.1063/1.5083802

  eT terminated successfully!
