


                     eT 1.7 - an electronic structure program

  ------------------------------------------------------------------------
   Author list in alphabetical order:
  ------------------------------------------------------------------------
   J. H. Andersen, A. Balbi, S. Coriani, S. D. Folkestad, T. Giovannini, 
   L. Goletto, T. S. Haugland, A. Hutcheson, I-M. Høyvik, E. F. Kjønstad, 
   H. Koch, R. Matveeva, T. Moitra, R. H. Myhre, A. C. Paul, S. Roet, 
   E. RoncaM. Scavino, A. K. Schnack-Petersen, A. S. Skeidsvoll, Å. 
   H. Tveten
  ------------------------------------------------------------------------
   J. Chem. Phys. 152, 184103 (2020); https://doi.org/10.1063/5.0004713


   This is eT 1.7.0 Hydra
  ------------------------------------------------------------
  Configuration date: 2022-04-07 12:33:31 UTC -07:00
  Git branch:         release-v1.7.0
  Git hash:           c5c382d7d23365463896a87c37298e4a37e4c962
  Fortran compiler:   GNU 11.2.0
  C compiler:         GNU 11.2.0
  C++ compiler:       GNU 11.2.0
  LAPACK type:        SYSTEM_NATIVE
  BLAS type:          SYSTEM_NATIVE
  64-bit integers:    OFF
  OpenMP:             ON
  PCM:                OFF
  Forced batching:    OFF
  Runtime checks:     OFF
  ------------------------------------------------------------

  Calculation started: 2022-04-07 12:35:02 UTC -07:00


  :: Input file
  ================

     Note: geometry section is excluded from this print

     system
       name: HOF He
       charge: 0
       multiplicity: 1
     end system

     do
       response
     end do

     method
       hf
       ccsd
     end method

     solver scf
       gradient threshold: 1.0d-11
     end solver scf

     solver cholesky
       threshold: 1.0d-11
     end solver cholesky

     cc response
       eom
       polarizabilities: {11,13}
       frequencies: {0.02d0, 0.04d0, 0.06d0}
       dipole length
     end cc response

     solver cc multipliers
       threshold: 1.0d-11
     end solver cc multipliers

     solver cc gs
       omega threshold: 1.0d-11
     end solver cc gs

     solver cc response
       threshold: 1.0d-11
     end solver cc response


  Running on 2 OMP threads
  Memory available for calculation: 8.000000 GB


  :: RHF wavefunction
  ======================

     ==============================================================================
                                     Geometry (angstrom)
     ==============================================================================
        Atom           X                  Y                  Z         # in input
     ==============================================================================
        Basis: cc-pvdz
        1  H     0.866810000000     0.601440000000     5.000000000000        1
        2  H    -0.866810000000     0.601440000000     5.000000000000        2
        3  O     0.000000000000    -0.075790000000     5.000000000000        3
        4 He     0.100000000000     0.100000000000     7.500000000000        4
     ==============================================================================

     ==============================================================================
                                     Geometry (a.u.)
     ==============================================================================
        Atom           X                  Y                  Z         # in input
     ==============================================================================
        Basis: cc-pvdz
        1  H     1.638033502034     1.136556880358     9.448630622825        1
        2  H    -1.638033502034     1.136556880358     9.448630622825        2
        3  O     0.000000000000    -0.143222342981     9.448630622825        3
        4 He     0.188972612457     0.188972612457    14.172945934238        4
     ==============================================================================

  - Cholesky decomposition of AO overlap to get linearly independent AOs:

     Linear dependence threshold:             0.10E-05
     Number of atomic orbitals:               29
     Number of orthonormal atomic orbitals:   29

  - Molecular orbital details:

     Number of occupied orbitals:         6
     Number of virtual orbitals:         23
     Number of molecular orbitals:       29


  :: Hartree-Fock engine
  =========================

  Drives the calculation of the Hartree-Fock state.

  This is a RHF ground state calculation.
  The following tasks will be performed:

     1) Generate initial SAD density
     2) Calculation of reference state (SCF-DIIS algorithm)


  1) Generate initial SAD density


  2) Calculation of reference state (SCF-DIIS algorithm)

  - Setting initial AO density to sad

     Energy of initial guess:               -78.492416266399
     Number of electrons in guess:           12.000000000000

  - Screening and integral thresholds:

     Coulomb screening threshold:    0.1000E-16
     Exchange screening threshold:   0.1000E-14
     ERI cutoff:                     0.1000E-16
     One-electron integral  cutoff:  0.1000E-21
     Cumulative Fock threshold:      0.1000E+01

  - SCF solver settings:

     Maximum iterations:                   100
     Acceleration type:                   diis

  - Convergence thresholds

     Residual threshold:            0.1000E-10

  - DIIS tool settings:

     DIIS dimension:   8

     Storage (solver scf_errors): memory
     Storage (solver scf_parameters): memory

  Iteration       Energy (a.u.)      Max(grad.)    Delta E (a.u.)
  ---------------------------------------------------------------
     1           -78.796385564779     0.9792E-01     0.7880E+02
     2           -78.828483050772     0.7079E-01     0.3210E-01
     3           -78.843311641787     0.6748E-02     0.1483E-01
     4           -78.843639110899     0.2753E-02     0.3275E-03
     5           -78.843675254309     0.3974E-03     0.3614E-04
     6           -78.843676314432     0.5222E-04     0.1060E-05
     7           -78.843676336278     0.6088E-05     0.2185E-07
     8           -78.843676337024     0.2134E-05     0.7462E-09
     9           -78.843676337127     0.3154E-06     0.1025E-09
    10           -78.843676337127     0.2634E-07     0.3553E-12
    11           -78.843676337127     0.5597E-08     0.7105E-13
    12           -78.843676337127     0.1667E-08     0.5684E-13
    13           -78.843676337127     0.7764E-09     0.5684E-13
    14           -78.843676337127     0.1445E-09     0.2842E-13
    15           -78.843676337127     0.2400E-10     0.1421E-13
    16           -78.843676337127     0.4866E-11     0.2842E-13
  ---------------------------------------------------------------
  Convergence criterion met in 16 iterations!

  - Summary of RHF wavefunction energetics (a.u.):

     HOMO-LUMO gap:                  0.645839120077
     Nuclear repulsion energy:      12.163673938822
     Electronic energy:            -91.007350275948
     Total energy:                 -78.843676337127

  - Timings for the RHF ground state calculation

     Total wall time (sec):              0.49700
     Total cpu time (sec):               0.45490


  :: CCSD wavefunction
  =======================

     Bath orbital(s):         False

   - Number of orbitals:

     Occupied orbitals:    6
     Virtual orbitals:     23
     Molecular orbitals:   29
     Atomic orbitals:      29

   - Number of ground state amplitudes:

     Single excitation amplitudes:  138
     Double excitation amplitudes:  9591


  Cholesky-decomposing electron repulsion integrals
  =================================================

  Cholesky decomposition of electronic repulsion integrals solver
  ---------------------------------------------------------------

  Performs a Cholesky decomposition of the two-electron electronic repulsion 
  integrals in the atomic orbital basis,

  (ab|cd) = sum_J L_ab^J L_cd^J.

  Once the Cholesky basis has been determined, the vectors L^J are constructed 
  and stored to disk. These may either be used directly, or be transformed 
  to the MO basis for use in post-HF calculations. For more information, 
  see S. D. Folkestad, E. F. Kjønstad and H. Koch, JCP, 150(19), (2019)

  - Cholesky decomposition settings:

     Target threshold is:   0.10E-10
     Span factor:           0.10E-01
     Max qual:                  1000

  - Cholesky decomposition ao details:

     Total number of AOs:                    29
     Total number of shell pairs:           120
     Total number of AO pairs:              435

     Significant shell pairs:               118
     Significant AO pairs:                  431

     Construct shell pairs:                 120
     Construct AO pairs:                    435

  Iter.  #Sign. ao pairs / shell pairs   Max diagonal    #Qualified    #Cholesky    Cholesky array size
  -------------------------------------------------------------------------------------------------------
     1               405 /     107       0.47383E+01         147             42             17010
     2               318 /      92       0.47167E-01         234            111             35298
     3               247 /      75       0.46940E-03         178            183             45201
     4               181 /      53       0.38429E-05         146            267             48327
     5                70 /      18       0.38181E-07          73            325             22750
     6                 0 /       0       0.37014E-09          36            345                 0
  -------------------------------------------------------------------------------------------------------

  - Summary of Cholesky decomposition of electronic repulsion integrals:

     Final number of Cholesky vectors: 345

 - Testing the Cholesky decomposition decomposition electronic repulsion integrals:

     Maximal difference between approximate and actual diagonal:              0.8367E-11
     Minimal element of difference between approximate and actual diagonal:  -0.1238E-14

  - Settings for integral handling:

     Cholesky vectors in memory: True
     ERI matrix in memory:       True

  - Finished decomposing the ERIs.

     Total wall time (sec):              0.29300
     Total cpu time (sec):               0.21764


  Determining CC cluster amplitudes
  =================================

   - DIIS coupled cluster ground state solver
  ----------------------------------------------

  A DIIS CC ground state amplitude equations solver. It uses an extrapolation 
  of previous quasi-Newton perturbation theory estimates of the next amplitudes. 
  See Helgaker et al., Molecular Electronic Structure Theory, Chapter 
  13.

  - CC ground state solver settings:

  - Convergence thresholds

     Residual threshold:            0.1000E-10
     Max number of iterations:      100

  - DIIS tool settings:

     DIIS dimension:   8

     Storage (cc_gs_diis_errors): file
     Storage (cc_gs_diis_parameters): file

  Iteration    Energy (a.u.)        |omega|       Delta E (a.u.)
  ---------------------------------------------------------------
    1           -79.084077835139     0.9451E-01     0.7908E+02
    2           -79.092423265378     0.2732E-01     0.8345E-02
    3           -79.099238114218     0.7525E-02     0.6815E-02
    4           -79.100188779336     0.2098E-02     0.9507E-03
    5           -79.100209227511     0.5171E-03     0.2045E-04
    6           -79.100230097906     0.2316E-03     0.2087E-04
    7           -79.100222251159     0.4967E-04     0.7847E-05
    8           -79.100220947051     0.1195E-04     0.1304E-05
    9           -79.100220337523     0.4257E-05     0.6095E-06
   10           -79.100220132091     0.1863E-05     0.2054E-06
   11           -79.100220175033     0.7313E-06     0.4294E-07
   12           -79.100220186150     0.3170E-06     0.1112E-07
   13           -79.100220199848     0.1053E-06     0.1370E-07
   14           -79.100220193779     0.3052E-07     0.6069E-08
   15           -79.100220192941     0.6335E-08     0.8387E-09
   16           -79.100220193154     0.2110E-08     0.2132E-09
   17           -79.100220193343     0.6412E-09     0.1894E-09
   18           -79.100220193403     0.1569E-09     0.5976E-10
   19           -79.100220193411     0.5326E-10     0.7660E-11
   20           -79.100220193412     0.2038E-10     0.1066E-11
   21           -79.100220193412     0.7822E-11     0.6395E-12
  ---------------------------------------------------------------
  Convergence criterion met in 21 iterations!

  - Ground state summary:

     Final ground state energy (a.u.):   -79.100220193412

     Correlation energy (a.u.):           -0.256543856285

     Largest single amplitudes:
     -----------------------------------
        a       i         t(a,i)
     -----------------------------------
        1      5        0.014747369530
       14      4       -0.009547136381
        7      4        0.008286082477
       15      5       -0.006127815614
        4      5        0.005597168703
        6      2        0.005482270194
        2      4        0.005315676357
       13      5        0.005262264632
        5      6       -0.004976931948
       11      6       -0.003468458373
     ------------------------------------

     Largest double amplitudes:
     --------------------------------------------------
        a      i       b      j         t(ai,bj)
     --------------------------------------------------
        2      4       2      4       -0.047348347761
        5      6       5      6       -0.046125315413
        3      4       3      4       -0.036665602909
        6      5       6      5       -0.034567429545
        1      5       1      5       -0.034196788115
       16      3      16      3       -0.032093077498
       17      3      17      3       -0.032023970211
       18      3      18      3       -0.031207949792
        9      3       9      3       -0.030955102756
        2      4       3      4       -0.029700794879
     --------------------------------------------------

  - Finished solving the CCSD ground state equations

     Total wall time (sec):              0.82400
     Total cpu time (sec):               0.39160


  Determining CC multipliers
  ==========================

   - Davidson tool settings:

     Number of parameters:                 9729
     Number of requested solutions:           1
     Max reduced space dimension:            50

     Storage (multipliers_davidson_trials): file
     Storage (multipliers_davidson_transforms): file

  - Davidson solver settings

     Residual threshold:              0.10E-10
     Max number of iterations:             100

   Iteration       Residual norm
  -------------------------------
     1               0.3517E-01
     2               0.6903E-02
     3               0.1186E-02
     4               0.6184E-03
     5               0.1750E-03
     6               0.4651E-04
     7               0.1074E-04
     8               0.3420E-05
     9               0.1679E-05
    10               0.6733E-06
    11               0.2193E-06
    12               0.5501E-07
    13               0.1272E-07
    14               0.2939E-08
    15               0.7566E-09
    16               0.2298E-09
    17               0.8312E-10
    18               0.3665E-10
    19               0.1210E-10
    20               0.4111E-11
  -------------------------------
  Convergence criterion met in 20 iterations!

  - CC multipliers solver summary:

     Largest single amplitudes:
     -----------------------------------
        a       i         tbar(a,i)
     -----------------------------------
        1      5        0.022805147340
       14      4       -0.015908633382
        7      4        0.014301022447
        4      5        0.011694825281
       15      5       -0.010012933935
        6      2        0.009090546441
       13      5        0.008759484935
        2      4        0.006944367810
        5      6       -0.006882875136
        3      4        0.006757635371
     ------------------------------------

     Largest double amplitudes:
     --------------------------------------------------
        a      i       b      j         tbar(ai,bj)
     --------------------------------------------------
        5      6       5      6       -0.092268813940
        2      4       2      4       -0.092077851559
        6      5       5      6       -0.089587402693
        2      4       5      6        0.083766793134
        2      4       6      5        0.077165954298
        2      4       1      5       -0.076349534109
        7      4       5      6       -0.071310533230
        3      4       3      4       -0.071295647619
        6      5       6      5       -0.068100598732
        1      5       1      5       -0.065946545915
     --------------------------------------------------


  Determining CC polarizabilities
  ===============================

   - Davidson coupled cluster linear equations solver
  ------------------------------------------------------
  A Davidson solver that solves linear equations involving the Jacobian 
  transformation. When solving multiple linear equations, it builds a 
  shared reduced space in which to express each of the solutions to the 
  equations.

  Solving for the       amplitude response vectors in CC     response 
  theory.

  - Davidson CC linear equations solver settings:

     Residual threshold:        0.10E-10
     Max number of iterations:       100

   - Davidson tool settings:

     Number of parameters:                 9729
     Number of requested solutions:           3
     Max reduced space dimension:           100

     Storage (davidson_t_response_trials): file
     Storage (davidson_t_response_transforms): file

  - Entering iterative loop to solve equations.

  Iteration:               1
  Reduced space dimension: 3

  Frequency      Residual norm
  ------------------------------
  -0.20E-01      0.76E+00
  -0.40E-01      0.74E+00
  -0.60E-01      0.71E+00
  ------------------------------

  Iteration:               2
  Reduced space dimension: 6

  Frequency      Residual norm
  ------------------------------
  -0.20E-01      0.14E+00
  -0.40E-01      0.13E+00
  -0.60E-01      0.13E+00
  ------------------------------

  Iteration:               3
  Reduced space dimension: 9

  Frequency      Residual norm
  ------------------------------
  -0.20E-01      0.34E-01
  -0.40E-01      0.32E-01
  -0.60E-01      0.30E-01
  ------------------------------

  Iteration:               4
  Reduced space dimension: 12

  Frequency      Residual norm
  ------------------------------
  -0.20E-01      0.70E-02
  -0.40E-01      0.64E-02
  -0.60E-01      0.59E-02
  ------------------------------

  Iteration:               5
  Reduced space dimension: 15

  Frequency      Residual norm
  ------------------------------
  -0.20E-01      0.14E-02
  -0.40E-01      0.13E-02
  -0.60E-01      0.12E-02
  ------------------------------

  Iteration:               6
  Reduced space dimension: 18

  Frequency      Residual norm
  ------------------------------
  -0.20E-01      0.28E-03
  -0.40E-01      0.25E-03
  -0.60E-01      0.23E-03
  ------------------------------

  Iteration:               7
  Reduced space dimension: 21

  Frequency      Residual norm
  ------------------------------
  -0.20E-01      0.56E-04
  -0.40E-01      0.50E-04
  -0.60E-01      0.44E-04
  ------------------------------

  Iteration:               8
  Reduced space dimension: 24

  Frequency      Residual norm
  ------------------------------
  -0.20E-01      0.12E-04
  -0.40E-01      0.11E-04
  -0.60E-01      0.93E-05
  ------------------------------

  Iteration:               9
  Reduced space dimension: 27

  Frequency      Residual norm
  ------------------------------
  -0.20E-01      0.27E-05
  -0.40E-01      0.23E-05
  -0.60E-01      0.20E-05
  ------------------------------

  Iteration:               10
  Reduced space dimension: 30

  Frequency      Residual norm
  ------------------------------
  -0.20E-01      0.65E-06
  -0.40E-01      0.56E-06
  -0.60E-01      0.48E-06
  ------------------------------

  Iteration:               11
  Reduced space dimension: 33

  Frequency      Residual norm
  ------------------------------
  -0.20E-01      0.18E-06
  -0.40E-01      0.15E-06
  -0.60E-01      0.13E-06
  ------------------------------

  Iteration:               12
  Reduced space dimension: 36

  Frequency      Residual norm
  ------------------------------
  -0.20E-01      0.49E-07
  -0.40E-01      0.40E-07
  -0.60E-01      0.32E-07
  ------------------------------

  Iteration:               13
  Reduced space dimension: 39

  Frequency      Residual norm
  ------------------------------
  -0.20E-01      0.17E-07
  -0.40E-01      0.13E-07
  -0.60E-01      0.11E-07
  ------------------------------

  Iteration:               14
  Reduced space dimension: 42

  Frequency      Residual norm
  ------------------------------
  -0.20E-01      0.62E-08
  -0.40E-01      0.47E-08
  -0.60E-01      0.37E-08
  ------------------------------

  Iteration:               15
  Reduced space dimension: 45

  Frequency      Residual norm
  ------------------------------
  -0.20E-01      0.18E-08
  -0.40E-01      0.13E-08
  -0.60E-01      0.10E-08
  ------------------------------

  Iteration:               16
  Reduced space dimension: 48

  Frequency      Residual norm
  ------------------------------
  -0.20E-01      0.38E-09
  -0.40E-01      0.28E-09
  -0.60E-01      0.21E-09
  ------------------------------

  Iteration:               17
  Reduced space dimension: 51

  Frequency      Residual norm
  ------------------------------
  -0.20E-01      0.83E-10
  -0.40E-01      0.61E-10
  -0.60E-01      0.46E-10
  ------------------------------

  Iteration:               18
  Reduced space dimension: 54

  Frequency      Residual norm
  ------------------------------
  -0.20E-01      0.19E-10
  -0.40E-01      0.13E-10
  -0.60E-01      0.10E-10
  ------------------------------

  Iteration:               19
  Reduced space dimension: 56

  Frequency      Residual norm
  ------------------------------
  -0.20E-01      0.38E-11
  -0.40E-01      0.27E-11
  -0.60E-01      0.20E-11
  ------------------------------
  Convergence criterion met in 19 iterations!

  - Finished solving the CCSD linear equations

     Total wall time (sec):               1.99000
     Total cpu time (sec):                1.06241

   - Davidson coupled cluster linear equations solver
  ------------------------------------------------------
  A Davidson solver that solves linear equations involving the Jacobian 
  transformation. When solving multiple linear equations, it builds a 
  shared reduced space in which to express each of the solutions to the 
  equations.

  Solving for the       amplitude response vectors in CC     response 
  theory.

  - Davidson CC linear equations solver settings:

     Residual threshold:        0.10E-10
     Max number of iterations:       100

   - Davidson tool settings:

     Number of parameters:                 9729
     Number of requested solutions:           3
     Max reduced space dimension:           100

     Storage (davidson_t_response_trials): file
     Storage (davidson_t_response_transforms): file

  - Entering iterative loop to solve equations.

  Iteration:               1
  Reduced space dimension: 3

  Frequency      Residual norm
  ------------------------------
   0.20E-01      0.81E+00
   0.40E-01      0.84E+00
   0.60E-01      0.87E+00
  ------------------------------

  Iteration:               2
  Reduced space dimension: 6

  Frequency      Residual norm
  ------------------------------
   0.20E-01      0.16E+00
   0.40E-01      0.16E+00
   0.60E-01      0.17E+00
  ------------------------------

  Iteration:               3
  Reduced space dimension: 9

  Frequency      Residual norm
  ------------------------------
   0.20E-01      0.39E-01
   0.40E-01      0.41E-01
   0.60E-01      0.45E-01
  ------------------------------

  Iteration:               4
  Reduced space dimension: 12

  Frequency      Residual norm
  ------------------------------
   0.20E-01      0.82E-02
   0.40E-01      0.90E-02
   0.60E-01      0.99E-02
  ------------------------------

  Iteration:               5
  Reduced space dimension: 15

  Frequency      Residual norm
  ------------------------------
   0.20E-01      0.17E-02
   0.40E-01      0.19E-02
   0.60E-01      0.21E-02
  ------------------------------

  Iteration:               6
  Reduced space dimension: 18

  Frequency      Residual norm
  ------------------------------
   0.20E-01      0.35E-03
   0.40E-01      0.39E-03
   0.60E-01      0.44E-03
  ------------------------------

  Iteration:               7
  Reduced space dimension: 21

  Frequency      Residual norm
  ------------------------------
   0.20E-01      0.71E-04
   0.40E-01      0.81E-04
   0.60E-01      0.93E-04
  ------------------------------

  Iteration:               8
  Reduced space dimension: 24

  Frequency      Residual norm
  ------------------------------
   0.20E-01      0.15E-04
   0.40E-01      0.18E-04
   0.60E-01      0.21E-04
  ------------------------------

  Iteration:               9
  Reduced space dimension: 27

  Frequency      Residual norm
  ------------------------------
   0.20E-01      0.36E-05
   0.40E-01      0.43E-05
   0.60E-01      0.51E-05
  ------------------------------

  Iteration:               10
  Reduced space dimension: 30

  Frequency      Residual norm
  ------------------------------
   0.20E-01      0.10E-05
   0.40E-01      0.12E-05
   0.60E-01      0.16E-05
  ------------------------------

  Iteration:               11
  Reduced space dimension: 33

  Frequency      Residual norm
  ------------------------------
   0.20E-01      0.25E-06
   0.40E-01      0.32E-06
   0.60E-01      0.41E-06
  ------------------------------

  Iteration:               12
  Reduced space dimension: 36

  Frequency      Residual norm
  ------------------------------
   0.20E-01      0.73E-07
   0.40E-01      0.94E-07
   0.60E-01      0.13E-06
  ------------------------------

  Iteration:               13
  Reduced space dimension: 39

  Frequency      Residual norm
  ------------------------------
   0.20E-01      0.22E-07
   0.40E-01      0.28E-07
   0.60E-01      0.39E-07
  ------------------------------

  Iteration:               14
  Reduced space dimension: 42

  Frequency      Residual norm
  ------------------------------
   0.20E-01      0.57E-08
   0.40E-01      0.76E-08
   0.60E-01      0.11E-07
  ------------------------------

  Iteration:               15
  Reduced space dimension: 45

  Frequency      Residual norm
  ------------------------------
   0.20E-01      0.15E-08
   0.40E-01      0.21E-08
   0.60E-01      0.30E-08
  ------------------------------

  Iteration:               16
  Reduced space dimension: 48

  Frequency      Residual norm
  ------------------------------
   0.20E-01      0.33E-09
   0.40E-01      0.45E-09
   0.60E-01      0.64E-09
  ------------------------------

  Iteration:               17
  Reduced space dimension: 51

  Frequency      Residual norm
  ------------------------------
   0.20E-01      0.77E-10
   0.40E-01      0.11E-09
   0.60E-01      0.15E-09
  ------------------------------

  Iteration:               18
  Reduced space dimension: 54

  Frequency      Residual norm
  ------------------------------
   0.20E-01      0.19E-10
   0.40E-01      0.26E-10
   0.60E-01      0.39E-10
  ------------------------------

  Iteration:               19
  Reduced space dimension: 57

  Frequency      Residual norm
  ------------------------------
   0.20E-01      0.46E-11
   0.40E-01      0.66E-11
   0.60E-01      0.10E-10
  ------------------------------

  Iteration:               20
  Reduced space dimension: 58

  Frequency      Residual norm
  ------------------------------
   0.20E-01      0.11E-11
   0.40E-01      0.15E-11
   0.60E-01      0.23E-11
  ------------------------------
  Convergence criterion met in 20 iterations!

  - Finished solving the CCSD linear equations

     Total wall time (sec):               2.08100
     Total cpu time (sec):                1.14986

   - Davidson coupled cluster linear equations solver
  ------------------------------------------------------
  A Davidson solver that solves linear equations involving the Jacobian 
  transformation. When solving multiple linear equations, it builds a 
  shared reduced space in which to express each of the solutions to the 
  equations.

  Solving for the       amplitude response vectors in CC     response 
  theory.

  - Davidson CC linear equations solver settings:

     Residual threshold:        0.10E-10
     Max number of iterations:       100

   - Davidson tool settings:

     Number of parameters:                 9729
     Number of requested solutions:           3
     Max reduced space dimension:           100

     Storage (davidson_t_response_trials): file
     Storage (davidson_t_response_transforms): file

  - Entering iterative loop to solve equations.

  Iteration:               1
  Reduced space dimension: 3

  Frequency      Residual norm
  ------------------------------
  -0.20E-01      0.33E+00
  -0.40E-01      0.32E+00
  -0.60E-01      0.31E+00
  ------------------------------

  Iteration:               2
  Reduced space dimension: 6

  Frequency      Residual norm
  ------------------------------
  -0.20E-01      0.53E-01
  -0.40E-01      0.49E-01
  -0.60E-01      0.46E-01
  ------------------------------

  Iteration:               3
  Reduced space dimension: 9

  Frequency      Residual norm
  ------------------------------
  -0.20E-01      0.11E-01
  -0.40E-01      0.97E-02
  -0.60E-01      0.89E-02
  ------------------------------

  Iteration:               4
  Reduced space dimension: 12

  Frequency      Residual norm
  ------------------------------
  -0.20E-01      0.23E-02
  -0.40E-01      0.20E-02
  -0.60E-01      0.18E-02
  ------------------------------

  Iteration:               5
  Reduced space dimension: 15

  Frequency      Residual norm
  ------------------------------
  -0.20E-01      0.45E-03
  -0.40E-01      0.40E-03
  -0.60E-01      0.36E-03
  ------------------------------

  Iteration:               6
  Reduced space dimension: 18

  Frequency      Residual norm
  ------------------------------
  -0.20E-01      0.12E-03
  -0.40E-01      0.11E-03
  -0.60E-01      0.94E-04
  ------------------------------

  Iteration:               7
  Reduced space dimension: 21

  Frequency      Residual norm
  ------------------------------
  -0.20E-01      0.36E-04
  -0.40E-01      0.31E-04
  -0.60E-01      0.27E-04
  ------------------------------

  Iteration:               8
  Reduced space dimension: 24

  Frequency      Residual norm
  ------------------------------
  -0.20E-01      0.92E-05
  -0.40E-01      0.78E-05
  -0.60E-01      0.67E-05
  ------------------------------

  Iteration:               9
  Reduced space dimension: 27

  Frequency      Residual norm
  ------------------------------
  -0.20E-01      0.20E-05
  -0.40E-01      0.17E-05
  -0.60E-01      0.14E-05
  ------------------------------

  Iteration:               10
  Reduced space dimension: 30

  Frequency      Residual norm
  ------------------------------
  -0.20E-01      0.43E-06
  -0.40E-01      0.35E-06
  -0.60E-01      0.29E-06
  ------------------------------

  Iteration:               11
  Reduced space dimension: 33

  Frequency      Residual norm
  ------------------------------
  -0.20E-01      0.97E-07
  -0.40E-01      0.77E-07
  -0.60E-01      0.63E-07
  ------------------------------

  Iteration:               12
  Reduced space dimension: 36

  Frequency      Residual norm
  ------------------------------
  -0.20E-01      0.28E-07
  -0.40E-01      0.21E-07
  -0.60E-01      0.17E-07
  ------------------------------

  Iteration:               13
  Reduced space dimension: 39

  Frequency      Residual norm
  ------------------------------
  -0.20E-01      0.72E-08
  -0.40E-01      0.54E-08
  -0.60E-01      0.42E-08
  ------------------------------

  Iteration:               14
  Reduced space dimension: 42

  Frequency      Residual norm
  ------------------------------
  -0.20E-01      0.18E-08
  -0.40E-01      0.13E-08
  -0.60E-01      0.10E-08
  ------------------------------

  Iteration:               15
  Reduced space dimension: 45

  Frequency      Residual norm
  ------------------------------
  -0.20E-01      0.39E-09
  -0.40E-01      0.29E-09
  -0.60E-01      0.22E-09
  ------------------------------

  Iteration:               16
  Reduced space dimension: 48

  Frequency      Residual norm
  ------------------------------
  -0.20E-01      0.93E-10
  -0.40E-01      0.68E-10
  -0.60E-01      0.51E-10
  ------------------------------

  Iteration:               17
  Reduced space dimension: 51

  Frequency      Residual norm
  ------------------------------
  -0.20E-01      0.23E-10
  -0.40E-01      0.17E-10
  -0.60E-01      0.12E-10
  ------------------------------

  Iteration:               18
  Reduced space dimension: 54

  Frequency      Residual norm
  ------------------------------
  -0.20E-01      0.62E-11
  -0.40E-01      0.43E-11
  -0.60E-01      0.31E-11
  ------------------------------
  Convergence criterion met in 18 iterations!

  - Finished solving the CCSD linear equations

     Total wall time (sec):               2.10100
     Total cpu time (sec):                1.04125

   - Davidson coupled cluster linear equations solver
  ------------------------------------------------------
  A Davidson solver that solves linear equations involving the Jacobian 
  transformation. When solving multiple linear equations, it builds a 
  shared reduced space in which to express each of the solutions to the 
  equations.

  Solving for the       amplitude response vectors in CC     response 
  theory.

  - Davidson CC linear equations solver settings:

     Residual threshold:        0.10E-10
     Max number of iterations:       100

   - Davidson tool settings:

     Number of parameters:                 9729
     Number of requested solutions:           3
     Max reduced space dimension:           100

     Storage (davidson_t_response_trials): file
     Storage (davidson_t_response_transforms): file

  - Entering iterative loop to solve equations.

  Iteration:               1
  Reduced space dimension: 3

  Frequency      Residual norm
  ------------------------------
   0.20E-01      0.35E+00
   0.40E-01      0.37E+00
   0.60E-01      0.38E+00
  ------------------------------

  Iteration:               2
  Reduced space dimension: 6

  Frequency      Residual norm
  ------------------------------
   0.20E-01      0.62E-01
   0.40E-01      0.68E-01
   0.60E-01      0.75E-01
  ------------------------------

  Iteration:               3
  Reduced space dimension: 9

  Frequency      Residual norm
  ------------------------------
   0.20E-01      0.13E-01
   0.40E-01      0.15E-01
   0.60E-01      0.17E-01
  ------------------------------

  Iteration:               4
  Reduced space dimension: 12

  Frequency      Residual norm
  ------------------------------
   0.20E-01      0.28E-02
   0.40E-01      0.33E-02
   0.60E-01      0.38E-02
  ------------------------------

  Iteration:               5
  Reduced space dimension: 15

  Frequency      Residual norm
  ------------------------------
   0.20E-01      0.58E-03
   0.40E-01      0.67E-03
   0.60E-01      0.78E-03
  ------------------------------

  Iteration:               6
  Reduced space dimension: 18

  Frequency      Residual norm
  ------------------------------
   0.20E-01      0.16E-03
   0.40E-01      0.19E-03
   0.60E-01      0.23E-03
  ------------------------------

  Iteration:               7
  Reduced space dimension: 21

  Frequency      Residual norm
  ------------------------------
   0.20E-01      0.48E-04
   0.40E-01      0.57E-04
   0.60E-01      0.70E-04
  ------------------------------

  Iteration:               8
  Reduced space dimension: 24

  Frequency      Residual norm
  ------------------------------
   0.20E-01      0.12E-04
   0.40E-01      0.15E-04
   0.60E-01      0.18E-04
  ------------------------------

  Iteration:               9
  Reduced space dimension: 27

  Frequency      Residual norm
  ------------------------------
   0.20E-01      0.26E-05
   0.40E-01      0.32E-05
   0.60E-01      0.40E-05
  ------------------------------

  Iteration:               10
  Reduced space dimension: 30

  Frequency      Residual norm
  ------------------------------
   0.20E-01      0.59E-06
   0.40E-01      0.76E-06
   0.60E-01      0.10E-05
  ------------------------------

  Iteration:               11
  Reduced space dimension: 33

  Frequency      Residual norm
  ------------------------------
   0.20E-01      0.16E-06
   0.40E-01      0.22E-06
   0.60E-01      0.31E-06
  ------------------------------

  Iteration:               12
  Reduced space dimension: 36

  Frequency      Residual norm
  ------------------------------
   0.20E-01      0.51E-07
   0.40E-01      0.73E-07
   0.60E-01      0.11E-06
  ------------------------------

  Iteration:               13
  Reduced space dimension: 39

  Frequency      Residual norm
  ------------------------------
   0.20E-01      0.12E-07
   0.40E-01      0.17E-07
   0.60E-01      0.25E-07
  ------------------------------

  Iteration:               14
  Reduced space dimension: 42

  Frequency      Residual norm
  ------------------------------
   0.20E-01      0.30E-08
   0.40E-01      0.42E-08
   0.60E-01      0.62E-08
  ------------------------------

  Iteration:               15
  Reduced space dimension: 45

  Frequency      Residual norm
  ------------------------------
   0.20E-01      0.73E-09
   0.40E-01      0.10E-08
   0.60E-01      0.15E-08
  ------------------------------

  Iteration:               16
  Reduced space dimension: 48

  Frequency      Residual norm
  ------------------------------
   0.20E-01      0.20E-09
   0.40E-01      0.29E-09
   0.60E-01      0.45E-09
  ------------------------------

  Iteration:               17
  Reduced space dimension: 51

  Frequency      Residual norm
  ------------------------------
   0.20E-01      0.55E-10
   0.40E-01      0.82E-10
   0.60E-01      0.13E-09
  ------------------------------

  Iteration:               18
  Reduced space dimension: 54

  Frequency      Residual norm
  ------------------------------
   0.20E-01      0.15E-10
   0.40E-01      0.23E-10
   0.60E-01      0.36E-10
  ------------------------------

  Iteration:               19
  Reduced space dimension: 57

  Frequency      Residual norm
  ------------------------------
   0.20E-01      0.36E-11
   0.40E-01      0.56E-11
   0.60E-01      0.89E-11
  ------------------------------
  Convergence criterion met in 19 iterations!

  - Finished solving the CCSD linear equations

     Total wall time (sec):               2.07200
     Total cpu time (sec):                1.17960
     The convention applied here defines the polarizabilities as the response 
     functions, without negative sign.
     << mu_x, mu_x >>(0.20E-01):    -10.667179880761
     << mu_z, mu_x >>(0.20E-01):     -0.000770790934
     << mu_x, mu_x >>(0.40E-01):    -10.712628014279
     << mu_z, mu_x >>(0.40E-01):     -0.000729595713
     << mu_x, mu_x >>(0.60E-01):    -10.789511136656
     << mu_z, mu_x >>(0.60E-01):     -0.000657453296

  ------------------------------------------------------------

  Peak memory usage during the execution of eT: 16.118224 MB

  Total wall time in eT (sec):             10.80800
  Total cpu time in eT (sec):               5.92520

  Calculation ended: 2022-04-07 12:35:13 UTC -07:00

  - Implementation references:

     eT: https://doi.org/10.1063/5.0004713
     Cholesky decomposition of ERIs: https://doi.org/10.1063/1.5083802

  eT terminated successfully!
