


                     eT 1.7 - an electronic structure program

  ------------------------------------------------------------------------
   Author list in alphabetical order:
  ------------------------------------------------------------------------
   J. H. Andersen, A. Balbi, S. Coriani, S. D. Folkestad, T. Giovannini, 
   L. Goletto, T. S. Haugland, A. Hutcheson, I-M. Høyvik, E. F. Kjønstad, 
   H. Koch, R. Matveeva, T. Moitra, R. H. Myhre, A. C. Paul, S. Roet, 
   E. RoncaM. Scavino, A. K. Schnack-Petersen, A. S. Skeidsvoll, Å. 
   H. Tveten
  ------------------------------------------------------------------------
   J. Chem. Phys. 152, 184103 (2020); https://doi.org/10.1063/5.0004713


   This is eT 1.7.0 Hydra
  ------------------------------------------------------------
  Configuration date: 2022-04-07 12:33:31 UTC -07:00
  Git branch:         release-v1.7.0
  Git hash:           c5c382d7d23365463896a87c37298e4a37e4c962
  Fortran compiler:   GNU 11.2.0
  C compiler:         GNU 11.2.0
  C++ compiler:       GNU 11.2.0
  LAPACK type:        SYSTEM_NATIVE
  BLAS type:          SYSTEM_NATIVE
  64-bit integers:    OFF
  OpenMP:             ON
  PCM:                OFF
  Forced batching:    OFF
  Runtime checks:     OFF
  ------------------------------------------------------------

  Calculation started: 2022-04-07 12:34:56 UTC -07:00


  :: Input file
  ================

     Note: geometry section is excluded from this print

     system
        name:  HOF
        charge: 0
     end system

     do
        excited state
     end do

     memory
        available: 8
     end memory

     method
        hf
        ccsd
     end method

     solver scf
        energy threshold:   1.0d-6
        gradient threshold: 1.0d-6
     end solver scf

     solver cholesky
        threshold: 1.0d-6
     end solver cholesky

     solver cc gs
        storage: memory
        energy threshold: 1.0d-4
        omega threshold:  1.0d-4
     end solver cc gs

     solver cc es
        storage: memory
        singlet states: 3
        residual threshold: 1.0d-4
     end solver cc es


  Running on 2 OMP threads
  Memory available for calculation: 8.000000 GB


  :: RHF wavefunction
  ======================

     ==============================================================================
                                     Geometry (angstrom)
     ==============================================================================
        Atom           X                  Y                  Z         # in input
     ==============================================================================
        Basis: aug-cc-pvdz
        1  O     0.000001366400     0.000000000000    -0.000039640155        1
        2  H     1.089989888926     0.000000000000    -0.000001945621        2
        3  F    -0.030596536778     0.000000000000     1.306169602322        3
     ==============================================================================

     ==============================================================================
                                     Geometry (a.u.)
     ==============================================================================
        Atom           X                  Y                  Z         # in input
     ==============================================================================
        Basis: aug-cc-pvdz
        1  O     0.000002582122     0.000000000000    -0.000074909036        1
        2  H     2.059782368615     0.000000000000    -0.000003676691        2
        3  F    -0.057819074871     0.000000000000     2.468302820621        3
     ==============================================================================

  - Cholesky decomposition of AO overlap to get linearly independent AOs:

     Linear dependence threshold:             0.10E-05
     Number of atomic orbitals:               55
     Number of orthonormal atomic orbitals:   55

  - Molecular orbital details:

     Number of occupied orbitals:         9
     Number of virtual orbitals:         46
     Number of molecular orbitals:       55


  :: Hartree-Fock engine
  =========================

  Drives the calculation of the Hartree-Fock state.

  This is a RHF ground state calculation.
  The following tasks will be performed:

     1) Generate initial SAD density
     2) Calculation of reference state (SCF-DIIS algorithm)


  1) Generate initial SAD density


  2) Calculation of reference state (SCF-DIIS algorithm)

  - Setting initial AO density to sad

     Energy of initial guess:              -174.705619286620
     Number of electrons in guess:           18.000000000000

  - Screening and integral thresholds:

     Coulomb screening threshold:    0.1000E-11
     Exchange screening threshold:   0.1000E-09
     ERI cutoff:                     0.1000E-11
     One-electron integral  cutoff:  0.1000E-16
     Cumulative Fock threshold:      0.1000E+01

  - SCF solver settings:

     Maximum iterations:                   100
     Acceleration type:                   diis

  - Convergence thresholds

     Residual threshold:            0.1000E-05
     Energy threshold:              0.1000E-05

  - DIIS tool settings:

     DIIS dimension:   8

     Storage (solver scf_errors): memory
     Storage (solver scf_parameters): memory

  Iteration       Energy (a.u.)      Max(grad.)    Delta E (a.u.)
  ---------------------------------------------------------------
     1          -174.714800414314     0.4357E-01     0.1747E+03
     2          -174.737584105114     0.1644E-01     0.2278E-01
     3          -174.738899536012     0.6608E-02     0.1315E-02
     4          -174.739139490083     0.2846E-02     0.2400E-03
     5          -174.739199151743     0.5302E-03     0.5966E-04
     6          -174.739204467877     0.2223E-03     0.5316E-05
     7          -174.739205415801     0.6251E-04     0.9479E-06
     8          -174.739205555268     0.2019E-04     0.1395E-06
     9          -174.739205565335     0.7595E-05     0.1007E-07
    10          -174.739205566225     0.1937E-05     0.8891E-09
    11          -174.739205566263     0.2508E-06     0.3803E-10
  ---------------------------------------------------------------
  Convergence criterion met in 11 iterations!

  - Summary of RHF wavefunction energetics (a.u.):

     HOMO-LUMO gap:                  0.547237293456
     Nuclear repulsion energy:      35.812227805608
     Electronic energy:           -210.551433371871
     Total energy:                -174.739205566263

  - Timings for the RHF ground state calculation

     Total wall time (sec):              0.99700
     Total cpu time (sec):               1.25755


  :: CCSD wavefunction
  =======================

     Bath orbital(s):         False

   - Number of orbitals:

     Occupied orbitals:    9
     Virtual orbitals:     46
     Molecular orbitals:   55
     Atomic orbitals:      55

   - Number of ground state amplitudes:

     Single excitation amplitudes:  414
     Double excitation amplitudes:  85905


  Cholesky-decomposing electron repulsion integrals
  =================================================

  Cholesky decomposition of electronic repulsion integrals solver
  ---------------------------------------------------------------

  Performs a Cholesky decomposition of the two-electron electronic repulsion 
  integrals in the atomic orbital basis,

  (ab|cd) = sum_J L_ab^J L_cd^J.

  Once the Cholesky basis has been determined, the vectors L^J are constructed 
  and stored to disk. These may either be used directly, or be transformed 
  to the MO basis for use in post-HF calculations. For more information, 
  see S. D. Folkestad, E. F. Kjønstad and H. Koch, JCP, 150(19), (2019)

  - Cholesky decomposition settings:

     Target threshold is:   0.10E-05
     Span factor:           0.10E-01
     Max qual:                  1000

  - Cholesky decomposition ao details:

     Total number of AOs:                    55
     Total number of shell pairs:           276
     Total number of AO pairs:             1540

     Significant shell pairs:               275
     Significant AO pairs:                 1539

     Construct shell pairs:                 276
     Construct AO pairs:                   1540

  Iter.  #Sign. ao pairs / shell pairs   Max diagonal    #Qualified    #Cholesky    Cholesky array size
  -------------------------------------------------------------------------------------------------------
     1              1504 /     260       0.53537E+01         307             47             70688
     2              1310 /     216       0.50435E-01        1000            199            260690
     3               554 /      69       0.49477E-03         912            347            192238
     4                 0 /       0       0.47746E-05         229            420                 0
  -------------------------------------------------------------------------------------------------------

  - Summary of Cholesky decomposition of electronic repulsion integrals:

     Final number of Cholesky vectors: 420

 - Testing the Cholesky decomposition decomposition electronic repulsion integrals:

     Maximal difference between approximate and actual diagonal:              0.9972E-06
     Minimal element of difference between approximate and actual diagonal:  -0.1461E-14

  - Settings for integral handling:

     Cholesky vectors in memory: True
     ERI matrix in memory:       True

  - Finished decomposing the ERIs.

     Total wall time (sec):              0.55300
     Total cpu time (sec):               0.56274


  Determining CC cluster amplitudes
  =================================

   - DIIS coupled cluster ground state solver
  ----------------------------------------------

  A DIIS CC ground state amplitude equations solver. It uses an extrapolation 
  of previous quasi-Newton perturbation theory estimates of the next amplitudes. 
  See Helgaker et al., Molecular Electronic Structure Theory, Chapter 
  13.

  - CC ground state solver settings:

  - Convergence thresholds

     Residual threshold:            0.1000E-03
     Energy threshold:              0.1000E-03
     Max number of iterations:      100

  - DIIS tool settings:

     DIIS dimension:   8

     Storage (cc_gs_diis_errors): memory
     Storage (cc_gs_diis_parameters): memory

  Iteration    Energy (a.u.)        |omega|       Delta E (a.u.)
  ---------------------------------------------------------------
    1          -175.157043608017     0.1281E+00     0.1752E+03
    2          -175.153851423121     0.4000E-01     0.3192E-02
    3          -175.164374994149     0.1410E-01     0.1052E-01
    4          -175.167092801562     0.3255E-02     0.2718E-02
    5          -175.166843440485     0.1181E-02     0.2494E-03
    6          -175.166846201723     0.3719E-03     0.2761E-05
    7          -175.166864243795     0.1508E-03     0.1804E-04
    8          -175.166860268044     0.5249E-04     0.3976E-05
  ---------------------------------------------------------------
  Convergence criterion met in 8 iterations!

  - Ground state summary:

     Final ground state energy (a.u.):  -175.166860268044

     Correlation energy (a.u.):           -0.427654701781

     Largest single amplitudes:
     -----------------------------------
        a       i         t(a,i)
     -----------------------------------
        4      9       -0.017352992488
        4      6       -0.016013432213
        8      6        0.013140565403
        7      8        0.012370544136
        8      9       -0.011512475409
        9      7       -0.011067137191
       11      9       -0.010918384403
        7      5       -0.009977708746
       34      7       -0.009823992372
        3      5        0.009583624049
     ------------------------------------

     Largest double amplitudes:
     --------------------------------------------------
        a      i       b      j         t(ai,bj)
     --------------------------------------------------
       10      7      10      7       -0.042226060958
        9      7      10      7       -0.035583534833
        9      7       9      7       -0.031874054714
       21      9      21      9       -0.029622050059
        2      7      10      7       -0.018262481621
       26      6      26      6       -0.016906843827
        3      8       3      8       -0.016522673160
        2      7       9      7       -0.016323971630
       10      7      12      7        0.015376225071
       10      7      13      7        0.015051054164
     --------------------------------------------------

  - Finished solving the CCSD ground state equations

     Total wall time (sec):              0.85900
     Total cpu time (sec):               0.95716


  Determining CC excited state amplitudes
  =======================================

  Davidson eigenvalue equation solver
  -----------------------------------

  A Davidson solver that solves an eigenvalue equation: M x = omega x. 
  This equation is solved in a reduced space. A description of the algorithm 
  can be found in E. R. Davidson, J. Comput. Phys. 17, 87 (1975).

   - Davidson tool settings:

     Number of parameters:                86319
     Number of requested solutions:           3
     Max reduced space dimension:           100

     Storage (cc_es_davidson_trials): memory
     Storage (cc_es_davidson_transforms): memory

  - Davidson solver settings

     Number of singlet states:               3
     Max number of iterations:             100

  Iteration:                  1
  Reduced space dimension:    3

  Root  Eigenvalue (Re)   Eigenvalue (Im)    |residual|   Delta E (Re)
  -------------------------------------------------------------------------
     1   0.441625773860    0.000000000000     0.4663E+00   0.4416E+00
     2   0.492184345956    0.000000000000     0.4819E+00   0.4922E+00
     3   0.512973549913    0.000000000000     0.4561E+00   0.5130E+00
  -------------------------------------------------------------------------

  Iteration:                  2
  Reduced space dimension:    6

  Root  Eigenvalue (Re)   Eigenvalue (Im)    |residual|   Delta E (Re)
  -------------------------------------------------------------------------
     1   0.267994174379    0.000000000000     0.1520E+00   0.1736E+00
     2   0.309707468427    0.000000000000     0.1804E+00   0.1825E+00
     3   0.357335803535    0.000000000000     0.1457E+00   0.1556E+00
  -------------------------------------------------------------------------

  Iteration:                  3
  Reduced space dimension:    9

  Root  Eigenvalue (Re)   Eigenvalue (Im)    |residual|   Delta E (Re)
  -------------------------------------------------------------------------
     1   0.246203193956    0.000000000000     0.9119E-01   0.2179E-01
     2   0.277171506362    0.000000000000     0.1443E+00   0.3254E-01
     3   0.337794866352    0.000000000000     0.8487E-01   0.1954E-01
  -------------------------------------------------------------------------

  Iteration:                  4
  Reduced space dimension:   12

  Root  Eigenvalue (Re)   Eigenvalue (Im)    |residual|   Delta E (Re)
  -------------------------------------------------------------------------
     1   0.242116036852    0.000000000000     0.7000E-01   0.4087E-02
     2   0.259396212848    0.000000000000     0.9711E-01   0.1778E-01
     3   0.332424589470    0.000000000000     0.6869E-01   0.5370E-02
  -------------------------------------------------------------------------

  Iteration:                  5
  Reduced space dimension:   15

  Root  Eigenvalue (Re)   Eigenvalue (Im)    |residual|   Delta E (Re)
  -------------------------------------------------------------------------
     1   0.238580947596    0.000000000000     0.2623E-01   0.3535E-02
     2   0.254737416444    0.000000000000     0.4122E-01   0.4659E-02
     3   0.329628506321    0.000000000000     0.2701E-01   0.2796E-02
  -------------------------------------------------------------------------

  Iteration:                  6
  Reduced space dimension:   18

  Root  Eigenvalue (Re)   Eigenvalue (Im)    |residual|   Delta E (Re)
  -------------------------------------------------------------------------
     1   0.237421466689    0.000000000000     0.1512E-01   0.1159E-02
     2   0.251930894827    0.000000000000     0.2019E-01   0.2807E-02
     3   0.328129059481    0.000000000000     0.1564E-01   0.1499E-02
  -------------------------------------------------------------------------

  Iteration:                  7
  Reduced space dimension:   21

  Root  Eigenvalue (Re)   Eigenvalue (Im)    |residual|   Delta E (Re)
  -------------------------------------------------------------------------
     1   0.237157482836    0.000000000000     0.6335E-02   0.2640E-03
     2   0.251976994086    0.000000000000     0.6551E-02   0.4610E-04
     3   0.328015451986    0.000000000000     0.6653E-02   0.1136E-03
  -------------------------------------------------------------------------

  Iteration:                  8
  Reduced space dimension:   24

  Root  Eigenvalue (Re)   Eigenvalue (Im)    |residual|   Delta E (Re)
  -------------------------------------------------------------------------
     1   0.237287805590    0.000000000000     0.2795E-02   0.1303E-03
     2   0.252091234851    0.000000000000     0.3144E-02   0.1142E-03
     3   0.328075239216    0.000000000000     0.4418E-02   0.5979E-04
  -------------------------------------------------------------------------

  Iteration:                  9
  Reduced space dimension:   27

  Root  Eigenvalue (Re)   Eigenvalue (Im)    |residual|   Delta E (Re)
  -------------------------------------------------------------------------
     1   0.237293319033    0.000000000000     0.9862E-03   0.5513E-05
     2   0.252053719860    0.000000000000     0.1614E-02   0.3751E-04
     3   0.328123522752    0.000000000000     0.2439E-02   0.4828E-04
  -------------------------------------------------------------------------

  Iteration:                 10
  Reduced space dimension:   30

  Root  Eigenvalue (Re)   Eigenvalue (Im)    |residual|   Delta E (Re)
  -------------------------------------------------------------------------
     1   0.237296775861    0.000000000000     0.5170E-03   0.3457E-05
     2   0.252050211763    0.000000000000     0.8414E-03   0.3508E-05
     3   0.328041614858    0.000000000000     0.2067E-02   0.8191E-04
  -------------------------------------------------------------------------

  Iteration:                 11
  Reduced space dimension:   33

  Root  Eigenvalue (Re)   Eigenvalue (Im)    |residual|   Delta E (Re)
  -------------------------------------------------------------------------
     1   0.237298726105    0.000000000000     0.2640E-03   0.1950E-05
     2   0.252050567346    0.000000000000     0.3719E-03   0.3556E-06
     3   0.328048107811    0.000000000000     0.1873E-02   0.6493E-05
  -------------------------------------------------------------------------

  Iteration:                 12
  Reduced space dimension:   36

  Root  Eigenvalue (Re)   Eigenvalue (Im)    |residual|   Delta E (Re)
  -------------------------------------------------------------------------
     1   0.237298201830    0.000000000000     0.9925E-04   0.5243E-06
     2   0.252047378846    0.000000000000     0.1876E-03   0.3189E-05
     3   0.328087109435    0.000000000000     0.1878E-02   0.3900E-04
  -------------------------------------------------------------------------

  Iteration:                 13
  Reduced space dimension:   38

  Root  Eigenvalue (Re)   Eigenvalue (Im)    |residual|   Delta E (Re)
  -------------------------------------------------------------------------
     1   0.237298235785    0.000000000000     0.9836E-04   0.3395E-07
     2   0.252046507674    0.000000000000     0.9032E-04   0.8712E-06
     3   0.328052010853    0.000000000000     0.2768E-02   0.3510E-04
  -------------------------------------------------------------------------

  Iteration:                 14
  Reduced space dimension:   39

  Root  Eigenvalue (Re)   Eigenvalue (Im)    |residual|   Delta E (Re)
  -------------------------------------------------------------------------
     1   0.237298235785    0.000000000000     0.9836E-04   0.7494E-15
     2   0.252046507674    0.000000000000     0.9032E-04   0.8327E-15
     3   0.328080864875    0.000000000000     0.4634E-02   0.2885E-04
  -------------------------------------------------------------------------

  Iteration:                 15
  Reduced space dimension:   40

  Root  Eigenvalue (Re)   Eigenvalue (Im)    |residual|   Delta E (Re)
  -------------------------------------------------------------------------
     1   0.237298235785    0.000000000000     0.9836E-04   0.4441E-15
     2   0.252046507674    0.000000000000     0.9032E-04   0.3886E-15
     3   0.327980358758    0.000000000000     0.7636E-02   0.1005E-03
  -------------------------------------------------------------------------

  Warning: Root 3 may be part of a complex pair of roots (3,4), where 
  the second root of the pair has not been requested. We will try to converge 
  only the real part of the residual. If the imaginary energy does not 
  disappear, we recommend that you request one additional root to properly 
  converge both the real and imaginary parts of the two roots.

  Iteration:                 16
  Reduced space dimension:   41

  Root  Eigenvalue (Re)   Eigenvalue (Im)    |residual|   Delta E (Re)
  -------------------------------------------------------------------------
     1   0.237298235785    0.000000000000     0.9836E-04   0.1416E-14
     2   0.252046507674    0.000000000000     0.9032E-04   0.1665E-15
     3   0.328546411275    0.000304287668     0.1935E-01   0.5661E-03
  -------------------------------------------------------------------------

  Iteration:                 17
  Reduced space dimension:   42

  Root  Eigenvalue (Re)   Eigenvalue (Im)    |residual|   Delta E (Re)
  -------------------------------------------------------------------------
     1   0.237298235785    0.000000000000     0.9836E-04   0.1665E-14
     2   0.252046507674    0.000000000000     0.9032E-04   0.8882E-15
     3   0.328018318223    0.000000000000     0.1698E-01   0.5281E-03
  -------------------------------------------------------------------------

  Iteration:                 18
  Reduced space dimension:   43

  Root  Eigenvalue (Re)   Eigenvalue (Im)    |residual|   Delta E (Re)
  -------------------------------------------------------------------------
     1   0.237298235785    0.000000000000     0.9836E-04   0.3608E-15
     2   0.252046507674    0.000000000000     0.9032E-04   0.1998E-14
     3   0.327571873000    0.000000000000     0.1043E-01   0.4464E-03
  -------------------------------------------------------------------------

  Iteration:                 19
  Reduced space dimension:   44

  Root  Eigenvalue (Re)   Eigenvalue (Im)    |residual|   Delta E (Re)
  -------------------------------------------------------------------------
     1   0.237298235785    0.000000000000     0.9836E-04   0.5551E-16
     2   0.252046507674    0.000000000000     0.9032E-04   0.1610E-14
     3   0.327584820338    0.000000000000     0.5048E-02   0.1295E-04
  -------------------------------------------------------------------------

  Iteration:                 20
  Reduced space dimension:   45

  Root  Eigenvalue (Re)   Eigenvalue (Im)    |residual|   Delta E (Re)
  -------------------------------------------------------------------------
     1   0.237298235785    0.000000000000     0.9836E-04   0.4718E-15
     2   0.252046507674    0.000000000000     0.9032E-04   0.1055E-14
     3   0.327597707269    0.000000000000     0.2009E-02   0.1289E-04
  -------------------------------------------------------------------------

  Iteration:                 21
  Reduced space dimension:   46

  Root  Eigenvalue (Re)   Eigenvalue (Im)    |residual|   Delta E (Re)
  -------------------------------------------------------------------------
     1   0.237298235785    0.000000000000     0.9836E-04   0.3331E-15
     2   0.252046507674    0.000000000000     0.9032E-04   0.5551E-16
     3   0.327594810465    0.000000000000     0.9586E-03   0.2897E-05
  -------------------------------------------------------------------------

  Iteration:                 22
  Reduced space dimension:   47

  Root  Eigenvalue (Re)   Eigenvalue (Im)    |residual|   Delta E (Re)
  -------------------------------------------------------------------------
     1   0.237298235785    0.000000000000     0.9836E-04   0.4441E-15
     2   0.252046507674    0.000000000000     0.9032E-04   0.0000E+00
     3   0.327578464391    0.000000000000     0.4836E-03   0.1635E-04
  -------------------------------------------------------------------------

  Iteration:                 23
  Reduced space dimension:   48

  Root  Eigenvalue (Re)   Eigenvalue (Im)    |residual|   Delta E (Re)
  -------------------------------------------------------------------------
     1   0.237298235785    0.000000000000     0.9836E-04   0.6939E-15
     2   0.252046507674    0.000000000000     0.9032E-04   0.1166E-14
     3   0.327584702641    0.000000000000     0.2227E-03   0.6238E-05
  -------------------------------------------------------------------------

  Iteration:                 24
  Reduced space dimension:   49

  Root  Eigenvalue (Re)   Eigenvalue (Im)    |residual|   Delta E (Re)
  -------------------------------------------------------------------------
     1   0.237298235785    0.000000000000     0.9836E-04   0.1776E-14
     2   0.252046507674    0.000000000000     0.9032E-04   0.1554E-14
     3   0.327584757952    0.000000000000     0.1091E-03   0.5531E-07
  -------------------------------------------------------------------------

  Iteration:                 25
  Reduced space dimension:   50

  Root  Eigenvalue (Re)   Eigenvalue (Im)    |residual|   Delta E (Re)
  -------------------------------------------------------------------------
     1   0.237298235785    0.000000000000     0.9836E-04   0.1082E-14
     2   0.252046507674    0.000000000000     0.9032E-04   0.3331E-15
     3   0.327583946984    0.000000000000     0.5354E-04   0.8110E-06
  -------------------------------------------------------------------------
  Convergence criterion met in 25 iterations!

  - Excitation vector amplitudes:

     Electronic state nr. 1

     Energy (Hartree):                  0.237298235785
     Fraction singles (|R1|/|R|):       0.972336141579

     Largest single amplitudes:
     -----------------------------------
        a       i         R(a,i)
     -----------------------------------
        1      9       -0.761954215385
        3      9       -0.422874960152
        5      9       -0.344012704085
        2      9        0.160905219613
       14      9        0.133003362351
        9      9        0.119936764902
       10      9        0.061395466573
        3      6       -0.030369409971
       13      9        0.024608547683
        5      6       -0.024060994634
     ------------------------------------

     Largest double amplitudes:
     --------------------------------------------------
        a      i       b      j         R(ai,bj)
     --------------------------------------------------
        3      8       1      9        0.041043655670
        1      6      10      7        0.040646090695
        1      6       9      7        0.036521445560
        3      5       1      9        0.036342201579
        1      9       4      9       -0.035215436569
        1      9      21      9       -0.035114093944
        3      8       3      9        0.030534501266
        3      5       3      9        0.025637501459
        5      8       3      9        0.025255011704
        4      6       1      9       -0.024785938458
     --------------------------------------------------

     Electronic state nr. 2

     Energy (Hartree):                  0.252046507674
     Fraction singles (|R1|/|R|):       0.977887733648

     Largest single amplitudes:
     -----------------------------------
        a       i         R(a,i)
     -----------------------------------
        2      9       -0.623611501999
        9      9       -0.508425107903
       10      9       -0.466356653477
        1      9       -0.190287051324
       12      9        0.112025344830
        6      9       -0.106347530434
        5      9       -0.089011385382
       13      9        0.072644709730
        7      9       -0.071750726172
        3      9       -0.067614707286
     ------------------------------------

     Largest double amplitudes:
     --------------------------------------------------
        a      i       b      j         R(ai,bj)
     --------------------------------------------------
        2      6      10      7        0.039187938915
        9      6      10      7        0.036040427682
        2      6       9      7        0.035008289933
       10      6      10      7        0.034332351936
        9      6       9      7        0.032257021844
       10      6       9      7        0.031373918842
        2      9      21      9       -0.020974378427
        9      6       2      7        0.020882244619
       10      6       2      7        0.020598282739
        2      9       4      9       -0.020355654546
     --------------------------------------------------

     Electronic state nr. 3

     Energy (Hartree):                  0.327583946984
     Fraction singles (|R1|/|R|):       0.975762382596

     Largest single amplitudes:
     -----------------------------------
        a       i         R(a,i)
     -----------------------------------
        2      8        0.616682822629
        9      8        0.501942145245
       10      8        0.460788405163
        1      8        0.145803209274
       12      8       -0.107787937175
        2      5       -0.095524883854
        5      8        0.093530213512
        9      5       -0.093125538151
        6      8        0.089006058204
        7      8        0.080684621499
     ------------------------------------

     Largest double amplitudes:
     --------------------------------------------------
        a      i       b      j         R(ai,bj)
     --------------------------------------------------
        2      5      10      7       -0.038614479926
       10      5      10      7       -0.033919154998
        2      5       9      7       -0.031977056400
        9      5      10      7       -0.031589099288
       10      5       9      7       -0.028650418355
        9      7      10      7       -0.026744355644
        2      7      10      7       -0.025071877265
        9      5       9      7       -0.024931337856
        2      7       9      7       -0.021155420912
        9      5      10      5        0.021076741438
     --------------------------------------------------

  - CCSD excitation energies:

                                      Excitation energy
                          ------------------------------------------
      State                (Hartree)             (eV)
     ---------------------------------------------------------------
        1                  0.237298235785        6.457213895799
        2                  0.252046507674        6.858534815304
        3                  0.327583946984        8.914013235329
     ---------------------------------------------------------------
     eV/Hartree (CODATA 2014): 27.21138602

  ------------------------------------------------------------

  Peak memory usage during the execution of eT: 294.804608 MB

  :: There was 1 warning during the execution of eT. ::

  Total wall time in eT (sec):              8.80400
  Total cpu time in eT (sec):               9.63085

  Calculation ended: 2022-04-07 12:35:04 UTC -07:00

  - Implementation references:

     eT: https://doi.org/10.1063/5.0004713
     Cholesky decomposition of ERIs: https://doi.org/10.1063/1.5083802

  eT terminated successfully!
