


                     eT 1.7 - an electronic structure program

  ------------------------------------------------------------------------
   Author list in alphabetical order:
  ------------------------------------------------------------------------
   J. H. Andersen, A. Balbi, S. Coriani, S. D. Folkestad, T. Giovannini, 
   L. Goletto, T. S. Haugland, A. Hutcheson, I-M. Høyvik, E. F. Kjønstad, 
   H. Koch, R. Matveeva, T. Moitra, R. H. Myhre, A. C. Paul, S. Roet, 
   E. RoncaM. Scavino, A. K. Schnack-Petersen, A. S. Skeidsvoll, Å. 
   H. Tveten
  ------------------------------------------------------------------------
   J. Chem. Phys. 152, 184103 (2020); https://doi.org/10.1063/5.0004713


   This is eT 1.7.0 Hydra
  ------------------------------------------------------------
  Configuration date: 2022-04-07 12:33:31 UTC -07:00
  Git branch:         release-v1.7.0
  Git hash:           c5c382d7d23365463896a87c37298e4a37e4c962
  Fortran compiler:   GNU 11.2.0
  C compiler:         GNU 11.2.0
  C++ compiler:       GNU 11.2.0
  LAPACK type:        SYSTEM_NATIVE
  BLAS type:          SYSTEM_NATIVE
  64-bit integers:    OFF
  OpenMP:             ON
  PCM:                OFF
  Forced batching:    OFF
  Runtime checks:     OFF
  ------------------------------------------------------------

  Calculation started: 2022-04-07 12:34:41 UTC -07:00


  :: Input file
  ================

     Note: geometry section is excluded from this print

     system
        name: F
        charge: 0
        multiplicity: 2
     end system

     method
         cuhf
     end method

     memory
        available: 8
     end memory

     solver scf
        algorithm:          scf-diis
        energy threshold:   1.0d-12
        gradient threshold: 1.0d-12
     end solver scf

     do
        ground state
     end do


  Running on 2 OMP threads
  Memory available for calculation: 8.000000 GB


  :: CUHF wavefunction
  =======================

     ==============================================================================
                                     Geometry (angstrom)
     ==============================================================================
        Atom           X                  Y                  Z         # in input
     ==============================================================================
        Basis: cc-pvdz
        1  F     0.000000000000     0.000000000000     0.000000000000        1
     ==============================================================================

     ==============================================================================
                                     Geometry (a.u.)
     ==============================================================================
        Atom           X                  Y                  Z         # in input
     ==============================================================================
        Basis: cc-pvdz
        1  F     0.000000000000     0.000000000000     0.000000000000        1
     ==============================================================================

  - Cholesky decomposition of AO overlap to get linearly independent AOs:

     Linear dependence threshold:             0.10E-05
     Number of atomic orbitals:               14
     Number of orthonormal atomic orbitals:   14

  - Molecular orbital details:

     Number of alpha electrons:               5
     Number of beta electrons:                4
     Number of virtual alpha orbitals:        9
     Number of virtual beta orbitals:        10
     Number of molecular orbitals:           14


  :: Hartree-Fock engine
  =========================

  Drives the calculation of the Hartree-Fock state.

  This is a CUHF ground state calculation.
  The following tasks will be performed:

     1) Generate initial SAD density
     2) Calculation of reference state (SCF-DIIS algorithm)


  1) Generate initial SAD density


  2) Calculation of reference state (SCF-DIIS algorithm)

  - Setting initial AO density to sad

     Energy of initial guess:               -99.127338116611
     Number of electrons in guess:            9.000000000000

  - Screening and integral thresholds:

     Coulomb screening threshold:    0.1000E-17
     Exchange screening threshold:   0.1000E-15
     ERI cutoff:                     0.1000E-17
     One-electron integral  cutoff:  0.1000E-22
     Cumulative Fock threshold:      0.1000E+01

  - SCF solver settings:

     Maximum iterations:                   100
     Acceleration type:                   diis

  - Convergence thresholds

     Residual threshold:            0.1000E-11
     Energy threshold:              0.1000E-11

  - DIIS tool settings:

     DIIS dimension:   8

     Storage (solver scf_errors): memory
     Storage (solver scf_parameters): memory

  Iteration       Energy (a.u.)      Max(grad.)    Delta E (a.u.)
  ---------------------------------------------------------------
     1           -99.366571404793     0.3278E-01     0.9937E+02
     2           -99.371595746628     0.6587E-02     0.5024E-02
     3           -99.371850235596     0.1513E-02     0.2545E-03
     4           -99.371861784133     0.2148E-03     0.1155E-04
     5           -99.371861936244     0.2225E-04     0.1521E-06
     6           -99.371861941150     0.6648E-06     0.4906E-08
     7           -99.371861940004     0.1528E-07     0.1146E-08
     8           -99.371861940125     0.2963E-09     0.1208E-09
     9           -99.371861940121     0.2862E-11     0.4263E-11
    10           -99.371861940121     0.3433E-13     0.0000E+00
  ---------------------------------------------------------------
  Convergence criterion met in 10 iterations!

  - Summary of CUHF wavefunction energetics (a.u.):

     HOMO-LUMO gap (alpha):          2.033661156135
     HOMO-LUMO gap (beta):           0.750681472855
     Nuclear repulsion energy:       0.000000000000
     Electronic energy:            -99.371861940121
     Total energy:                 -99.371861940121

  - CUHF wavefunction spin expectation values:

     Sz:                   0.50000000
     Sz(Sz + 1):           0.75000000
     S^2:                  0.75000000
     Spin contamination:  -0.00000000

  - Timings for the CUHF ground state calculation

     Total wall time (sec):              0.30600
     Total cpu time (sec):               0.35924

  ------------------------------------------------------------

  Peak memory usage during the execution of eT: 72.836 KB

  Total wall time in eT (sec):              0.32800
  Total cpu time in eT (sec):               0.37138

  Calculation ended: 2022-04-07 12:34:41 UTC -07:00

  - Implementation references:

     eT: https://doi.org/10.1063/5.0004713

  eT terminated successfully!
