


                     eT 1.7 - an electronic structure program

  ------------------------------------------------------------------------
   Author list in alphabetical order:
  ------------------------------------------------------------------------
   J. H. Andersen, A. Balbi, S. Coriani, S. D. Folkestad, T. Giovannini, 
   L. Goletto, T. S. Haugland, A. Hutcheson, I-M. Høyvik, E. F. Kjønstad, 
   H. Koch, R. Matveeva, T. Moitra, R. H. Myhre, A. C. Paul, S. Roet, 
   E. RoncaM. Scavino, A. K. Schnack-Petersen, A. S. Skeidsvoll, Å. 
   H. Tveten
  ------------------------------------------------------------------------
   J. Chem. Phys. 152, 184103 (2020); https://doi.org/10.1063/5.0004713


   This is eT 1.7.0 Hydra
  ------------------------------------------------------------
  Configuration date: 2022-04-07 12:33:31 UTC -07:00
  Git branch:         release-v1.7.0
  Git hash:           c5c382d7d23365463896a87c37298e4a37e4c962
  Fortran compiler:   GNU 11.2.0
  C compiler:         GNU 11.2.0
  C++ compiler:       GNU 11.2.0
  LAPACK type:        SYSTEM_NATIVE
  BLAS type:          SYSTEM_NATIVE
  64-bit integers:    OFF
  OpenMP:             ON
  PCM:                OFF
  Forced batching:    OFF
  Runtime checks:     OFF
  ------------------------------------------------------------

  Calculation started: 2022-04-07 12:34:55 UTC -07:00


  :: Input file
  ================

     Note: geometry section is excluded from this print

     system
        name: HOF He
     end system

     do
       ground state
       mean value
     end do

     cc mean value
        quadrupole
     end cc mean value

     memory
        available: 8
     end memory

     method
        hf
        ccsd
     end method

     ! Solver settings:

     solver scf
        algorithm: scf-diis
        gradient threshold: 1.0d-11
        energy threshold: 1.0d-11
     end solver scf

     solver cc gs
        omega threshold: 1.0d-11
        energy threshold: 1.0d-11
     end solver cc gs

     solver cc multipliers
        threshold: 1.0d-11
     end solver cc multipliers

     solver cholesky
        threshold: 1.0d-11
     end solver cholesky

     ! Geometry:


  Running on 2 OMP threads
  Memory available for calculation: 8.000000 GB


  :: RHF wavefunction
  ======================

     ==============================================================================
                                     Geometry (angstrom)
     ==============================================================================
        Atom           X                  Y                  Z         # in input
     ==============================================================================
        Basis: sto-3g
        1  O    -1.777465459200     0.078482329600     0.005660594600        1
        2  H    -0.788139097200     0.036727062100    -0.003996456100        2
        3  H    -2.066830875400    -0.844195220100    -0.207733891500        3
        4 He     5.000000000000     0.000000000000     0.000000000000        4
     ==============================================================================

     ==============================================================================
                                     Geometry (a.u.)
     ==============================================================================
        Atom           X                  Y                  Z         # in input
     ==============================================================================
        Basis: sto-3g
        1  O    -3.358922913762     0.148310108562     0.010696973496        1
        2  H    -1.489367041770     0.069404088729    -0.007552207498        2
        3  H    -3.905744300301    -1.595297761656    -0.392560161725        3
        4 He     9.448630622825     0.000000000000     0.000000000000        4
     ==============================================================================

  - Cholesky decomposition of AO overlap to get linearly independent AOs:

     Linear dependence threshold:             0.10E-05
     Number of atomic orbitals:               8
     Number of orthonormal atomic orbitals:   8

  - Molecular orbital details:

     Number of occupied orbitals:         6
     Number of virtual orbitals:          2
     Number of molecular orbitals:        8


  :: Hartree-Fock engine
  =========================

  Drives the calculation of the Hartree-Fock state.

  This is a RHF ground state calculation.
  The following tasks will be performed:

     1) Generate initial SAD density
     2) Calculation of reference state (SCF-DIIS algorithm)


  1) Generate initial SAD density


  2) Calculation of reference state (SCF-DIIS algorithm)

  - Setting initial AO density to sad

     Energy of initial guess:               -77.408466724637
     Number of electrons in guess:           12.000000000000

  - Screening and integral thresholds:

     Coulomb screening threshold:    0.1000E-16
     Exchange screening threshold:   0.1000E-14
     ERI cutoff:                     0.1000E-16
     One-electron integral  cutoff:  0.1000E-21
     Cumulative Fock threshold:      0.1000E+01

  - SCF solver settings:

     Maximum iterations:                   100
     Acceleration type:                   diis

  - Convergence thresholds

     Residual threshold:            0.1000E-10
     Energy threshold:              0.1000E-10

  - DIIS tool settings:

     DIIS dimension:   8

     Storage (solver scf_errors): memory
     Storage (solver scf_parameters): memory

  Iteration       Energy (a.u.)      Max(grad.)    Delta E (a.u.)
  ---------------------------------------------------------------
     1           -77.731249073363     0.1113E+00     0.7773E+02
     2           -77.772230302371     0.1271E-01     0.4098E-01
     3           -77.772762594860     0.2431E-02     0.5323E-03
     4           -77.772786825286     0.2758E-04     0.2423E-04
     5           -77.772786829161     0.8793E-05     0.3875E-08
     6           -77.772786829753     0.2077E-06     0.5914E-09
     7           -77.772786829753     0.3365E-09     0.3553E-12
     8           -77.772786829753     0.1296E-12     0.1421E-13
  ---------------------------------------------------------------
  Convergence criterion met in 8 iterations!

  - Summary of RHF wavefunction energetics (a.u.):

     HOMO-LUMO gap:                  0.962760443475
     Nuclear repulsion energy:      10.468730839836
     Electronic energy:            -88.241517669589
     Total energy:                 -77.772786829753

  - Timings for the RHF ground state calculation

     Total wall time (sec):              0.03200
     Total cpu time (sec):               0.02872


  :: CCSD wavefunction
  =======================

     Bath orbital(s):         False

   - Number of orbitals:

     Occupied orbitals:    6
     Virtual orbitals:     2
     Molecular orbitals:   8
     Atomic orbitals:      8

   - Number of ground state amplitudes:

     Single excitation amplitudes:  12
     Double excitation amplitudes:  78


  Cholesky-decomposing electron repulsion integrals
  =================================================

  Cholesky decomposition of electronic repulsion integrals solver
  ---------------------------------------------------------------

  Performs a Cholesky decomposition of the two-electron electronic repulsion 
  integrals in the atomic orbital basis,

  (ab|cd) = sum_J L_ab^J L_cd^J.

  Once the Cholesky basis has been determined, the vectors L^J are constructed 
  and stored to disk. These may either be used directly, or be transformed 
  to the MO basis for use in post-HF calculations. For more information, 
  see S. D. Folkestad, E. F. Kjønstad and H. Koch, JCP, 150(19), (2019)

  - Cholesky decomposition settings:

     Target threshold is:   0.10E-10
     Span factor:           0.10E-01
     Max qual:                  1000

  - Cholesky decomposition ao details:

     Total number of AOs:                     8
     Total number of shell pairs:            21
     Total number of AO pairs:               36

     Significant shell pairs:                16
     Significant AO pairs:                   29

     Construct shell pairs:                  18
     Construct AO pairs:                     31

  Iter.  #Sign. ao pairs / shell pairs   Max diagonal    #Qualified    #Cholesky    Cholesky array size
  -------------------------------------------------------------------------------------------------------
     1                22 /      11       0.47851E+01          16             10               220
     2                 5 /       5       0.47403E-01          16             24               120
     3                 0 /       0       0.10744E-03           5             29                 0
  -------------------------------------------------------------------------------------------------------

  - Summary of Cholesky decomposition of electronic repulsion integrals:

     Final number of Cholesky vectors: 29

 - Testing the Cholesky decomposition decomposition electronic repulsion integrals:

     Maximal difference between approximate and actual diagonal:              0.6185E-13
     Minimal element of difference between approximate and actual diagonal:  -0.9653E-16

  - Settings for integral handling:

     Cholesky vectors in memory: True
     ERI matrix in memory:       True

  - Finished decomposing the ERIs.

     Total wall time (sec):              0.01300
     Total cpu time (sec):               0.01127


  Determining CC cluster amplitudes
  =================================

   - DIIS coupled cluster ground state solver
  ----------------------------------------------

  A DIIS CC ground state amplitude equations solver. It uses an extrapolation 
  of previous quasi-Newton perturbation theory estimates of the next amplitudes. 
  See Helgaker et al., Molecular Electronic Structure Theory, Chapter 
  13.

  - CC ground state solver settings:

  - Convergence thresholds

     Residual threshold:            0.1000E-10
     Energy threshold:              0.1000E-10
     Max number of iterations:      100

  - DIIS tool settings:

     DIIS dimension:   8

     Storage (cc_gs_diis_errors): file
     Storage (cc_gs_diis_parameters): file

  Iteration    Energy (a.u.)        |omega|       Delta E (a.u.)
  ---------------------------------------------------------------
    1           -77.811082905332     0.5809E-01     0.7781E+02
    2           -77.821312411457     0.2140E-01     0.1023E-01
    3           -77.826294068160     0.2885E-02     0.4982E-02
    4           -77.826488240846     0.6015E-03     0.1942E-03
    5           -77.826499546254     0.7938E-04     0.1131E-04
    6           -77.826493023104     0.1279E-04     0.6523E-05
    7           -77.826493725131     0.3150E-05     0.7020E-06
    8           -77.826493488194     0.7383E-06     0.2369E-06
    9           -77.826493538448     0.1611E-06     0.5025E-07
   10           -77.826493531261     0.3566E-07     0.7187E-08
   11           -77.826493530182     0.5779E-08     0.1079E-08
   12           -77.826493530149     0.9949E-09     0.3318E-10
   13           -77.826493530180     0.1730E-09     0.3136E-10
   14           -77.826493530171     0.3832E-10     0.9564E-11
   15           -77.826493530172     0.3842E-11     0.1648E-11
  ---------------------------------------------------------------
  Convergence criterion met in 15 iterations!

  - Ground state summary:

     Final ground state energy (a.u.):   -77.826493530172

     Correlation energy (a.u.):           -0.053706700419

     Largest single amplitudes:
     -----------------------------------
        a       i         t(a,i)
     -----------------------------------
        1      5        0.015123888413
        2      4       -0.003188035297
        1      2        0.000434037902
        1      1        0.000035476642
        1      3        0.000000001768
        2      3       -0.000000000816
        2      5        0.000000000001
        1      4        0.000000000000
        2      2       -0.000000000000
        2      1        0.000000000000
     ------------------------------------

     Largest double amplitudes:
     --------------------------------------------------
        a      i       b      j         t(ai,bj)
     --------------------------------------------------
        2      4       2      4       -0.082575072171
        1      5       1      5       -0.053106195485
        2      4       1      5        0.052536714392
        1      4       1      4       -0.046797848986
        2      5       2      5       -0.044701446608
        1      4       2      5        0.038890675196
        1      2       1      5        0.034766229552
        1      2       1      2       -0.032406870418
        1      2       2      4       -0.031693451888
        1      6       1      6       -0.026317094441
     --------------------------------------------------

  - Finished solving the CCSD ground state equations

     Total wall time (sec):              0.10900
     Total cpu time (sec):               0.05486


  Determining CC multipliers
  ==========================

   - Davidson tool settings:

     Number of parameters:                   90
     Number of requested solutions:           1
     Max reduced space dimension:            50

     Storage (multipliers_davidson_trials): file
     Storage (multipliers_davidson_transforms): file

  - Davidson solver settings

     Residual threshold:              0.10E-10
     Max number of iterations:             100

   Iteration       Residual norm
  -------------------------------
     1               0.6577E-02
     2               0.9595E-03
     3               0.2464E-03
     4               0.6467E-04
     5               0.1496E-04
     6               0.3763E-05
     7               0.6410E-06
     8               0.9052E-07
     9               0.1973E-07
    10               0.2893E-08
    11               0.7835E-09
    12               0.1544E-09
    13               0.2087E-10
    14               0.4982E-11
  -------------------------------
  Convergence criterion met in 14 iterations!

  - CC multipliers solver summary:

     Largest single amplitudes:
     -----------------------------------
        a       i         tbar(a,i)
     -----------------------------------
        1      5        0.026451012889
        2      4       -0.002758977832
        1      2        0.002736033980
        1      1        0.000067913549
        1      3        0.000000003408
        2      3        0.000000001020
        2      5        0.000000000001
        2      2        0.000000000000
        1      4       -0.000000000000
        2      1        0.000000000000
     ------------------------------------

     Largest double amplitudes:
     --------------------------------------------------
        a      i       b      j         tbar(ai,bj)
     --------------------------------------------------
        2      4       2      4       -0.162514163267
        2      4       1      5        0.129601162067
        1      5       1      5       -0.104555298181
        1      4       1      4       -0.091833087105
        2      5       2      5       -0.087798960440
        1      2       2      4       -0.082626260679
        1      2       1      5        0.068416305895
        1      2       1      2       -0.063925094235
        1      6       1      6       -0.051540514998
        1      4       2      5        0.050505832813
     --------------------------------------------------


  Determining CC mean values
  ==========================

  - Operator: quadrupole [Debye*Ang]

     xx:         -8.8293335
     xy:          2.5371832
     xz:          0.5755704
     yy:         -6.0862010
     yz:          0.2449127
     zz:         -7.0180783

     The traceless quadrupole is calculated as:
        Q_ij = 1/2 [3*q_ij - tr(q)*delta_ij]
     where q_ij is the non-traceless matrix.

  - Operator: traceless quadrupole [Debye*Ang]

     xx:         -2.2771938
     xy:          3.8057748
     xz:          0.8633556
     yy:          1.8375049
     yz:          0.3673690
     zz:          0.4396889

  ------------------------------------------------------------

  Peak memory usage during the execution of eT: 111.176 KB

  Total wall time in eT (sec):              0.31100
  Total cpu time in eT (sec):               0.17551

  Calculation ended: 2022-04-07 12:34:56 UTC -07:00

  - Implementation references:

     eT: https://doi.org/10.1063/5.0004713
     Cholesky decomposition of ERIs: https://doi.org/10.1063/1.5083802

  eT terminated successfully!
