


                     eT 1.7 - an electronic structure program

  ------------------------------------------------------------------------
   Author list in alphabetical order:
  ------------------------------------------------------------------------
   J. H. Andersen, A. Balbi, S. Coriani, S. D. Folkestad, T. Giovannini, 
   L. Goletto, T. S. Haugland, A. Hutcheson, I-M. Høyvik, E. F. Kjønstad, 
   H. Koch, R. Matveeva, T. Moitra, R. H. Myhre, A. C. Paul, S. Roet, 
   E. RoncaM. Scavino, A. K. Schnack-Petersen, A. S. Skeidsvoll, Å. 
   H. Tveten
  ------------------------------------------------------------------------
   J. Chem. Phys. 152, 184103 (2020); https://doi.org/10.1063/5.0004713


   This is eT 1.7.0 Hydra
  ------------------------------------------------------------
  Configuration date: 2022-04-07 12:33:31 UTC -07:00
  Git branch:         release-v1.7.0
  Git hash:           c5c382d7d23365463896a87c37298e4a37e4c962
  Fortran compiler:   GNU 11.2.0
  C compiler:         GNU 11.2.0
  C++ compiler:       GNU 11.2.0
  LAPACK type:        SYSTEM_NATIVE
  BLAS type:          SYSTEM_NATIVE
  64-bit integers:    OFF
  OpenMP:             ON
  PCM:                OFF
  Forced batching:    OFF
  Runtime checks:     OFF
  ------------------------------------------------------------

  Calculation started: 2022-04-07 12:35:50 UTC -07:00


  :: Input file
  ================

     Note: geometry section is excluded from this print

     system
        name: H2O He
        charge: 0
     end system

     do
        ground state
        excited state
     end do

     memory
        available: 8
     end memory

     solver cholesky
        threshold: 1.0d-12
     end solver cholesky

     solver scf
        algorithm:          scf-diis
        energy threshold:   1.0d-11
        gradient threshold: 1.0d-11
     end solver scf

     method
        hf
        mlcc2
     end method

     solver cc gs
        omega threshold:  1.0d-11
        energy threshold: 1.0d-11
     end solver cc gs

     solver cc es
        algorithm:          davidson
        singlet states:     4
        residual threshold: 1.0d-11
        energy threshold:   1.0d-11
        right eigenvectors
     end solver cc es

     mlcc
        cc2 orbitals: nto-canonical
        nto occupied cc2: 2
        nto states: {1,2,3,4}
     end mlcc


  Running on 2 OMP threads
  Memory available for calculation: 8.000000 GB


  :: RHF wavefunction
  ======================

     ==============================================================================
                                     Geometry (angstrom)
     ==============================================================================
        Atom           X                  Y                  Z         # in input
     ==============================================================================
        Basis: cc-pvdz
        1  H     0.866810000000     0.601440000000     5.000000000000        1
        2  H    -0.866810000000     0.601440000000     5.000000000000        2
        3  O     0.000000000000    -0.075790000000     5.000000000000        3
        4 He     0.100000000000    -0.020000000000     7.530000000000        4
     ==============================================================================

     ==============================================================================
                                     Geometry (a.u.)
     ==============================================================================
        Atom           X                  Y                  Z         # in input
     ==============================================================================
        Basis: cc-pvdz
        1  H     1.638033502034     1.136556880358     9.448630622825        1
        2  H    -1.638033502034     1.136556880358     9.448630622825        2
        3  O     0.000000000000    -0.143222342981     9.448630622825        3
        4 He     0.188972612457    -0.037794522491    14.229637717975        4
     ==============================================================================

  - Cholesky decomposition of AO overlap to get linearly independent AOs:

     Linear dependence threshold:             0.10E-05
     Number of atomic orbitals:               29
     Number of orthonormal atomic orbitals:   29

  - Molecular orbital details:

     Number of occupied orbitals:         6
     Number of virtual orbitals:         23
     Number of molecular orbitals:       29


  :: Hartree-Fock engine
  =========================

  Drives the calculation of the Hartree-Fock state.

  This is a RHF ground state calculation.
  The following tasks will be performed:

     1) Generate initial SAD density
     2) Calculation of reference state (SCF-DIIS algorithm)


  1) Generate initial SAD density


  2) Calculation of reference state (SCF-DIIS algorithm)

  - Setting initial AO density to sad

     Energy of initial guess:               -78.492022836321
     Number of electrons in guess:           12.000000000000

  - Screening and integral thresholds:

     Coulomb screening threshold:    0.1000E-16
     Exchange screening threshold:   0.1000E-14
     ERI cutoff:                     0.1000E-16
     One-electron integral  cutoff:  0.1000E-21
     Cumulative Fock threshold:      0.1000E+01

  - SCF solver settings:

     Maximum iterations:                   100
     Acceleration type:                   diis

  - Convergence thresholds

     Residual threshold:            0.1000E-10
     Energy threshold:              0.1000E-10

  - DIIS tool settings:

     DIIS dimension:   8

     Storage (solver scf_errors): memory
     Storage (solver scf_parameters): memory

  Iteration       Energy (a.u.)      Max(grad.)    Delta E (a.u.)
  ---------------------------------------------------------------
     1           -78.796606592585     0.9786E-01     0.7880E+02
     2           -78.828675852654     0.7077E-01     0.3207E-01
     3           -78.843487343819     0.6747E-02     0.1481E-01
     4           -78.843814479549     0.2753E-02     0.3271E-03
     5           -78.843850612079     0.3973E-03     0.3613E-04
     6           -78.843851670925     0.5220E-04     0.1059E-05
     7           -78.843851692779     0.6096E-05     0.2185E-07
     8           -78.843851693528     0.2137E-05     0.7487E-09
     9           -78.843851693630     0.3151E-06     0.1027E-09
    10           -78.843851693631     0.2637E-07     0.4832E-12
    11           -78.843851693631     0.5634E-08     0.1421E-13
    12           -78.843851693631     0.1415E-08     0.4263E-13
    13           -78.843851693631     0.6806E-09     0.1421E-13
    14           -78.843851693631     0.1491E-09     0.1421E-13
    15           -78.843851693631     0.2501E-10     0.5684E-13
    16           -78.843851693631     0.5168E-11     0.4263E-13
  ---------------------------------------------------------------
  Convergence criterion met in 16 iterations!

  - Summary of RHF wavefunction energetics (a.u.):

     HOMO-LUMO gap:                  0.645629080245
     Nuclear repulsion energy:      12.116100574587
     Electronic energy:            -90.959952268218
     Total energy:                 -78.843851693631

  - Timings for the RHF ground state calculation

     Total wall time (sec):              0.33700
     Total cpu time (sec):               0.44378


  :: MLCC2 wavefunction
  ========================

     Bath orbital(s):         False

   - Number of orbitals:

     Occupied orbitals:    6
     Virtual orbitals:     23
     Molecular orbitals:   29
     Atomic orbitals:      29


  Cholesky-decomposing electron repulsion integrals
  =================================================

  Cholesky decomposition of electronic repulsion integrals solver
  ---------------------------------------------------------------

  Performs a Cholesky decomposition of the two-electron electronic repulsion 
  integrals in the atomic orbital basis,

  (ab|cd) = sum_J L_ab^J L_cd^J.

  Once the Cholesky basis has been determined, the vectors L^J are constructed 
  and stored to disk. These may either be used directly, or be transformed 
  to the MO basis for use in post-HF calculations. For more information, 
  see S. D. Folkestad, E. F. Kjønstad and H. Koch, JCP, 150(19), (2019)

  - Cholesky decomposition settings:

     Target threshold is:   0.10E-11
     Span factor:           0.10E-01
     Max qual:                  1000

  - Cholesky decomposition ao details:

     Total number of AOs:                    29
     Total number of shell pairs:           120
     Total number of AO pairs:              435

     Significant shell pairs:               118
     Significant AO pairs:                  431

     Construct shell pairs:                 120
     Construct AO pairs:                    435

  Iter.  #Sign. ao pairs / shell pairs   Max diagonal    #Qualified    #Cholesky    Cholesky array size
  -------------------------------------------------------------------------------------------------------
     1               406 /     108       0.47383E+01         147             42             17052
     2               319 /      93       0.47165E-01         234            111             35409
     3               250 /      76       0.46944E-03         178            183             45750
     4               187 /      55       0.38270E-05         145            265             49555
     5                87 /      25       0.38106E-07          78            324             28188
     6                21 /       3       0.37202E-09          43            349              7329
     7                 0 /       0       0.36652E-11           7            354                 0
  -------------------------------------------------------------------------------------------------------

  - Summary of Cholesky decomposition of electronic repulsion integrals:

     Final number of Cholesky vectors: 354

 - Testing the Cholesky decomposition decomposition electronic repulsion integrals:

     Maximal difference between approximate and actual diagonal:              0.7161E-12
     Minimal element of difference between approximate and actual diagonal:  -0.1238E-14

  - Settings for integral handling:

     Cholesky vectors in memory: True
     ERI matrix in memory:       False

  - Finished decomposing the ERIs.

     Total wall time (sec):              0.33200
     Total cpu time (sec):               0.20858

  Running CCS calculation for NTOs/CNTOs.

  - Summary of CCS calculation for NTOs/CNTOs:

     Wall time for CCS ground calculation (sec):                   0.00
     CPU time for CCS ground calculation (sec):                    0.00

     Wall time for CCS excited calculation (sec):                  0.12
     CPU time for CCS excited calculation (sec):                   0.07

  - MLCC2 orbital partitioning:

     Orbital type: nto-canonical

     Number occupied cc2 orbitals:    2
     Number virtual cc2 orbitals:     6

     Number occupied ccs orbitals:    4
     Number virtual ccs orbitals:    17


  Determining CC cluster amplitudes
  =================================

   - DIIS coupled cluster ground state solver
  ----------------------------------------------

  A DIIS CC ground state amplitude equations solver. It uses an extrapolation 
  of previous quasi-Newton perturbation theory estimates of the next amplitudes. 
  See Helgaker et al., Molecular Electronic Structure Theory, Chapter 
  13.

  - CC ground state solver settings:

  - Convergence thresholds

     Residual threshold:            0.1000E-10
     Energy threshold:              0.1000E-10
     Max number of iterations:      100

  - DIIS tool settings:

     DIIS dimension:   8

     Storage (cc_gs_diis_errors): file
     Storage (cc_gs_diis_parameters): file

  Iteration    Energy (a.u.)        |omega|       Delta E (a.u.)
  ---------------------------------------------------------------
    1           -78.874442714333     0.1557E-01     0.7887E+02
    2           -78.874723729167     0.3711E-02     0.2810E-03
    3           -78.874812470781     0.9659E-03     0.8874E-04
    4           -78.874831096893     0.2402E-03     0.1863E-04
    5           -78.874831286703     0.4034E-04     0.1898E-06
    6           -78.874831293111     0.4919E-05     0.6408E-08
    7           -78.874831288089     0.1607E-05     0.5022E-08
    8           -78.874831291015     0.1888E-06     0.2927E-08
    9           -78.874831289865     0.2863E-07     0.1151E-08
   10           -78.874831290086     0.5811E-08     0.2216E-09
   11           -78.874831290095     0.1358E-08     0.8427E-11
   12           -78.874831290089     0.4615E-09     0.5969E-11
   13           -78.874831290091     0.6498E-10     0.2331E-11
   14           -78.874831290091     0.8648E-11     0.3553E-12
  ---------------------------------------------------------------
  Convergence criterion met in 14 iterations!

  - Ground state summary:

     Final ground state energy (a.u.):   -78.874831290091

     Correlation energy (a.u.):           -0.030979596460

     Largest single amplitudes:
     -----------------------------------
        a       i         t(a,i)
     -----------------------------------
        1      1        0.014258631228
        4      1        0.004085651779
        5      2        0.003937623665
       15      1       -0.003478662676
       10      1        0.002724857855
        9      2       -0.002418451830
        1      4       -0.002028209249
       11      2       -0.001889985199
        2      6       -0.001830895978
        6      4        0.001755814902
     ------------------------------------

  - Finished solving the MLCC2 ground state equations

     Total wall time (sec):              0.14400
     Total cpu time (sec):               0.09571


  Determining CC excited state amplitudes
  =======================================

  Davidson eigenvalue equation solver
  -----------------------------------

  A Davidson solver that solves an eigenvalue equation: M x = omega x. 
  This equation is solved in a reduced space. A description of the algorithm 
  can be found in E. R. Davidson, J. Comput. Phys. 17, 87 (1975).

   - Davidson tool settings:

     Number of parameters:                  216
     Number of requested solutions:           4
     Max reduced space dimension:           100

     Storage (cc_es_davidson_trials): memory
     Storage (cc_es_davidson_transforms): memory

  - Davidson solver settings

     Number of singlet states:               4
     Max number of iterations:             100

  Iteration:                  1
  Reduced space dimension:    4

  Root  Eigenvalue (Re)   Eigenvalue (Im)    |residual|   Delta E (Re)
  -------------------------------------------------------------------------
     1   0.321765949547    0.000000000000     0.2685E+00   0.3218E+00
     2   0.388535801006    0.000000000000     0.2685E+00   0.3885E+00
     3   0.430551520916    0.000000000000     0.2609E+00   0.4306E+00
     4   0.475305528534    0.000000000000     0.2440E+00   0.4753E+00
  -------------------------------------------------------------------------

  Iteration:                  2
  Reduced space dimension:    8

  Root  Eigenvalue (Re)   Eigenvalue (Im)    |residual|   Delta E (Re)
  -------------------------------------------------------------------------
     1   0.268158870988    0.000000000000     0.3664E-01   0.5361E-01
     2   0.325199333134    0.000000000000     0.5513E-01   0.6334E-01
     3   0.373260299822    0.000000000000     0.4140E-01   0.5729E-01
     4   0.427053371557    0.000000000000     0.4451E-01   0.4825E-01
  -------------------------------------------------------------------------

  Iteration:                  3
  Reduced space dimension:   12

  Root  Eigenvalue (Re)   Eigenvalue (Im)    |residual|   Delta E (Re)
  -------------------------------------------------------------------------
     1   0.267623525578    0.000000000000     0.8972E-02   0.5353E-03
     2   0.323539219341    0.000000000000     0.1095E-01   0.1660E-02
     3   0.370962063795    0.000000000000     0.1742E-01   0.2298E-02
     4   0.424950052354    0.000000000000     0.1305E-01   0.2103E-02
  -------------------------------------------------------------------------

  Iteration:                  4
  Reduced space dimension:   16

  Root  Eigenvalue (Re)   Eigenvalue (Im)    |residual|   Delta E (Re)
  -------------------------------------------------------------------------
     1   0.267597283289    0.000000000000     0.1474E-02   0.2624E-04
     2   0.323432045112    0.000000000000     0.3013E-02   0.1072E-03
     3   0.371485691871    0.000000000000     0.4023E-02   0.5236E-03
     4   0.424302756455    0.000000000000     0.1660E-01   0.6473E-03
  -------------------------------------------------------------------------

  Iteration:                  5
  Reduced space dimension:   20

  Root  Eigenvalue (Re)   Eigenvalue (Im)    |residual|   Delta E (Re)
  -------------------------------------------------------------------------
     1   0.267594845101    0.000000000000     0.2412E-03   0.2438E-05
     2   0.323425123463    0.000000000000     0.2221E-03   0.6922E-05
     3   0.371371862169    0.000000000000     0.1001E-02   0.1138E-03
     4   0.423578125984    0.000000000000     0.9917E-02   0.7246E-03
  -------------------------------------------------------------------------

  Iteration:                  6
  Reduced space dimension:   24

  Root  Eigenvalue (Re)   Eigenvalue (Im)    |residual|   Delta E (Re)
  -------------------------------------------------------------------------
     1   0.267594385218    0.000000000000     0.3332E-04   0.4599E-06
     2   0.323425381139    0.000000000000     0.2145E-04   0.2577E-06
     3   0.371377152148    0.000000000000     0.2285E-03   0.5290E-05
     4   0.423468183390    0.000000000000     0.2398E-02   0.1099E-03
  -------------------------------------------------------------------------

  Iteration:                  7
  Reduced space dimension:   28

  Root  Eigenvalue (Re)   Eigenvalue (Im)    |residual|   Delta E (Re)
  -------------------------------------------------------------------------
     1   0.267594472556    0.000000000000     0.4365E-05   0.8734E-07
     2   0.323425375321    0.000000000000     0.2511E-05   0.5818E-08
     3   0.371377949790    0.000000000000     0.3434E-04   0.7976E-06
     4   0.423473342639    0.000000000000     0.3256E-03   0.5159E-05
  -------------------------------------------------------------------------

  Iteration:                  8
  Reduced space dimension:   32

  Root  Eigenvalue (Re)   Eigenvalue (Im)    |residual|   Delta E (Re)
  -------------------------------------------------------------------------
     1   0.267594464050    0.000000000000     0.4248E-06   0.8506E-08
     2   0.323425374702    0.000000000000     0.2211E-06   0.6187E-09
     3   0.371377794714    0.000000000000     0.6916E-05   0.1551E-06
     4   0.423470814531    0.000000000000     0.3357E-04   0.2528E-05
  -------------------------------------------------------------------------

  Iteration:                  9
  Reduced space dimension:   36

  Root  Eigenvalue (Re)   Eigenvalue (Im)    |residual|   Delta E (Re)
  -------------------------------------------------------------------------
     1   0.267594465808    0.000000000000     0.5023E-07   0.1757E-08
     2   0.323425374993    0.000000000000     0.2475E-07   0.2907E-09
     3   0.371377811058    0.000000000000     0.8104E-06   0.1634E-07
     4   0.423471077704    0.000000000000     0.4410E-05   0.2632E-06
  -------------------------------------------------------------------------

  Iteration:                 10
  Reduced space dimension:   40

  Root  Eigenvalue (Re)   Eigenvalue (Im)    |residual|   Delta E (Re)
  -------------------------------------------------------------------------
     1   0.267594465955    0.000000000000     0.8478E-08   0.1471E-09
     2   0.323425374969    0.000000000000     0.2230E-08   0.2359E-10
     3   0.371377808737    0.000000000000     0.1015E-06   0.2321E-08
     4   0.423471050117    0.000000000000     0.6504E-06   0.2759E-07
  -------------------------------------------------------------------------

  Iteration:                 11
  Reduced space dimension:   44

  Root  Eigenvalue (Re)   Eigenvalue (Im)    |residual|   Delta E (Re)
  -------------------------------------------------------------------------
     1   0.267594465893    0.000000000000     0.8894E-09   0.6165E-10
     2   0.323425374971    0.000000000000     0.2058E-09   0.1934E-11
     3   0.371377808028    0.000000000000     0.1150E-07   0.7089E-09
     4   0.423471049074    0.000000000000     0.9107E-07   0.1042E-08
  -------------------------------------------------------------------------

  Iteration:                 12
  Reduced space dimension:   48

  Root  Eigenvalue (Re)   Eigenvalue (Im)    |residual|   Delta E (Re)
  -------------------------------------------------------------------------
     1   0.267594465899    0.000000000000     0.8502E-10   0.6015E-11
     2   0.323425374971    0.000000000000     0.4706E-10   0.8143E-13
     3   0.371377808107    0.000000000000     0.1357E-08   0.7871E-10
     4   0.423471049332    0.000000000000     0.1345E-07   0.2577E-09
  -------------------------------------------------------------------------

  Iteration:                 13
  Reduced space dimension:   52

  Root  Eigenvalue (Re)   Eigenvalue (Im)    |residual|   Delta E (Re)
  -------------------------------------------------------------------------
     1   0.267594465898    0.000000000000     0.1128E-10   0.5514E-12
     2   0.323425374971    0.000000000000     0.4541E-11   0.7161E-14
     3   0.371377808102    0.000000000000     0.1667E-09   0.5091E-11
     4   0.423471049248    0.000000000000     0.9184E-09   0.8353E-10
  -------------------------------------------------------------------------

  Iteration:                 14
  Reduced space dimension:   55

  Root  Eigenvalue (Re)   Eigenvalue (Im)    |residual|   Delta E (Re)
  -------------------------------------------------------------------------
     1   0.267594465898    0.000000000000     0.5011E-12   0.1960E-13
     2   0.323425374971    0.000000000000     0.4392E-11   0.3386E-14
     3   0.371377808102    0.000000000000     0.2767E-10   0.6696E-12
     4   0.423471049258    0.000000000000     0.1441E-09   0.9232E-11
  -------------------------------------------------------------------------

  Iteration:                 15
  Reduced space dimension:   57

  Root  Eigenvalue (Re)   Eigenvalue (Im)    |residual|   Delta E (Re)
  -------------------------------------------------------------------------
     1   0.267594465898    0.000000000000     0.4949E-12   0.1665E-14
     2   0.323425374971    0.000000000000     0.4394E-11   0.8882E-15
     3   0.371377808102    0.000000000000     0.3263E-11   0.9992E-14
     4   0.423471049257    0.000000000000     0.1074E-10   0.9875E-12
  -------------------------------------------------------------------------

  Iteration:                 16
  Reduced space dimension:   58

  Root  Eigenvalue (Re)   Eigenvalue (Im)    |residual|   Delta E (Re)
  -------------------------------------------------------------------------
     1   0.267594465898    0.000000000000     0.4977E-12   0.2720E-14
     2   0.323425374971    0.000000000000     0.4300E-11   0.9437E-15
     3   0.371377808102    0.000000000000     0.3212E-11   0.5773E-14
     4   0.423471049257    0.000000000000     0.1642E-11   0.4274E-13
  -------------------------------------------------------------------------
  Convergence criterion met in 16 iterations!

  - Excitation vector amplitudes:

     Electronic state nr. 1

     Energy (Hartree):                  0.267594465898
     Fraction singles (|R1|/|R|):       0.992313740275

     MLCC diagnostics:

     |R1^internal|/|R| =       0.991067247278
     |R1^internal|/|R1| =      0.998743851923

     Largest single amplitudes:
     -----------------------------------
        a       i         R(a,i)
     -----------------------------------
        1      2       -0.982001771539
        4      2       -0.123850815923
        6      2        0.049760718980
       13      2        0.040603574936
       15      2       -0.015747992533
        9      2        0.009938014748
       22      2       -0.009285629965
       19      1        0.009084310042
        8      6        0.007726161734
       10      2       -0.007680650849
     ------------------------------------

     Electronic state nr. 2

     Energy (Hartree):                  0.323425374971
     Fraction singles (|R1|/|R|):       0.993174867876

     MLCC diagnostics:

     |R1^internal|/|R| =       0.987773236537
     |R1^internal|/|R1| =      0.994561248463

     Largest single amplitudes:
     -----------------------------------
        a       i         R(a,i)
     -----------------------------------
        2      2       -0.969484449943
        3      2       -0.189141963173
        7      2        0.096034123135
       14      2       -0.036713933479
       12      2        0.006817097061
        8      4        0.005577801292
        2      1       -0.004197787868
       20      4       -0.003624832839
       11      6        0.003520879354
        5      6        0.003001216957
     ------------------------------------

     Electronic state nr. 3

     Energy (Hartree):                  0.371377808102
     Fraction singles (|R1|/|R|):       0.993672705914

     MLCC diagnostics:

     |R1^internal|/|R| =       0.972268548600
     |R1^internal|/|R1| =      0.978459549924

     Largest single amplitudes:
     -----------------------------------
        a       i         R(a,i)
     -----------------------------------
        1      1        0.967068715743
        2      6       -0.181845546420
        4      1        0.089233219367
        3      6       -0.068347876406
        5      2       -0.045455525035
       13      1       -0.033945137333
        7      6        0.032525798843
        1      4       -0.025280029937
       10      1        0.017192154982
        4      4       -0.016061477859
     ------------------------------------

     Electronic state nr. 4

     Energy (Hartree):                  0.423471049257
     Fraction singles (|R1|/|R|):       0.992288367474

     MLCC diagnostics:

     |R1^internal|/|R| =       0.960775408185
     |R1^internal|/|R1| =      0.968242135732

     Largest single amplitudes:
     -----------------------------------
        a       i         R(a,i)
     -----------------------------------
        2      1       -0.951049050607
        1      6        0.217829454103
        3      1       -0.136309152583
        7      1        0.086467644631
        4      6        0.069391134103
       14      1       -0.018967501091
        8      2       -0.016876192153
       15      6        0.016400573170
        2      4       -0.014965710485
       20      2       -0.010521958051
     ------------------------------------

  - MLCC2 excitation energies:

                                      Excitation energy
                          ------------------------------------------
      State                (Hartree)             (eV)
     ---------------------------------------------------------------
        1                  0.267594465898        7.281616308379
        2                  0.323425374971        8.800852727004
        3                  0.371377808102       10.105704895538
        4                  0.423471049257       11.523234189616
     ---------------------------------------------------------------
     eV/Hartree (CODATA 2014): 27.21138602

  ------------------------------------------------------------

  Peak memory usage during the execution of eT: 12.074756 MB

  Total wall time in eT (sec):              1.27100
  Total cpu time in eT (sec):               1.11547

  Calculation ended: 2022-04-07 12:35:51 UTC -07:00

  - Implementation references:

     eT: https://doi.org/10.1063/5.0004713
     MLCC2 and MLCCSD: https://doi.org/10.1021/acs.jctc.9b00701
     Cholesky decomposition of ERIs: https://doi.org/10.1063/1.5083802

  eT terminated successfully!
