


                     eT 1.7 - an electronic structure program

  ------------------------------------------------------------------------
   Author list in alphabetical order:
  ------------------------------------------------------------------------
   J. H. Andersen, A. Balbi, S. Coriani, S. D. Folkestad, T. Giovannini, 
   L. Goletto, T. S. Haugland, A. Hutcheson, I-M. Høyvik, E. F. Kjønstad, 
   H. Koch, R. Matveeva, T. Moitra, R. H. Myhre, A. C. Paul, S. Roet, 
   E. RoncaM. Scavino, A. K. Schnack-Petersen, A. S. Skeidsvoll, Å. 
   H. Tveten
  ------------------------------------------------------------------------
   J. Chem. Phys. 152, 184103 (2020); https://doi.org/10.1063/5.0004713


   This is eT 1.7.0 Hydra
  ------------------------------------------------------------
  Configuration date: 2022-04-07 12:33:31 UTC -07:00
  Git branch:         release-v1.7.0
  Git hash:           c5c382d7d23365463896a87c37298e4a37e4c962
  Fortran compiler:   GNU 11.2.0
  C compiler:         GNU 11.2.0
  C++ compiler:       GNU 11.2.0
  LAPACK type:        SYSTEM_NATIVE
  BLAS type:          SYSTEM_NATIVE
  64-bit integers:    OFF
  OpenMP:             ON
  PCM:                OFF
  Forced batching:    OFF
  Runtime checks:     OFF
  ------------------------------------------------------------

  Calculation started: 2022-04-07 12:35:52 UTC -07:00


  :: Input file
  ================

     Note: geometry section is excluded from this print

     system
        name: H2O He
        charge: 0
     end system

     do
       ground state
       excited state
     end do

     memory
        available: 8
     end memory

     solver cholesky
        threshold: 1.0d-12
     end solver cholesky

     solver scf
        algorithm:          scf-diis
        energy threshold:   1.0d-11
        gradient threshold: 1.0d-11
     end solver scf

     method
        hf
        mlcc2
     end method

     solver cc gs
        omega threshold:  1.0d-11
        energy threshold: 1.0d-11
     end solver cc gs

     solver cc es
        algorithm:          davidson
        singlet states:     2
        residual threshold: 1.0d-11
        energy threshold:   1.0d-11
        right eigenvectors
        core excitation: {1}
     end solver cc es

     active atoms
        selection type: list
        cc2: {3}
     end active atoms

     mlcc
        cc2 orbitals: cholesky
        cholesky threshold: 1.0d-1
     end mlcc


  Running on 2 OMP threads
  Memory available for calculation: 8.000000 GB


  :: RHF wavefunction
  ======================

     ==============================================================================
                                     Geometry (angstrom)
     ==============================================================================
        Atom           X                  Y                  Z         # in input
     ==============================================================================
        Basis: cc-pvdz
        1  O     0.000000000000    -0.075790000000     5.000000000000        3
        2  H     0.866810000000     0.601440000000     5.000000000000        1
        3  H    -0.866810000000     0.601440000000     5.000000000000        2
        4 He     0.100000000000    -0.020000000000     7.530000000000        4
     ==============================================================================

     ==============================================================================
                                     Geometry (a.u.)
     ==============================================================================
        Atom           X                  Y                  Z         # in input
     ==============================================================================
        Basis: cc-pvdz
        1  O     0.000000000000    -0.143222342981     9.448630622825        3
        2  H     1.638033502034     1.136556880358     9.448630622825        1
        3  H    -1.638033502034     1.136556880358     9.448630622825        2
        4 He     0.188972612457    -0.037794522491    14.229637717975        4
     ==============================================================================

  - Cholesky decomposition of AO overlap to get linearly independent AOs:

     Linear dependence threshold:             0.10E-05
     Number of atomic orbitals:               29
     Number of orthonormal atomic orbitals:   29

  - Molecular orbital details:

     Number of occupied orbitals:         6
     Number of virtual orbitals:         23
     Number of molecular orbitals:       29


  :: Hartree-Fock engine
  =========================

  Drives the calculation of the Hartree-Fock state.

  This is a RHF ground state calculation.
  The following tasks will be performed:

     1) Generate initial SAD density
     2) Calculation of reference state (SCF-DIIS algorithm)


  1) Generate initial SAD density


  2) Calculation of reference state (SCF-DIIS algorithm)

  - Setting initial AO density to sad

     Energy of initial guess:               -78.492022836322
     Number of electrons in guess:           12.000000000000

  - Screening and integral thresholds:

     Coulomb screening threshold:    0.1000E-16
     Exchange screening threshold:   0.1000E-14
     ERI cutoff:                     0.1000E-16
     One-electron integral  cutoff:  0.1000E-21
     Cumulative Fock threshold:      0.1000E+01

  - SCF solver settings:

     Maximum iterations:                   100
     Acceleration type:                   diis

  - Convergence thresholds

     Residual threshold:            0.1000E-10
     Energy threshold:              0.1000E-10

  - DIIS tool settings:

     DIIS dimension:   8

     Storage (solver scf_errors): memory
     Storage (solver scf_parameters): memory

  Iteration       Energy (a.u.)      Max(grad.)    Delta E (a.u.)
  ---------------------------------------------------------------
     1           -78.796606592585     0.9711E-01     0.7880E+02
     2           -78.828675852654     0.7077E-01     0.3207E-01
     3           -78.843487343819     0.6125E-02     0.1481E-01
     4           -78.843814479549     0.2753E-02     0.3271E-03
     5           -78.843850612079     0.3973E-03     0.3613E-04
     6           -78.843851670925     0.5220E-04     0.1059E-05
     7           -78.843851692779     0.6749E-05     0.2185E-07
     8           -78.843851693528     0.2204E-05     0.7487E-09
     9           -78.843851693630     0.3162E-06     0.1027E-09
    10           -78.843851693631     0.2573E-07     0.3695E-12
    11           -78.843851693631     0.5507E-08     0.1421E-13
    12           -78.843851693631     0.1348E-08     0.9948E-13
    13           -78.843851693631     0.6167E-09     0.2842E-13
    14           -78.843851693631     0.1382E-09     0.2842E-13
    15           -78.843851693631     0.2501E-10     0.1421E-13
    16           -78.843851693631     0.5171E-11     0.7105E-13
  ---------------------------------------------------------------
  Convergence criterion met in 16 iterations!

  - Summary of RHF wavefunction energetics (a.u.):

     HOMO-LUMO gap:                  0.645629080245
     Nuclear repulsion energy:      12.116100574587
     Electronic energy:            -90.959952268218
     Total energy:                 -78.843851693631

  - Timings for the RHF ground state calculation

     Total wall time (sec):              0.30700
     Total cpu time (sec):               0.45216


  :: MLCC2 wavefunction
  ========================

     Bath orbital(s):         False

   - Number of orbitals:

     Occupied orbitals:    6
     Virtual orbitals:     23
     Molecular orbitals:   29
     Atomic orbitals:      29


  Cholesky-decomposing electron repulsion integrals
  =================================================

  Cholesky decomposition of electronic repulsion integrals solver
  ---------------------------------------------------------------

  Performs a Cholesky decomposition of the two-electron electronic repulsion 
  integrals in the atomic orbital basis,

  (ab|cd) = sum_J L_ab^J L_cd^J.

  Once the Cholesky basis has been determined, the vectors L^J are constructed 
  and stored to disk. These may either be used directly, or be transformed 
  to the MO basis for use in post-HF calculations. For more information, 
  see S. D. Folkestad, E. F. Kjønstad and H. Koch, JCP, 150(19), (2019)

  - Cholesky decomposition settings:

     Target threshold is:   0.10E-11
     Span factor:           0.10E-01
     Max qual:                  1000

  - Cholesky decomposition ao details:

     Total number of AOs:                    29
     Total number of shell pairs:           120
     Total number of AO pairs:              435

     Significant shell pairs:               118
     Significant AO pairs:                  431

     Construct shell pairs:                 120
     Construct AO pairs:                    435

  Iter.  #Sign. ao pairs / shell pairs   Max diagonal    #Qualified    #Cholesky    Cholesky array size
  -------------------------------------------------------------------------------------------------------
     1               406 /     108       0.47383E+01         147             42             17052
     2               319 /      93       0.47165E-01         234            111             35409
     3               250 /      76       0.46944E-03         178            183             45750
     4               187 /      55       0.38270E-05         145            265             49555
     5                87 /      25       0.38106E-07          78            324             28188
     6                21 /       3       0.37202E-09          43            349              7329
     7                 0 /       0       0.36652E-11           7            354                 0
  -------------------------------------------------------------------------------------------------------

  - Summary of Cholesky decomposition of electronic repulsion integrals:

     Final number of Cholesky vectors: 354

 - Testing the Cholesky decomposition decomposition electronic repulsion integrals:

     Maximal difference between approximate and actual diagonal:              0.7161E-12
     Minimal element of difference between approximate and actual diagonal:  -0.1241E-14

  - Settings for integral handling:

     Cholesky vectors in memory: True
     ERI matrix in memory:       False

  - Finished decomposing the ERIs.

     Total wall time (sec):              0.21700
     Total cpu time (sec):               0.20359

     The smallest diagonal after decomposition is:  -0.9114E-16

     The smallest diagonal after decomposition is:  -0.1535E-13

  - MLCC2 orbital partitioning:

     Orbital type: cholesky

     Number occupied cc2 orbitals:    5
     Number virtual cc2 orbitals:    13

     Number occupied ccs orbitals:    1
     Number virtual ccs orbitals:    10


  Determining CC cluster amplitudes
  =================================

   - DIIS coupled cluster ground state solver
  ----------------------------------------------

  A DIIS CC ground state amplitude equations solver. It uses an extrapolation 
  of previous quasi-Newton perturbation theory estimates of the next amplitudes. 
  See Helgaker et al., Molecular Electronic Structure Theory, Chapter 
  13.

  - CC ground state solver settings:

  - Convergence thresholds

     Residual threshold:            0.1000E-10
     Energy threshold:              0.1000E-10
     Max number of iterations:      100

  - DIIS tool settings:

     DIIS dimension:   8

     Storage (cc_gs_diis_errors): file
     Storage (cc_gs_diis_parameters): file

  Iteration    Energy (a.u.)        |omega|       Delta E (a.u.)
  ---------------------------------------------------------------
    1           -78.991239569036     0.2815E-01     0.7899E+02
    2           -78.991934311171     0.1295E-01     0.6947E-03
    3           -78.992356001603     0.5943E-02     0.4217E-03
    4           -78.992614945282     0.1643E-02     0.2589E-03
    5           -78.992652952996     0.7528E-03     0.3801E-04
    6           -78.992655383666     0.4255E-03     0.2431E-05
    7           -78.992658054161     0.1110E-03     0.2670E-05
    8           -78.992658419625     0.4063E-04     0.3655E-06
    9           -78.992658348445     0.1137E-04     0.7118E-07
   10           -78.992658317935     0.2727E-05     0.3051E-07
   11           -78.992658320632     0.1418E-05     0.2697E-08
   12           -78.992658325639     0.9051E-06     0.5007E-08
   13           -78.992658327967     0.2578E-06     0.2328E-08
   14           -78.992658325824     0.9628E-07     0.2143E-08
   15           -78.992658323541     0.3812E-07     0.2283E-08
   16           -78.992658322422     0.1367E-07     0.1120E-08
   17           -78.992658322018     0.4768E-08     0.4037E-09
   18           -78.992658321920     0.1716E-08     0.9825E-10
   19           -78.992658321896     0.5490E-09     0.2346E-10
   20           -78.992658321886     0.1811E-09     0.1089E-10
   21           -78.992658321885     0.8976E-10     0.6963E-12
   22           -78.992658321885     0.5379E-10     0.7105E-13
   23           -78.992658321885     0.2207E-10     0.8527E-13
   24           -78.992658321885     0.7706E-11     0.1847E-12
  ---------------------------------------------------------------
  Convergence criterion met in 24 iterations!

  - Ground state summary:

     Final ground state energy (a.u.):   -78.992658321885

     Correlation energy (a.u.):           -0.148806628254

     Largest single amplitudes:
     -----------------------------------
        a       i         t(a,i)
     -----------------------------------
       15      4       -0.016328878165
        5      3        0.014564153926
        6      4        0.012826074952
       17      3        0.012491270945
        3      3        0.009204805599
       14      3       -0.007937198478
        2      5        0.006832883840
       20      3       -0.003941989393
        1      2        0.003004112648
       15      2       -0.002970409241
     ------------------------------------

  - Finished solving the MLCC2 ground state equations

     Total wall time (sec):              0.29800
     Total cpu time (sec):               0.15623


  Determining CC excited state amplitudes
  =======================================

  Davidson eigenvalue equation solver
  -----------------------------------

  A Davidson solver that solves an eigenvalue equation: M x = omega x. 
  This equation is solved in a reduced space. A description of the algorithm 
  can be found in E. R. Davidson, J. Comput. Phys. 17, 87 (1975).

   - Davidson tool settings:

     Number of parameters:                 2283
     Number of requested solutions:           2
     Max reduced space dimension:           100

     Storage (cc_es_davidson_trials): memory
     Storage (cc_es_davidson_transforms): memory

  - Davidson solver settings

     Number of singlet states:               2
     Max number of iterations:             100

  Iteration:                  1
  Reduced space dimension:    2

  Root  Eigenvalue (Re)   Eigenvalue (Im)    |residual|   Delta E (Re)
  -------------------------------------------------------------------------
     1  20.904590452835    0.000000000000     0.8908E+00   0.2090E+02
     2  20.932568788543    0.000000000000     0.1058E+01   0.2093E+02
  -------------------------------------------------------------------------

  Iteration:                  2
  Reduced space dimension:    4

  Root  Eigenvalue (Re)   Eigenvalue (Im)    |residual|   Delta E (Re)
  -------------------------------------------------------------------------
     1  20.447450136767    0.000000000000     0.2558E+00   0.4571E+00
     2  20.631813989010    0.000000000000     0.9175E-01   0.3008E+00
  -------------------------------------------------------------------------

  Iteration:                  3
  Reduced space dimension:    6

  Root  Eigenvalue (Re)   Eigenvalue (Im)    |residual|   Delta E (Re)
  -------------------------------------------------------------------------
     1  20.359526482707    0.000000000000     0.4513E+00   0.8792E-01
     2  20.627170300394    0.000000000000     0.1164E+00   0.4644E-02
  -------------------------------------------------------------------------

  Iteration:                  4
  Reduced space dimension:    8

  Root  Eigenvalue (Re)   Eigenvalue (Im)    |residual|   Delta E (Re)
  -------------------------------------------------------------------------
     1  20.127682051687    0.000000000000     0.2414E+00   0.2318E+00
     2  20.483104781153    0.000000000000     0.1495E+00   0.1441E+00
  -------------------------------------------------------------------------

  Iteration:                  5
  Reduced space dimension:   10

  Root  Eigenvalue (Re)   Eigenvalue (Im)    |residual|   Delta E (Re)
  -------------------------------------------------------------------------
     1  20.101037101770    0.000000000000     0.7325E-01   0.2664E-01
     2  20.474000690922    0.000000000000     0.5388E+00   0.9104E-02
  -------------------------------------------------------------------------

  Iteration:                  6
  Reduced space dimension:   12

  Root  Eigenvalue (Re)   Eigenvalue (Im)    |residual|   Delta E (Re)
  -------------------------------------------------------------------------
     1  20.099963753611    0.000000000000     0.3230E-01   0.1073E-02
     2  20.143727854774    0.000000000000     0.3561E+00   0.3303E+00
  -------------------------------------------------------------------------

  Iteration:                  7
  Reduced space dimension:   14

  Root  Eigenvalue (Re)   Eigenvalue (Im)    |residual|   Delta E (Re)
  -------------------------------------------------------------------------
     1  20.093612479108    0.000000000000     0.1387E+00   0.6351E-02
     2  20.100567375006    0.000000000000     0.3165E-01   0.4316E-01
  -------------------------------------------------------------------------

  Iteration:                  8
  Reduced space dimension:   16

  Root  Eigenvalue (Re)   Eigenvalue (Im)    |residual|   Delta E (Re)
  -------------------------------------------------------------------------
     1  20.087158383214    0.000000000000     0.4585E-01   0.6454E-02
     2  20.100459691968    0.000000000000     0.5776E-02   0.1077E-03
  -------------------------------------------------------------------------

  Iteration:                  9
  Reduced space dimension:   18

  Root  Eigenvalue (Re)   Eigenvalue (Im)    |residual|   Delta E (Re)
  -------------------------------------------------------------------------
     1  20.087580765129    0.000000000000     0.1480E-01   0.4224E-03
     2  20.100489639753    0.000000000000     0.2080E-02   0.2995E-04
  -------------------------------------------------------------------------

  Iteration:                 10
  Reduced space dimension:   20

  Root  Eigenvalue (Re)   Eigenvalue (Im)    |residual|   Delta E (Re)
  -------------------------------------------------------------------------
     1  20.087407318171    0.000000000000     0.3999E-02   0.1734E-03
     2  20.100482300574    0.000000000000     0.4460E-03   0.7339E-05
  -------------------------------------------------------------------------

  Iteration:                 11
  Reduced space dimension:   22

  Root  Eigenvalue (Re)   Eigenvalue (Im)    |residual|   Delta E (Re)
  -------------------------------------------------------------------------
     1  20.087372279419    0.000000000000     0.7380E-03   0.3504E-04
     2  20.100481602768    0.000000000000     0.7738E-04   0.6978E-06
  -------------------------------------------------------------------------

  Iteration:                 12
  Reduced space dimension:   24

  Root  Eigenvalue (Re)   Eigenvalue (Im)    |residual|   Delta E (Re)
  -------------------------------------------------------------------------
     1  20.087387701455    0.000000000000     0.2143E-03   0.1542E-04
     2  20.100481750886    0.000000000000     0.1760E-04   0.1481E-06
  -------------------------------------------------------------------------

  Iteration:                 13
  Reduced space dimension:   26

  Root  Eigenvalue (Re)   Eigenvalue (Im)    |residual|   Delta E (Re)
  -------------------------------------------------------------------------
     1  20.087387792522    0.000000000000     0.4627E-04   0.9107E-07
     2  20.100481528896    0.000000000000     0.3633E-05   0.2220E-06
  -------------------------------------------------------------------------

  Iteration:                 14
  Reduced space dimension:   28

  Root  Eigenvalue (Re)   Eigenvalue (Im)    |residual|   Delta E (Re)
  -------------------------------------------------------------------------
     1  20.087387311489    0.000000000000     0.6753E-05   0.4810E-06
     2  20.100481511427    0.000000000000     0.5425E-06   0.1747E-07
  -------------------------------------------------------------------------

  Iteration:                 15
  Reduced space dimension:   30

  Root  Eigenvalue (Re)   Eigenvalue (Im)    |residual|   Delta E (Re)
  -------------------------------------------------------------------------
     1  20.087387315352    0.000000000000     0.3870E-06   0.3863E-08
     2  20.100481510539    0.000000000000     0.3183E-07   0.8881E-09
  -------------------------------------------------------------------------

  Iteration:                 16
  Reduced space dimension:   32

  Root  Eigenvalue (Re)   Eigenvalue (Im)    |residual|   Delta E (Re)
  -------------------------------------------------------------------------
     1  20.087387318593    0.000000000000     0.2857E-07   0.3241E-08
     2  20.100481510479    0.000000000000     0.2933E-08   0.5994E-10
  -------------------------------------------------------------------------

  Iteration:                 17
  Reduced space dimension:   34

  Root  Eigenvalue (Re)   Eigenvalue (Im)    |residual|   Delta E (Re)
  -------------------------------------------------------------------------
     1  20.087387319211    0.000000000000     0.7531E-08   0.6185E-09
     2  20.100481510468    0.000000000000     0.7983E-09   0.1032E-10
  -------------------------------------------------------------------------

  Iteration:                 18
  Reduced space dimension:   36

  Root  Eigenvalue (Re)   Eigenvalue (Im)    |residual|   Delta E (Re)
  -------------------------------------------------------------------------
     1  20.087387319121    0.000000000000     0.4300E-09   0.9057E-10
     2  20.100481510470    0.000000000000     0.4488E-10   0.1812E-11
  -------------------------------------------------------------------------

  Iteration:                 19
  Reduced space dimension:   38

  Root  Eigenvalue (Re)   Eigenvalue (Im)    |residual|   Delta E (Re)
  -------------------------------------------------------------------------
     1  20.087387319108    0.000000000000     0.1258E-10   0.1256E-10
     2  20.100481510470    0.000000000000     0.1181E-11   0.1243E-12
  -------------------------------------------------------------------------

  Iteration:                 20
  Reduced space dimension:   39

  Root  Eigenvalue (Re)   Eigenvalue (Im)    |residual|   Delta E (Re)
  -------------------------------------------------------------------------
     1  20.087387319108    0.000000000000     0.4057E-12   0.2380E-12
     2  20.100481510470    0.000000000000     0.1614E-12   0.3197E-13
  -------------------------------------------------------------------------
  Convergence criterion met in 20 iterations!

  - Excitation vector amplitudes:

     Electronic state nr. 1

     Energy (Hartree):                 20.087387319108
     Fraction singles (|R1|/|R|):       0.989663908021

     MLCC diagnostics:

     |R1^internal|/|R| =       0.771315627186
     |R1^internal|/|R1| =      0.779371280426

     Largest single amplitudes:
     -----------------------------------
        a       i         R(a,i)
     -----------------------------------
        5      1       -0.554949129619
        3      1       -0.534513867315
       17      1       -0.517132801565
       14      1        0.326796510442
       20      1        0.101222472849
       13      1       -0.034696397242
        2      1       -0.006612176348
       22      1        0.004178471823
       18      1        0.003508048780
       15      1       -0.002472363841
     ------------------------------------

     Electronic state nr. 2

     Energy (Hartree):                 20.100481510470
     Fraction singles (|R1|/|R|):       0.992600388149

     MLCC diagnostics:

     |R1^internal|/|R| =       0.689324486940
     |R1^internal|/|R1| =      0.694463245401

     Largest single amplitudes:
     -----------------------------------
        a       i         R(a,i)
     -----------------------------------
       15      1       -0.683933227405
        6      1        0.596951384546
        1      1        0.270297952761
       16      1       -0.205345553905
        4      1        0.196053955620
        7      1        0.055752281524
       12      1       -0.051850399587
        2      1        0.036406844988
       11      1       -0.013795181699
       18      1        0.011524833596
     ------------------------------------

  - MLCC2 excitation energies:

                                      Excitation energy
                          ------------------------------------------
      State                (Hartree)             (eV)
     ---------------------------------------------------------------
        1                 20.087387319108      546.605650473506
        2                 20.100481510470      546.961961569273
     ---------------------------------------------------------------
     eV/Hartree (CODATA 2014): 27.21138602

  ------------------------------------------------------------

  Peak memory usage during the execution of eT: 10.665728 MB

  Total wall time in eT (sec):              1.08700
  Total cpu time in eT (sec):               0.99797

  Calculation ended: 2022-04-07 12:35:53 UTC -07:00

  - Implementation references:

     eT: https://doi.org/10.1063/5.0004713
     MLCC2 and MLCCSD: https://doi.org/10.1021/acs.jctc.9b00701
     Cholesky decomposition of ERIs: https://doi.org/10.1063/1.5083802

  eT terminated successfully!
